dump.vcd
$date
   Tue Dec  5 18:44:18 2023
$end
$version
  2023.1
$end
$timescale
  1ps
$end
$scope module rasterizer_tb $end
$var reg 1 | clk $end
$var reg 1 } rst $end
$var reg 1 ~ valid_tri $end
$var reg 1 !! obj_done $end
$var reg 1 "! new_frame $end
$var reg 6 #! hcount_in [5:0] $end
$var reg 6 $! vcount_in [5:0] $end
$var reg 8 ( color [7:0] $end
$var parameter 32 %! W [31:0] $end
$var parameter 32 &! H [31:0] $end
$scope module uut $end
$var wire 1 ! clk_in $end
$var wire 1 " rst_in $end
$var wire 1 # valid_tri $end
$var wire 1 $ obj_done $end
$var wire 1 % new_frame $end
$var wire 6 & hcount [5:0] $end
$var wire 6 ' vcount [5:0] $end
$var reg 8 ( color_out [7:0] $end
$var reg 32 ) state $end
$var reg 1 * buf_sel $end
$var reg 17 + write_addr [16:0] $end
$var reg 17 , write_in [16:0] $end
$var reg 1 - wea0 $end
$var reg 1 . wea1 $end
$var reg 9 / read_out_w [8:0] $end
$var reg 9 0 x_max [8:0] $end
$var reg 9 1 x_min [8:0] $end
$var reg 9 2 y_max [8:0] $end
$var reg 9 3 y_min [8:0] $end
$var reg 9 4 x_iter [8:0] $end
$var reg 9 5 y_iter [8:0] $end
$var reg 9 6 depth [8:0] $end
$var reg 1 7 valid_r $end
$var reg 16 8 buffer_in0 [15:0] $end
$var reg 16 9 buffer_in1 [15:0] $end
$var reg 8 : color_val [7:0] $end
$var reg 17 ; read_out0 [16:0] $end
$var reg 17 < read_out1 [16:0] $end
$var reg 8 = read_out [7:0] $end
$var reg 17 > read_addr0 [16:0] $end
$var reg 17 ? read_addr1 [16:0] $end
$var reg 1 @ in_tri_v_in $end
$var reg 1 A in_tri_out $end
$var reg 1 B in_tri_v_out $end
$scope begin Block52_1 $end
$var reg 32 C i [31:0] $end
$upscope $end
$scope module intri $end
$var wire 1 ! clk_in $end
$var wire 1 " rst_in $end
$var wire 9 D x [8:0] $end
$var wire 9 E y [8:0] $end
$var wire 1 F valid_in $end
$var reg 1 A in_tri $end
$var reg 1 B valid_out $end
$var reg 32 G state $end
$var reg 17 H detv1v2 [16:0] $end
$var reg 17 I detvv2 [16:0] $end
$var reg 17 J detv0v2 [16:0] $end
$var reg 17 K detvv1 [16:0] $end
$var reg 17 L detv0v1 [16:0] $end
$var reg 17 M a_num [16:0] $end
$var reg 17 N b_num [16:0] $end
$var reg 16 O a_raw [15:0] $end
$var reg 16 P b_raw [15:0] $end
$var reg 16 Q det_raw [15:0] $end
$var reg 1 R a $end
$var reg 1 S b $end
$upscope $end
$scope module z_buffer0 $end
$var wire 12 T addra [11:0] $end
$var wire 12 U addrb [11:0] $end
$var wire 17 V dina [16:0] $end
$var wire 17 W dinb [16:0] $end
$var wire 1 ! clka $end
$var wire 1 ! clkb $end
$var wire 1 X wea $end
$var wire 1 Y web $end
$var wire 1 Z ena $end
$var wire 1 [ enb $end
$var wire 1 " rsta $end
$var wire 1 " rstb $end
$var wire 1 \ regcea $end
$var wire 1 ] regceb $end
$var wire 17 ^ douta [16:0] $end
$var wire 17 _ doutb [16:0] $end
$var reg 17 ` ram_data_a [16:0] $end
$var reg 17 a ram_data_b [16:0] $end
$var integer 32 b \init_bram_to_zero.ram_index  [31:0] $end
$var integer 32 c idx [31:0] $end
$var reg 17 d \output_register.douta_reg  [16:0] $end
$var reg 17 e \output_register.doutb_reg  [16:0] $end
$upscope $end
$scope module z_buffer1 $end
$var wire 12 f addra [11:0] $end
$var wire 12 g addrb [11:0] $end
$var wire 17 h dina [16:0] $end
$var wire 17 i dinb [16:0] $end
$var wire 1 ! clka $end
$var wire 1 ! clkb $end
$var wire 1 j wea $end
$var wire 1 k web $end
$var wire 1 l ena $end
$var wire 1 m enb $end
$var wire 1 " rsta $end
$var wire 1 " rstb $end
$var wire 1 n regcea $end
$var wire 1 o regceb $end
$var wire 17 p douta [16:0] $end
$var wire 17 q doutb [16:0] $end
$var reg 17 r ram_data_a [16:0] $end
$var reg 17 s ram_data_b [16:0] $end
$var integer 32 t \init_bram_to_zero.ram_index  [31:0] $end
$var integer 32 u idx [31:0] $end
$var reg 17 v \output_register.douta_reg  [16:0] $end
$var reg 17 w \output_register.doutb_reg  [16:0] $end
$upscope $end
$upscope $end
$scope begin Block59_19 $end
$var integer 32 x i [31:0] $end
$scope begin Block60_20 $end
$var integer 32 y j [31:0] $end
$upscope $end
$upscope $end
$scope begin Block68_21 $end
$var integer 32 z i [31:0] $end
$scope begin Block69_22 $end
$var integer 32 { j [31:0] $end
$upscope $end
$upscope $end
$upscope $end
$enddefinitions $end
#0
$dumpvars
0!
x!!
0"
x"!
x#
bx #!
x$
bx $!
x%
b1000000 %!
bx &
b1000000 &!
bx '
b0 (
b0 )
x*
bx +
bx ,
x-
x.
b0 /
b101000 0
b10100 1
b101000 2
b10100 3
bx 4
bx 5
bx 6
x7
bx 8
bx 9
bx :
b0 ;
b0 <
b0 =
bx >
bx ?
x@
xA
xB
b0 C
bx D
bx E
xF
b0 G
bx H
bx I
bx J
bx K
bx L
bx M
bx N
bx O
bx P
bx Q
xR
xS
bx T
bx U
bx V
bz W
xX
0Y
1Z
1[
1\
1]
b0 ^
b0 _
b0 `
b0 a
b1000000000000 b
b1000000000000 c
b0 d
b0 e
bx f
bx g
bx h
bz i
xj
0k
1l
1m
1n
1o
b0 p
b0 q
b0 r
b0 s
b1000000000000 t
b1000000000000 u
b0 v
b0 w
bx x
bx y
bx z
bx {
0|
0}
x~
$end
#5000
1!
1"
0*
0-
0.
b10100 4
b10100 5
b10100010100 ?
0@
0A
0B
b100 C
b10100 D
b10100 E
0F
0X
bx `
bx a
b10100010100 g
0j
bx r
bx s
1|
1}
#10000
0!
0|
#15000
1!
0"
1#
b0 #!
b0 $!
b0 &
b0 '
bx (
b1 )
bx /
b10011 4
b10011 5
bx ;
bx <
bx =
b10011010011 ?
b100 C
b10011 D
b10011 E
bx ^
bx _
bx d
bx e
b10011010011 g
bx p
bx q
b0 s
bx v
bx w
b0 x
b0 y
1|
0}
1~
#20000
0!
0|
#25000
1!
b1 #!
b1 &
b10 )
b0 /
b10100 4
b0 <
b10011010100 ?
1@
b100 C
b10100 D
1F
b10011010100 g
b0 q
b0 w
b1 y
1|
#30000
0!
0|
#35000
1!
b10 #!
b10 &
b100 C
b1 G
b11111111001110000 H
b11111111010000100 I
b11111111001110000 J
b110010000 K
b110010000 L
b10100 M
b0 N
b10 y
1|
#40000
0!
0|
#45000
1!
b11 #!
b11 &
b0 >
b100 C
b10 G
b10100 O
b0 P
b110010000 Q
0R
1S
b0 U
b11 y
1|
#50000
0!
0|
#55000
1!
b100 #!
b100 &
b1 >
1B
b100 C
b0 G
b1 U
b0 a
b100 y
1|
#60000
0!
0|
#65000
1!
b101 #!
b101 &
b0 (
b1 )
b0 ;
b0 =
b10 >
0@
0B
b100 C
0F
b1 G
b10 U
b0 _
b0 e
b101 y
1|
#70000
0!
0|
#75000
1!
b110 #!
b110 &
b10 )
b10101 4
b11 >
b10011010101 ?
1@
b100 C
b10101 D
1F
b10 G
b11 U
b10011010101 g
b110 y
1|
#80000
0!
0|
#85000
1!
b111 #!
b111 &
b100 >
1B
b100 C
b0 G
b100 U
b111 y
1|
#90000
0!
0|
#95000
1!
b1000 #!
b1000 &
b1 )
b101 >
0@
0B
b100 C
0F
b1 G
b110100100 K
b10100 N
b101 U
b1000 y
1|
#100000
0!
0|
#105000
1!
b1001 #!
b1001 &
b10 )
b10110 4
b110 >
b10011010110 ?
1@
b100 C
b10110 D
1F
b10 G
b10100 P
b110 U
b10011010110 g
b1001 y
1|
#110000
0!
0|
#115000
1!
b1010 #!
b1010 &
b111 >
1B
b100 C
b0 G
b111 U
b1010 y
1|
#120000
0!
0|
#125000
1!
b1011 #!
b1011 &
b1 )
b1000 >
0@
0B
b100 C
0F
b1 G
b110111000 K
b101000 N
b1000 U
b1011 y
1|
#130000
0!
0|
#135000
1!
b1100 #!
b1100 &
b10 )
b10111 4
b1001 >
b10011010111 ?
1@
b100 C
b10111 D
1F
b10 G
b101000 P
b1001 U
b10011010111 g
b1100 y
1|
#140000
0!
0|
#145000
1!
b1101 #!
b1101 &
b1010 >
1B
b100 C
b0 G
b1010 U
b1101 y
1|
#150000
0!
0|
#155000
1!
b1110 #!
b1110 &
b1 )
b1011 >
0@
0B
b100 C
0F
b1 G
b111001100 K
b111100 N
b1011 U
b1110 y
1|
#160000
0!
0|
#165000
1!
b1111 #!
b1111 &
b10 )
b11000 4
b1100 >
b10011011000 ?
1@
b100 C
b11000 D
1F
b10 G
b111100 P
b1100 U
b10011011000 g
b1111 y
1|
#170000
0!
0|
#175000
1!
b10000 #!
b10000 &
b1101 >
1B
b100 C
b0 G
b1101 U
b10000 y
1|
#180000
0!
0|
#185000
1!
b10001 #!
b10001 &
b1 )
b1110 >
0@
0B
b100 C
0F
b1 G
b111100000 K
b1010000 N
b1110 U
b10001 y
1|
#190000
0!
0|
#195000
1!
b10010 #!
b10010 &
b10 )
b11001 4
b1111 >
b10011011001 ?
1@
b100 C
b11001 D
1F
b10 G
b1010000 P
b1111 U
b10011011001 g
b10010 y
1|
#200000
0!
0|
#205000
1!
b10011 #!
b10011 &
b10000 >
1B
b100 C
b0 G
b10000 U
b10011 y
1|
#210000
0!
0|
#215000
1!
b10100 #!
b10100 &
b1 )
b10001 >
0@
0B
b100 C
0F
b1 G
b111110100 K
b1100100 N
b10001 U
b10100 y
1|
#220000
0!
0|
#225000
1!
b10101 #!
b10101 &
b10 )
b11010 4
b10010 >
b10011011010 ?
1@
b100 C
b11010 D
1F
b10 G
b1100100 P
b10010 U
b10011011010 g
b10101 y
1|
#230000
0!
0|
#235000
1!
b10110 #!
b10110 &
b10011 >
1B
b100 C
b0 G
b10011 U
b10110 y
1|
#240000
0!
0|
#245000
1!
b10111 #!
b10111 &
b1 )
b10100 >
0@
0B
b100 C
0F
b1 G
b1000001000 K
b1111000 N
b10100 U
b10111 y
1|
#250000
0!
0|
#255000
1!
b11000 #!
b11000 &
b10 )
b11011 4
b10101 >
b10011011011 ?
1@
b100 C
b11011 D
1F
b10 G
b1111000 P
b10101 U
b10011011011 g
b11000 y
1|
#260000
0!
0|
#265000
1!
b11001 #!
b11001 &
b10110 >
1B
b100 C
b0 G
b10110 U
b11001 y
1|
#270000
0!
0|
#275000
1!
b11010 #!
b11010 &
b1 )
b10111 >
0@
0B
b100 C
0F
b1 G
b1000011100 K
b10001100 N
b10111 U
b11010 y
1|
#280000
0!
0|
#285000
1!
b11011 #!
b11011 &
b10 )
b11100 4
b11000 >
b10011011100 ?
1@
b100 C
b11100 D
1F
b10 G
b10001100 P
b11000 U
b10011011100 g
b11011 y
1|
#290000
0!
0|
#295000
1!
b11100 #!
b11100 &
b11001 >
1B
b100 C
b0 G
b11001 U
b11100 y
1|
#300000
0!
0|
#305000
1!
b11101 #!
b11101 &
b1 )
b11010 >
0@
0B
b100 C
0F
b1 G
b1000110000 K
b10100000 N
b11010 U
b11101 y
1|
#310000
0!
0|
#315000
1!
b11110 #!
b11110 &
b10 )
b11101 4
b11011 >
b10011011101 ?
1@
b100 C
b11101 D
1F
b10 G
b10100000 P
b11011 U
b10011011101 g
b11110 y
1|
#320000
0!
0|
#325000
1!
b11111 #!
b11111 &
b11100 >
1B
b100 C
b0 G
b11100 U
b11111 y
1|
#330000
0!
0|
#335000
1!
b100000 #!
b100000 &
b1 )
b11101 >
0@
0B
b100 C
0F
b1 G
b1001000100 K
b10110100 N
b11101 U
b100000 y
1|
#340000
0!
0|
#345000
1!
b100001 #!
b100001 &
b10 )
b11110 4
b11110 >
b10011011110 ?
1@
b100 C
b11110 D
1F
b10 G
b10110100 P
b11110 U
b10011011110 g
b100001 y
1|
#350000
0!
0|
#355000
1!
b100010 #!
b100010 &
b11111 >
1B
b100 C
b0 G
b11111 U
b100010 y
1|
#360000
0!
0|
#365000
1!
b100011 #!
b100011 &
b1 )
b100000 >
0@
0B
b100 C
0F
b1 G
b1001011000 K
b11001000 N
b100000 U
b100011 y
1|
#370000
0!
0|
#375000
1!
b100100 #!
b100100 &
b10 )
b11111 4
b100001 >
b10011011111 ?
1@
b100 C
b11111 D
1F
b10 G
b11001000 P
b100001 U
b10011011111 g
b100100 y
1|
#380000
0!
0|
#385000
1!
b100101 #!
b100101 &
b100010 >
1B
b100 C
b0 G
b100010 U
b100101 y
1|
#390000
0!
0|
#395000
1!
b100110 #!
b100110 &
b1 )
b100011 >
0@
0B
b100 C
0F
b1 G
b1001101100 K
b11011100 N
b100011 U
b100110 y
1|
#400000
0!
0|
#405000
1!
b100111 #!
b100111 &
b10 )
b100000 4
b100100 >
b10011100000 ?
1@
b100 C
b100000 D
1F
b10 G
b11011100 P
b100100 U
b10011100000 g
b100111 y
1|
#410000
0!
0|
#415000
1!
b101000 #!
b101000 &
b100101 >
1B
b100 C
b0 G
b100101 U
b101000 y
1|
#420000
0!
0|
#425000
1!
b101001 #!
b101001 &
b1 )
b100110 >
0@
0B
b100 C
0F
b1 G
b1010000000 K
b11110000 N
b100110 U
b101001 y
1|
#430000
0!
0|
#435000
1!
b101010 #!
b101010 &
b10 )
b100001 4
b100111 >
b10011100001 ?
1@
b100 C
b100001 D
1F
b10 G
b11110000 P
b100111 U
b10011100001 g
b101010 y
1|
#440000
0!
0|
#445000
1!
b101011 #!
b101011 &
b101000 >
1B
b100 C
b0 G
b101000 U
b101011 y
1|
#450000
0!
0|
#455000
1!
b101100 #!
b101100 &
b1 )
b101001 >
0@
0B
b100 C
0F
b1 G
b1010010100 K
b100000100 N
b101001 U
b101100 y
1|
#460000
0!
0|
#465000
1!
b101101 #!
b101101 &
b10 )
b100010 4
b101010 >
b10011100010 ?
1@
b100 C
b100010 D
1F
b10 G
b100000100 P
b101010 U
b10011100010 g
b101101 y
1|
#470000
0!
0|
#475000
1!
b101110 #!
b101110 &
b101011 >
1B
b100 C
b0 G
b101011 U
b101110 y
1|
#480000
0!
0|
#485000
1!
b101111 #!
b101111 &
b1 )
b101100 >
0@
0B
b100 C
0F
b1 G
b1010101000 K
b100011000 N
b101100 U
b101111 y
1|
#490000
0!
0|
#495000
1!
b110000 #!
b110000 &
b10 )
b100011 4
b101101 >
b10011100011 ?
1@
b100 C
b100011 D
1F
b10 G
b100011000 P
b101101 U
b10011100011 g
b110000 y
1|
#500000
0!
0|
#505000
1!
b110001 #!
b110001 &
b101110 >
1B
b100 C
b0 G
b101110 U
b110001 y
1|
#510000
0!
0|
#515000
1!
b110010 #!
b110010 &
b1 )
b101111 >
0@
0B
b100 C
0F
b1 G
b1010111100 K
b100101100 N
b101111 U
b110010 y
1|
#520000
0!
0|
#525000
1!
b110011 #!
b110011 &
b10 )
b100100 4
b110000 >
b10011100100 ?
1@
b100 C
b100100 D
1F
b10 G
b100101100 P
b110000 U
b10011100100 g
b110011 y
1|
#530000
0!
0|
#535000
1!
b110100 #!
b110100 &
b110001 >
1B
b100 C
b0 G
b110001 U
b110100 y
1|
#540000
0!
0|
#545000
1!
b110101 #!
b110101 &
b1 )
b110010 >
0@
0B
b100 C
0F
b1 G
b1011010000 K
b101000000 N
b110010 U
b110101 y
1|
#550000
0!
0|
#555000
1!
b110110 #!
b110110 &
b10 )
b100101 4
b110011 >
b10011100101 ?
1@
b100 C
b100101 D
1F
b10 G
b101000000 P
b110011 U
b10011100101 g
b110110 y
1|
#560000
0!
0|
#565000
1!
b110111 #!
b110111 &
b110100 >
1B
b100 C
b0 G
b110100 U
b110111 y
1|
#570000
0!
0|
#575000
1!
b111000 #!
b111000 &
b1 )
b110101 >
0@
0B
b100 C
0F
b1 G
b1011100100 K
b101010100 N
b110101 U
b111000 y
1|
#580000
0!
0|
#585000
1!
b111001 #!
b111001 &
b10 )
b100110 4
b110110 >
b10011100110 ?
1@
b100 C
b100110 D
1F
b10 G
b101010100 P
b110110 U
b10011100110 g
b111001 y
1|
#590000
0!
0|
#595000
1!
b111010 #!
b111010 &
b110111 >
1B
b100 C
b0 G
b110111 U
b111010 y
1|
#600000
0!
0|
#605000
1!
b111011 #!
b111011 &
b1 )
b111000 >
0@
0B
b100 C
0F
b1 G
b1011111000 K
b101101000 N
b111000 U
b111011 y
1|
#610000
0!
0|
#615000
1!
b111100 #!
b111100 &
b10 )
b100111 4
b111001 >
b10011100111 ?
1@
b100 C
b100111 D
1F
b10 G
b101101000 P
b111001 U
b10011100111 g
b111100 y
1|
#620000
0!
0|
#625000
1!
b111101 #!
b111101 &
b111010 >
1B
b100 C
b0 G
b111010 U
b111101 y
1|
#630000
0!
0|
#635000
1!
b111110 #!
b111110 &
b1 )
b111011 >
0@
0B
b100 C
0F
b1 G
b1100001100 K
b101111100 N
b111011 U
b111110 y
1|
#640000
0!
0|
#645000
1!
b111111 #!
b111111 &
b10 )
b101000 4
b111100 >
b10011101000 ?
1@
b100 C
b101000 D
1F
b10 G
b101111100 P
b111100 U
b10011101000 g
b111111 y
1|
#650000
0!
0|
#655000
1!
b0 #!
b1 $!
b0 &
b1 '
b111101 >
1B
b100 C
b0 G
b111101 U
b1 x
b0 y
1|
#660000
0!
0|
#665000
1!
b1 #!
b1 &
b1 )
b111110 >
0@
0B
b100 C
0F
b1 G
b1100100000 K
b110010000 N
b111110 U
b1 y
1|
#670000
0!
0|
#675000
1!
b10 #!
b10 &
b10 )
b101001 4
b111111 >
b10011101001 ?
1@
b100 C
b101001 D
1F
b10 G
b110010000 P
b111111 U
b10011101001 g
b10 y
1|
#680000
0!
0|
#685000
1!
b11 #!
b11 &
b1000000 >
1B
b100 C
b0 G
b1000000 U
b11 y
1|
#690000
0!
0|
#695000
1!
b100 #!
b100 &
b1 )
b1000001 >
0@
0B
b100 C
0F
b1 G
b1100110100 K
b110100100 N
b1000001 U
b100 y
1|
#700000
0!
0|
#705000
1!
b101 #!
b101 &
b10 )
b10100 4
b10100 5
b1000010 >
b10100010100 ?
1@
b100 C
b10100 D
b10100 E
1F
b10 G
b110100100 P
0S
b1000010 U
b10100010100 g
b101 y
1|
#710000
0!
0|
#715000
1!
b110 #!
b110 &
b1000011 >
1B
b100 C
b0 G
b1000011 U
b110 y
1|
#720000
0!
0|
#725000
1!
b111 #!
b111 &
b1 )
b1000100 >
0@
0B
b100 C
0F
b1 G
b11111111001110000 I
b110010000 K
b0 M
b0 N
b1000100 U
b111 y
1|
#730000
0!
0|
#735000
1!
b1000 #!
b1000 &
b10 )
b10101 4
b1000101 >
b10100010101 ?
1@
b100 C
b10101 D
1F
b10 G
b0 O
b0 P
1R
1S
b1000101 U
b10100010101 g
b1000 y
1|
#740000
0!
0|
#745000
1!
b1001 #!
b1001 &
b1000110 >
1A
1B
b100 C
b0 G
b1000110 U
b1001 y
1|
#750000
0!
0|
#755000
1!
b1010 #!
b1010 &
b1 )
b10100010101 +
b11001100xxxxxxxxx ,
1.
b1000111 >
0@
0A
0B
b100 C
0F
b1 G
b110100100 K
b10100 N
b10100010101 T
b1000111 U
b11001100xxxxxxxxx V
b10100010101 f
b11001100xxxxxxxxx h
1j
b1010 y
1|
#760000
0!
0|
#765000
1!
b1011 #!
b1011 &
b10 )
b10110 4
b1001000 >
b10100010110 ?
1@
b100 C
b10110 D
1F
b10 G
b10100 P
b1001000 U
b0 `
b10100010110 g
b0 r
b1011 y
1|
#770000
0!
0|
#775000
1!
b1100 #!
b1100 &
b1001001 >
1A
1B
b100 C
b0 G
b1001001 U
b0 ^
b0 d
b0 p
b11001100xxxxxxxxx r
b0 v
b1100 y
1|
#780000
0!
0|
#785000
1!
b1101 #!
b1101 &
b1 )
b10100010110 +
b1001010 >
0@
0A
0B
b100 C
0F
b1 G
b110111000 K
b101000 N
b10100010110 T
b1001010 U
b10100010110 f
b11001100xxxxxxxxx p
b11001100xxxxxxxxx v
b1101 y
1|
#790000
0!
0|
#795000
1!
b1110 #!
b1110 &
b10 )
b10111 4
b1001011 >
b10100010111 ?
1@
b100 C
b10111 D
1F
b10 G
b101000 P
b1001011 U
b10100010111 g
b0 r
b1110 y
1|
#800000
0!
0|
#805000
1!
b1111 #!
b1111 &
b1001100 >
1A
1B
b100 C
b0 G
b1001100 U
b0 p
b11001100xxxxxxxxx r
b0 v
b1111 y
1|
#810000
0!
0|
#815000
1!
b10000 #!
b10000 &
b1 )
b10100010111 +
b1001101 >
0@
0A
0B
b100 C
0F
b1 G
b111001100 K
b111100 N
b10100010111 T
b1001101 U
b10100010111 f
b11001100xxxxxxxxx p
b11001100xxxxxxxxx v
b10000 y
1|
#820000
0!
0|
#825000
1!
b10001 #!
b10001 &
b10 )
b11000 4
b1001110 >
b10100011000 ?
1@
b100 C
b11000 D
1F
b10 G
b111100 P
b1001110 U
b10100011000 g
b0 r
b10001 y
1|
#830000
0!
0|
#835000
1!
b10010 #!
b10010 &
b1001111 >
1A
1B
b100 C
b0 G
b1001111 U
b0 p
b11001100xxxxxxxxx r
b0 v
b10010 y
1|
#840000
0!
0|
#845000
1!
b10011 #!
b10011 &
b1 )
b10100011000 +
b1010000 >
0@
0A
0B
b100 C
0F
b1 G
b111100000 K
b1010000 N
b10100011000 T
b1010000 U
b10100011000 f
b11001100xxxxxxxxx p
b11001100xxxxxxxxx v
b10011 y
1|
#850000
0!
0|
#855000
1!
b10100 #!
b10100 &
b10 )
b11001 4
b1010001 >
b10100011001 ?
1@
b100 C
b11001 D
1F
b10 G
b1010000 P
b1010001 U
b10100011001 g
b0 r
b10100 y
1|
#860000
0!
0|
#865000
1!
b10101 #!
b10101 &
b1010010 >
1A
1B
b100 C
b0 G
b1010010 U
b0 p
b11001100xxxxxxxxx r
b0 v
b10101 y
1|
#870000
0!
0|
#875000
1!
b10110 #!
b10110 &
b1 )
b10100011001 +
b1010011 >
0@
0A
0B
b100 C
0F
b1 G
b111110100 K
b1100100 N
b10100011001 T
b1010011 U
b10100011001 f
b11001100xxxxxxxxx p
b11001100xxxxxxxxx v
b10110 y
1|
#880000
0!
0|
#885000
1!
b10111 #!
b10111 &
b10 )
b11010 4
b1010100 >
b10100011010 ?
1@
b100 C
b11010 D
1F
b10 G
b1100100 P
b1010100 U
b10100011010 g
b0 r
b10111 y
1|
#890000
0!
0|
#895000
1!
b11000 #!
b11000 &
b1010101 >
1A
1B
b100 C
b0 G
b1010101 U
b0 p
b11001100xxxxxxxxx r
b0 v
b11000 y
1|
#900000
0!
0|
#905000
1!
b11001 #!
b11001 &
b1 )
b10100011010 +
b1010110 >
0@
0A
0B
b100 C
0F
b1 G
b1000001000 K
b1111000 N
b10100011010 T
b1010110 U
b10100011010 f
b11001100xxxxxxxxx p
b11001100xxxxxxxxx v
b11001 y
1|
#910000
0!
0|
#915000
1!
b11010 #!
b11010 &
b10 )
b11011 4
b1010111 >
b10100011011 ?
1@
b100 C
b11011 D
1F
b10 G
b1111000 P
b1010111 U
b10100011011 g
b0 r
b11010 y
1|
#920000
0!
0|
#925000
1!
b11011 #!
b11011 &
b1011000 >
1A
1B
b100 C
b0 G
b1011000 U
b0 p
b11001100xxxxxxxxx r
b0 v
b11011 y
1|
#930000
0!
0|
#935000
1!
b11100 #!
b11100 &
b1 )
b10100011011 +
b1011001 >
0@
0A
0B
b100 C
0F
b1 G
b1000011100 K
b10001100 N
b10100011011 T
b1011001 U
b10100011011 f
b11001100xxxxxxxxx p
b11001100xxxxxxxxx v
b11100 y
1|
#940000
0!
0|
#945000
1!
b11101 #!
b11101 &
b10 )
b11100 4
b1011010 >
b10100011100 ?
1@
b100 C
b11100 D
1F
b10 G
b10001100 P
b1011010 U
b10100011100 g
b0 r
b11101 y
1|
#950000
0!
0|
#955000
1!
b11110 #!
b11110 &
b1011011 >
1A
1B
b100 C
b0 G
b1011011 U
b0 p
b11001100xxxxxxxxx r
b0 v
b11110 y
1|
#960000
0!
0|
#965000
1!
b11111 #!
b11111 &
b1 )
b10100011100 +
b1011100 >
0@
0A
0B
b100 C
0F
b1 G
b1000110000 K
b10100000 N
b10100011100 T
b1011100 U
b10100011100 f
b11001100xxxxxxxxx p
b11001100xxxxxxxxx v
b11111 y
1|
#970000
0!
0|
#975000
1!
b100000 #!
b100000 &
b10 )
b11101 4
b1011101 >
b10100011101 ?
1@
b100 C
b11101 D
1F
b10 G
b10100000 P
b1011101 U
b10100011101 g
b0 r
b100000 y
1|
#980000
0!
0|
#985000
1!
b100001 #!
b100001 &
b1011110 >
1A
1B
b100 C
b0 G
b1011110 U
b0 p
b11001100xxxxxxxxx r
b0 v
b100001 y
1|
#990000
0!
0|
#995000
1!
b100010 #!
b100010 &
b1 )
b10100011101 +
b1011111 >
0@
0A
0B
b100 C
0F
b1 G
b1001000100 K
b10110100 N
b10100011101 T
b1011111 U
b10100011101 f
b11001100xxxxxxxxx p
b11001100xxxxxxxxx v
b100010 y
1|
#1000000
0!
0|
#1005000
1!
b100011 #!
b100011 &
b10 )
b11110 4
b1100000 >
b10100011110 ?
1@
b100 C
b11110 D
1F
b10 G
b10110100 P
b1100000 U
b10100011110 g
b0 r
b100011 y
1|
#1010000
0!
0|
#1015000
1!
b100100 #!
b100100 &
b1100001 >
1A
1B
b100 C
b0 G
b1100001 U
b0 p
b11001100xxxxxxxxx r
b0 v
b100100 y
1|
#1020000
0!
0|
#1025000
1!
b100101 #!
b100101 &
b1 )
b10100011110 +
b1100010 >
0@
0A
0B
b100 C
0F
b1 G
b1001011000 K
b11001000 N
b10100011110 T
b1100010 U
b10100011110 f
b11001100xxxxxxxxx p
b11001100xxxxxxxxx v
b100101 y
1|
#1030000
0!
0|
#1035000
1!
b100110 #!
b100110 &
b10 )
b11111 4
b1100011 >
b10100011111 ?
1@
b100 C
b11111 D
1F
b10 G
b11001000 P
b1100011 U
b10100011111 g
b0 r
b100110 y
1|
#1040000
0!
0|
#1045000
1!
b100111 #!
b100111 &
b1100100 >
1A
1B
b100 C
b0 G
b1100100 U
b0 p
b11001100xxxxxxxxx r
b0 v
b100111 y
1|
#1050000
0!
0|
#1055000
1!
b101000 #!
b101000 &
b1 )
b10100011111 +
b1100101 >
0@
0A
0B
b100 C
0F
b1 G
b1001101100 K
b11011100 N
b10100011111 T
b1100101 U
b10100011111 f
b11001100xxxxxxxxx p
b11001100xxxxxxxxx v
b101000 y
1|
#1060000
0!
0|
#1065000
1!
b101001 #!
b101001 &
b10 )
b100000 4
b1100110 >
b10100100000 ?
1@
b100 C
b100000 D
1F
b10 G
b11011100 P
b1100110 U
b10100100000 g
b0 r
b101001 y
1|
#1070000
0!
0|
#1075000
1!
b101010 #!
b101010 &
b1100111 >
1A
1B
b100 C
b0 G
b1100111 U
b0 p
b11001100xxxxxxxxx r
b0 v
b101010 y
1|
#1080000
0!
0|
#1085000
1!
b101011 #!
b101011 &
b1 )
b10100100000 +
b1101000 >
0@
0A
0B
b100 C
0F
b1 G
b1010000000 K
b11110000 N
b10100100000 T
b1101000 U
b10100100000 f
b11001100xxxxxxxxx p
b11001100xxxxxxxxx v
b101011 y
1|
#1090000
0!
0|
#1095000
1!
b101100 #!
b101100 &
b10 )
b100001 4
b1101001 >
b10100100001 ?
1@
b100 C
b100001 D
1F
b10 G
b11110000 P
b1101001 U
b10100100001 g
b0 r
b101100 y
1|
#1100000
0!
0|
#1105000
1!
b101101 #!
b101101 &
b1101010 >
1A
1B
b100 C
b0 G
b1101010 U
b0 p
b11001100xxxxxxxxx r
b0 v
b101101 y
1|
#1110000
0!
0|
#1115000
1!
b101110 #!
b101110 &
b1 )
b10100100001 +
b1101011 >
0@
0A
0B
b100 C
0F
b1 G
b1010010100 K
b100000100 N
b10100100001 T
b1101011 U
b10100100001 f
b11001100xxxxxxxxx p
b11001100xxxxxxxxx v
b101110 y
1|
#1120000
0!
0|
#1125000
1!
b101111 #!
b101111 &
b10 )
b100010 4
b1101100 >
b10100100010 ?
1@
b100 C
b100010 D
1F
b10 G
b100000100 P
b1101100 U
b10100100010 g
b0 r
b101111 y
1|
#1130000
0!
0|
#1135000
1!
b110000 #!
b110000 &
b1101101 >
1A
1B
b100 C
b0 G
b1101101 U
b0 p
b11001100xxxxxxxxx r
b0 v
b110000 y
1|
#1140000
0!
0|
#1145000
1!
b110001 #!
b110001 &
b1 )
b10100100010 +
b1101110 >
0@
0A
0B
b100 C
0F
b1 G
b1010101000 K
b100011000 N
b10100100010 T
b1101110 U
b10100100010 f
b11001100xxxxxxxxx p
b11001100xxxxxxxxx v
b110001 y
1|
#1150000
0!
0|
#1155000
1!
b110010 #!
b110010 &
b10 )
b100011 4
b1101111 >
b10100100011 ?
1@
b100 C
b100011 D
1F
b10 G
b100011000 P
b1101111 U
b10100100011 g
b0 r
b110010 y
1|
#1160000
0!
0|
#1165000
1!
b110011 #!
b110011 &
b1110000 >
1A
1B
b100 C
b0 G
b1110000 U
b0 p
b11001100xxxxxxxxx r
b0 v
b110011 y
1|
#1170000
0!
0|
#1175000
1!
b110100 #!
b110100 &
b1 )
b10100100011 +
b1110001 >
0@
0A
0B
b100 C
0F
b1 G
b1010111100 K
b100101100 N
b10100100011 T
b1110001 U
b10100100011 f
b11001100xxxxxxxxx p
b11001100xxxxxxxxx v
b110100 y
1|
#1180000
0!
0|
#1185000
1!
b110101 #!
b110101 &
b10 )
b100100 4
b1110010 >
b10100100100 ?
1@
b100 C
b100100 D
1F
b10 G
b100101100 P
b1110010 U
b10100100100 g
b0 r
b110101 y
1|
#1190000
0!
0|
#1195000
1!
b110110 #!
b110110 &
b1110011 >
1A
1B
b100 C
b0 G
b1110011 U
b0 p
b11001100xxxxxxxxx r
b0 v
b110110 y
1|
#1200000
0!
0|
