dump.vcd
$date
   Thu Dec 14 02:44:14 2023
$end
$version
  2023.1
$end
$timescale
  1ps
$end
$scope module get_vertices_tb $end
$var reg 1 @ clk $end
$var reg 1 A rst $end
$var reg 1 B go $end
$var reg 1 # valid_out $end
$var reg 1 $ obj_done $end
$var reg 1 C ready_in $end
$var reg 32 D v1_x [31:0] $end
$var reg 32 E v1_y [31:0] $end
$var reg 32 F v1_z [31:0] $end
$var reg 32 G v2_x [31:0] $end
$var reg 32 H v2_y [31:0] $end
$var reg 32 I v2_z [31:0] $end
$var reg 32 J v3_x [31:0] $end
$var reg 32 K v3_y [31:0] $end
$var reg 32 L v3_z [31:0] $end
$scope module uut $end
$var wire 1 ! clk_in $end
$var wire 1 " rst_in $end
$var reg 1 # valid_out $end
$var reg 1 $ obj_done $end
$var wire 1 % ready_in $end
$var reg 32 & state $end
$var reg 12 ' facet_read [11:0] $end
$var reg 12 ( vertex_read [11:0] $end
$var reg 12 ) f1 [11:0] $end
$var reg 12 * f2 [11:0] $end
$var reg 12 + f3 [11:0] $end
$var reg 32 , x [31:0] $end
$var reg 32 - y [31:0] $end
$var reg 32 . z [31:0] $end
$var reg 48 / facet_out [47:0] $end
$scope module vertex_inst $end
$var wire 12 0 addra [11:0] $end
$var wire 96 1 dina [95:0] $end
$var wire 1 ! clka $end
$var wire 1 2 wea $end
$var wire 1 3 ena $end
$var wire 1 " rsta $end
$var wire 1 4 regcea $end
$var wire 96 5 douta [95:0] $end
$var reg 96 6 ram_data [95:0] $end
$var reg 96 7 \output_register.douta_reg  [95:0] $end
$upscope $end
$scope module facet_inst $end
$var wire 12 8 addra [11:0] $end
$var wire 48 9 dina [47:0] $end
$var wire 1 ! clka $end
$var wire 1 : wea $end
$var wire 1 ; ena $end
$var wire 1 " rsta $end
$var wire 1 < regcea $end
$var wire 48 = douta [47:0] $end
$var reg 48 > ram_data [47:0] $end
$var reg 48 ? \output_register.douta_reg  [47:0] $end
$upscope $end
$upscope $end
$upscope $end
$enddefinitions $end
#0
$dumpvars
0!
0"
x#
x$
x%
b0 &
bx '
bx (
b0 )
b0 *
b0 +
b0 ,
b0 -
b0 .
bx /
bx 0
b0 1
02
13
14
b0 5
b0 6
b0 7
bx 8
b0 9
0:
1;
1<
b0 =
b0 >
b0 ?
0@
0A
xB
xC
bx D
bx E
bx F
bx G
bx H
bx I
bx J
bx K
bx L
$end
#5000
1!
1"
0#
0$
b0 '
bx 6
b0 8
bx >
1@
1A
#10000
0!
0@
#15000
1!
0"
1%
b1 &
bx )
bx *
bx +
bx ,
bx -
bx .
bx 5
bx 7
bx =
b1000000000010000000000100 >
bx ?
1@
0A
1C
#20000
0!
0@
#25000
1!
b10 &
b1 )
b10 *
b100 +
b1000000000010000000000100 =
b1000000000010000000000100 ?
1@
#30000
0!
0@
#35000
1!
b11 &
1@
#40000
0!
0@
#45000
1!
b100 &
b1 (
b1 0
1@
#50000
0!
0@
#55000
1!
b101 &
b110000000010000000000000000000001100000000100000000000000000000011000000001000000000000000000000 6
1@
#60000
0!
0@
#65000
1!
b110 &
b11000000001000000000000000000000 ,
b11000000001000000000000000000000 -
b11000000001000000000000000000000 .
b110000000010000000000000000000001100000000100000000000000000000011000000001000000000000000000000 5
b110000000010000000000000000000001100000000100000000000000000000011000000001000000000000000000000 7
1@
#70000
0!
0@
#75000
1!
b111 &
b10 (
b10 0
1@
#80000
0!
0@
#85000
1!
b1000 &
b110000000010000000000000000000001100000000100000000000000000000001000000001000000000000000000000 6
1@
#90000
0!
0@
#95000
1!
b1001 &
b1000000001000000000000000000000 .
b110000000010000000000000000000001100000000100000000000000000000001000000001000000000000000000000 5
b110000000010000000000000000000001100000000100000000000000000000001000000001000000000000000000000 7
1@
#100000
0!
0@
#105000
1!
b1010 &
b100 (
b100 0
1@
#110000
0!
0@
#115000
1!
b1011 &
b10000000010000000000000000000000100000000100000000000000000000011000000001000000000000000000000 6
1@
#120000
0!
0@
#125000
1!
b1100 &
b1000000001000000000000000000000 ,
b1000000001000000000000000000000 -
b11000000001000000000000000000000 .
b10000000010000000000000000000000100000000100000000000000000000011000000001000000000000000000000 5
b10000000010000000000000000000000100000000100000000000000000000011000000001000000000000000000000 7
1@
#130000
0!
0@
#135000
1!
b1101 &
1@
#140000
0!
0@
#145000
1!
1#
b1 &
b1 '
b1 8
1@
b11000000001000000000000000000000 D
b11000000001000000000000000000000 E
b11000000001000000000000000000000 F
b11000000001000000000000000000000 G
b11000000001000000000000000000000 H
b1000000001000000000000000000000 I
b1000000001000000000000000000000 J
b1000000001000000000000000000000 K
b11000000001000000000000000000000 L
#150000
0!
0@
#155000
1!
0#
b10 &
b100000000000010000000000011 >
1@
#160000
0!
0@
#165000
1!
b11 &
b100 )
b11 +
b100000000000010000000000011 =
b100000000000010000000000011 ?
1@
#170000
0!
0@
#175000
1!
b100 &
1@
#180000
0!
0@
#185000
1!
b101 &
1@
#190000
0!
0@
#195000
1!
b110 &
1@
#200000
0!
0@
#205000
1!
b111 &
b10 (
b10 0
1@
#210000
0!
0@
#215000
1!
b1000 &
b110000000010000000000000000000001100000000100000000000000000000001000000001000000000000000000000 6
1@
#220000
0!
0@
#225000
1!
b1001 &
b11000000001000000000000000000000 ,
b11000000001000000000000000000000 -
b1000000001000000000000000000000 .
b110000000010000000000000000000001100000000100000000000000000000001000000001000000000000000000000 5
b110000000010000000000000000000001100000000100000000000000000000001000000001000000000000000000000 7
1@
#230000
0!
0@
#235000
1!
b1010 &
b11 (
b11 0
1@
#240000
0!
0@
#245000
1!
b1011 &
b110000000010000000000000000000000100000000100000000000000000000001000000001000000000000000000000 6
1@
#250000
0!
0@
#255000
1!
b1100 &
b1000000001000000000000000000000 -
b110000000010000000000000000000000100000000100000000000000000000001000000001000000000000000000000 5
b110000000010000000000000000000000100000000100000000000000000000001000000001000000000000000000000 7
1@
#260000
0!
0@
#265000
1!
b1101 &
1@
#270000
0!
0@
#275000
1!
1#
b1 &
b10 '
b10 8
1@
b1000000001000000000000000000000 D
b1000000001000000000000000000000 E
b11000000001000000000000000000000 J
b1000000001000000000000000000000 L
#280000
0!
0@
#285000
1!
0#
b10 &
b101000000000001000000000110 >
1@
#290000
0!
0@
#295000
1!
b11 &
b101 )
b1 *
b110 +
b101000000000001000000000110 =
b101000000000001000000000110 ?
1@
#300000
0!
0@
#305000
1!
b100 &
b101 (
b101 0
1@
#310000
0!
0@
#315000
1!
b101 &
b10000000010000000000000000000000100000000100000000000000000000001000000001000000000000000000000 6
1@
#320000
0!
0@
#325000
1!
b110 &
b1000000001000000000000000000000 ,
b10000000010000000000000000000000100000000100000000000000000000001000000001000000000000000000000 5
b10000000010000000000000000000000100000000100000000000000000000001000000001000000000000000000000 7
1@
#330000
0!
0@
#335000
1!
b111 &
b1 (
b1 0
1@
#340000
0!
0@
#345000
1!
b1000 &
b110000000010000000000000000000001100000000100000000000000000000011000000001000000000000000000000 6
1@
#350000
0!
0@
#355000
1!
b1001 &
b11000000001000000000000000000000 ,
b11000000001000000000000000000000 -
b11000000001000000000000000000000 .
b110000000010000000000000000000001100000000100000000000000000000011000000001000000000000000000000 5
b110000000010000000000000000000001100000000100000000000000000000011000000001000000000000000000000 7
1@
#360000
0!
0@
#365000
1!
b1010 &
b110 (
b110 0
1@
#370000
0!
0@
#375000
1!
b1011 &
b10000000010000000000000000000001100000000100000000000000000000011000000001000000000000000000000 6
1@
#380000
0!
0@
#385000
1!
b1100 &
b1000000001000000000000000000000 ,
b10000000010000000000000000000001100000000100000000000000000000011000000001000000000000000000000 5
b10000000010000000000000000000001100000000100000000000000000000011000000001000000000000000000000 7
1@
#390000
0!
0@
#395000
1!
b1101 &
1@
#400000
0!
0@
#405000
1!
1#
b1 &
b11 '
b11 8
1@
b1000000001000000000000000000000 F
b11000000001000000000000000000000 I
b1000000001000000000000000000000 J
b11000000001000000000000000000000 K
b11000000001000000000000000000000 L
#410000
0!
0@
#415000
1!
0#
b10 &
b110000000000001000000000100 >
1@
#420000
0!
0@
#425000
1!
b11 &
b110 )
b100 +
b110000000000001000000000100 =
b110000000000001000000000100 ?
1@
#430000
0!
0@
#435000
1!
b100 &
1@
#440000
0!
0@
#445000
1!
b101 &
1@
#450000
0!
0@
#455000
1!
b110 &
1@
#460000
0!
0@
#465000
1!
b111 &
b1 (
b1 0
1@
#470000
0!
0@
#475000
1!
b1000 &
b110000000010000000000000000000001100000000100000000000000000000011000000001000000000000000000000 6
1@
#480000
0!
0@
#485000
1!
b1001 &
b11000000001000000000000000000000 ,
b110000000010000000000000000000001100000000100000000000000000000011000000001000000000000000000000 5
b110000000010000000000000000000001100000000100000000000000000000011000000001000000000000000000000 7
1@
#490000
0!
0@
#495000
1!
b1010 &
b100 (
b100 0
1@
#500000
0!
0@
#505000
1!
b1011 &
b10000000010000000000000000000000100000000100000000000000000000011000000001000000000000000000000 6
1@
#510000
0!
0@
#515000
1!
b1100 &
b1000000001000000000000000000000 ,
b1000000001000000000000000000000 -
b10000000010000000000000000000000100000000100000000000000000000011000000001000000000000000000000 5
b10000000010000000000000000000000100000000100000000000000000000011000000001000000000000000000000 7
1@
#520000
0!
0@
#525000
1!
b1101 &
1@
#530000
0!
0@
#535000
1!
1#
b1 &
b100 '
b100 8
1@
b11000000001000000000000000000000 E
b11000000001000000000000000000000 F
b1000000001000000000000000000000 K
#540000
0!
0@
#545000
1!
0#
b10 &
b111000000000101000000001000 >
1@
#550000
0!
0@
#555000
1!
b11 &
b111 )
b101 *
b1000 +
b111000000000101000000001000 =
b111000000000101000000001000 ?
1@
#560000
0!
0@
#565000
1!
b100 &
b111 (
b111 0
1@
#570000
0!
0@
#575000
1!
b101 &
b10000000010000000000000000000001100000000100000000000000000000001000000001000000000000000000000 6
1@
#580000
0!
0@
#585000
1!
b110 &
b11000000001000000000000000000000 -
b1000000001000000000000000000000 .
b10000000010000000000000000000001100000000100000000000000000000001000000001000000000000000000000 5
b10000000010000000000000000000001100000000100000000000000000000001000000001000000000000000000000 7
1@
#590000
0!
0@
#595000
1!
b111 &
b101 (
b101 0
1@
#600000
0!
0@
#605000
1!
b1000 &
b10000000010000000000000000000000100000000100000000000000000000001000000001000000000000000000000 6
1@
#610000
0!
0@
#615000
1!
b1001 &
b1000000001000000000000000000000 -
b10000000010000000000000000000000100000000100000000000000000000001000000001000000000000000000000 5
b10000000010000000000000000000000100000000100000000000000000000001000000001000000000000000000000 7
1@
#620000
0!
0@
#625000
1!
b1010 &
b1000 (
b1000 0
1@
#630000
0!
0@
#635000
1!
b1011 &
bx 6
1@
#640000
0!
0@
#645000
1!
b1100 &
bx ,
bx -
bx .
bx 5
bx 7
1@
#650000
0!
0@
#655000
1!
b1101 &
1@
#660000
0!
0@
#665000
1!
1#
b1 &
b101 '
b101 8
1@
b1000000001000000000000000000000 F
b1000000001000000000000000000000 G
b1000000001000000000000000000000 H
b1000000001000000000000000000000 I
bx J
bx K
bx L
#670000
0!
0@
#675000
1!
0#
b10 &
b1000000000000101000000000110 >
1@
#680000
0!
0@
#685000
1!
b11 &
b1000 )
b110 +
b1000000000000101000000000110 =
b1000000000000101000000000110 ?
1@
#690000
0!
0@
#695000
1!
b100 &
1@
#700000
0!
0@
#705000
1!
b101 &
1@
#710000
0!
0@
#715000
1!
b110 &
1@
#720000
0!
0@
#725000
1!
b111 &
b101 (
b101 0
1@
#730000
0!
0@
#735000
1!
b1000 &
b10000000010000000000000000000000100000000100000000000000000000001000000001000000000000000000000 6
1@
#740000
0!
0@
#745000
1!
b1001 &
b1000000001000000000000000000000 ,
b1000000001000000000000000000000 -
b1000000001000000000000000000000 .
b10000000010000000000000000000000100000000100000000000000000000001000000001000000000000000000000 5
b10000000010000000000000000000000100000000100000000000000000000001000000001000000000000000000000 7
1@
#750000
0!
0@
#755000
1!
b1010 &
b110 (
b110 0
1@
#760000
0!
0@
#765000
1!
b1011 &
b10000000010000000000000000000001100000000100000000000000000000011000000001000000000000000000000 6
1@
#770000
0!
0@
#775000
1!
b1100 &
b11000000001000000000000000000000 -
b11000000001000000000000000000000 .
b10000000010000000000000000000001100000000100000000000000000000011000000001000000000000000000000 5
b10000000010000000000000000000001100000000100000000000000000000011000000001000000000000000000000 7
1@
#780000
0!
0@
#785000
1!
b1101 &
1@
#790000
0!
0@
#795000
1!
1#
b1 &
b110 '
b110 8
1@
bx D
bx E
bx F
b1000000001000000000000000000000 J
b11000000001000000000000000000000 K
b11000000001000000000000000000000 L
#800000
0!
0@
#805000
1!
0#
b10 &
b10000000000111000000000011 >
1@
#810000
0!
0@
#815000
1!
b11 &
b10 )
b111 *
b11 +
b10000000000111000000000011 =
b10000000000111000000000011 ?
1@
#820000
0!
0@
#825000
1!
b100 &
b10 (
b10 0
1@
#830000
0!
0@
#835000
1!
b101 &
b110000000010000000000000000000001100000000100000000000000000000001000000001000000000000000000000 6
1@
#840000
0!
0@
#845000
1!
b110 &
b11000000001000000000000000000000 ,
b1000000001000000000000000000000 .
b110000000010000000000000000000001100000000100000000000000000000001000000001000000000000000000000 5
b110000000010000000000000000000001100000000100000000000000000000001000000001000000000000000000000 7
1@
#850000
0!
0@
#855000
1!
b111 &
b111 (
b111 0
1@
#860000
0!
0@
#865000
1!
b1000 &
b10000000010000000000000000000001100000000100000000000000000000001000000001000000000000000000000 6
1@
#870000
0!
0@
#875000
1!
b1001 &
b1000000001000000000000000000000 ,
b10000000010000000000000000000001100000000100000000000000000000001000000001000000000000000000000 5
b10000000010000000000000000000001100000000100000000000000000000001000000001000000000000000000000 7
1@
#880000
0!
0@
#885000
1!
b1010 &
b11 (
b11 0
1@
#890000
0!
0@
#895000
1!
b1011 &
b110000000010000000000000000000000100000000100000000000000000000001000000001000000000000000000000 6
1@
#900000
0!
0@
#905000
1!
b1100 &
b11000000001000000000000000000000 ,
b1000000001000000000000000000000 -
b110000000010000000000000000000000100000000100000000000000000000001000000001000000000000000000000 5
b110000000010000000000000000000000100000000100000000000000000000001000000001000000000000000000000 7
1@
#910000
0!
0@
#915000
1!
b1101 &
1@
#920000
0!
0@
#925000
1!
1#
b1 &
b111 '
b111 8
1@
b11000000001000000000000000000000 D
b11000000001000000000000000000000 E
b1000000001000000000000000000000 F
b11000000001000000000000000000000 H
b11000000001000000000000000000000 J
b1000000001000000000000000000000 K
b1000000001000000000000000000000 L
#930000
0!
0@
#935000
1!
0#
b10 &
b11000000000111000000001000 >
1@
#940000
0!
0@
#945000
1!
b11 &
b11 )
b1000 +
b11000000000111000000001000 =
b11000000000111000000001000 ?
1@
#950000
0!
0@
#955000
1!
b100 &
1@
#960000
0!
0@
#965000
1!
b101 &
1@
#970000
0!
0@
#975000
1!
b110 &
1@
#980000
0!
0@
#985000
1!
b111 &
b111 (
b111 0
1@
#990000
0!
0@
#995000
1!
b1000 &
b10000000010000000000000000000001100000000100000000000000000000001000000001000000000000000000000 6
1@
#1000000
0!
0@
#1005000
1!
b1001 &
b1000000001000000000000000000000 ,
b11000000001000000000000000000000 -
b10000000010000000000000000000001100000000100000000000000000000001000000001000000000000000000000 5
b10000000010000000000000000000001100000000100000000000000000000001000000001000000000000000000000 7
1@
#1010000
0!
0@
#1015000
1!
b1010 &
b1000 (
b1000 0
1@
#1020000
0!
0@
#1025000
1!
b1011 &
bx 6
1@
#1030000
0!
0@
#1035000
1!
b1100 &
bx ,
bx -
bx .
bx 5
bx 7
1@
#1040000
0!
0@
#1045000
1!
b1101 &
1@
#1050000
0!
0@
#1055000
1!
1#
b1 &
b1000 '
b1000 8
1@
b1000000001000000000000000000000 E
bx J
bx K
bx L
#1060000
0!
0@
#1065000
1!
0#
b10 &
b11000000001000000000000100 >
1@
#1070000
0!
0@
#1075000
1!
b11 &
b1000 *
b100 +
b11000000001000000000000100 =
b11000000001000000000000100 ?
1@
#1080000
0!
0@
#1085000
1!
b100 &
b11 (
b11 0
1@
#1090000
0!
0@
#1095000
1!
b101 &
b110000000010000000000000000000000100000000100000000000000000000001000000001000000000000000000000 6
1@
#1100000
0!
0@
#1105000
1!
b110 &
b11000000001000000000000000000000 ,
b1000000001000000000000000000000 -
b1000000001000000000000000000000 .
b110000000010000000000000000000000100000000100000000000000000000001000000001000000000000000000000 5
b110000000010000000000000000000000100000000100000000000000000000001000000001000000000000000000000 7
1@
#1110000
0!
0@
#1115000
1!
b111 &
b1000 (
b1000 0
1@
#1120000
0!
0@
#1125000
1!
b1000 &
bx 6
1@
#1130000
0!
0@
#1135000
1!
b1001 &
bx ,
bx -
bx .
bx 5
bx 7
1@
#1140000
0!
0@
#1145000
1!
b1010 &
b100 (
b100 0
1@
#1150000
0!
0@
#1155000
1!
b1011 &
b10000000010000000000000000000000100000000100000000000000000000011000000001000000000000000000000 6
1@
#1160000
0!
0@
#1165000
1!
b1100 &
b1000000001000000000000000000000 ,
b1000000001000000000000000000000 -
b11000000001000000000000000000000 .
b10000000010000000000000000000000100000000100000000000000000000011000000001000000000000000000000 5
b10000000010000000000000000000000100000000100000000000000000000011000000001000000000000000000000 7
1@
#1170000
0!
0@
#1175000
1!
b1101 &
1@
#1180000
0!
0@
#1185000
1!
1#
b1 &
b1001 '
b1001 8
1@
bx G
bx H
bx I
b1000000001000000000000000000000 J
b1000000001000000000000000000000 K
b11000000001000000000000000000000 L
#1190000
0!
0@
#1195000
1!
0#
b10 &
b100000000001000000000000110 >
1@
#1200000
0!
0@
#1205000
1!
b11 &
b100 )
b110 +
b100000000001000000000000110 =
b100000000001000000000000110 ?
1@
#1210000
0!
0@
#1215000
1!
b100 &
1@
#1220000
0!
0@
#1225000
1!
b101 &
1@
#1230000
0!
0@
#1235000
1!
b110 &
1@
#1240000
0!
0@
#1245000
1!
b111 &
b1000 (
b1000 0
1@
#1250000
0!
0@
#1255000
1!
b1000 &
bx 6
1@
#1260000
0!
0@
#1265000
1!
b1001 &
bx ,
bx -
bx .
bx 5
bx 7
1@
#1270000
0!
0@
#1275000
1!
b1010 &
b110 (
b110 0
1@
#1280000
0!
0@
#1285000
1!
b1011 &
b10000000010000000000000000000001100000000100000000000000000000011000000001000000000000000000000 6
1@
#1290000
0!
0@
#1295000
1!
b1100 &
b1000000001000000000000000000000 ,
b11000000001000000000000000000000 -
b11000000001000000000000000000000 .
b10000000010000000000000000000001100000000100000000000000000000011000000001000000000000000000000 5
b10000000010000000000000000000001100000000100000000000000000000011000000001000000000000000000000 7
1@
#1300000
0!
0@
#1305000
1!
b1101 &
1@
#1310000
0!
0@
#1315000
1!
1#
b1 &
b1010 '
b1010 8
1@
b1000000001000000000000000000000 D
b11000000001000000000000000000000 F
b11000000001000000000000000000000 K
#1320000
0!
0@
#1325000
1!
0#
b10 &
b111000000000010000000000101 >
1@
#1330000
0!
0@
#1335000
1!
b11 &
b111 )
b10 *
b101 +
b111000000000010000000000101 =
b111000000000010000000000101 ?
1@
#1340000
0!
0@
#1345000
1!
b100 &
b111 (
b111 0
1@
#1350000
0!
0@
#1355000
1!
b101 &
b10000000010000000000000000000001100000000100000000000000000000001000000001000000000000000000000 6
1@
#1360000
0!
0@
#1365000
1!
b110 &
b1000000001000000000000000000000 .
b10000000010000000000000000000001100000000100000000000000000000001000000001000000000000000000000 5
b10000000010000000000000000000001100000000100000000000000000000001000000001000000000000000000000 7
1@
#1370000
0!
0@
#1375000
1!
b111 &
b10 (
b10 0
1@
#1380000
0!
0@
#1385000
1!
b1000 &
b110000000010000000000000000000001100000000100000000000000000000001000000001000000000000000000000 6
1@
#1390000
0!
0@
#1395000
1!
b1001 &
b11000000001000000000000000000000 ,
b110000000010000000000000000000001100000000100000000000000000000001000000001000000000000000000000 5
b110000000010000000000000000000001100000000100000000000000000000001000000001000000000000000000000 7
1@
#1400000
0!
0@
#1405000
1!
b1010 &
b101 (
b101 0
1@
#1410000
0!
0@
#1415000
1!
b1011 &
b10000000010000000000000000000000100000000100000000000000000000001000000001000000000000000000000 6
1@
#1420000
0!
0@
#1425000
1!
b1100 &
b1000000001000000000000000000000 ,
b1000000001000000000000000000000 -
b10000000010000000000000000000000100000000100000000000000000000001000000001000000000000000000000 5
b10000000010000000000000000000000100000000100000000000000000000001000000001000000000000000000000 7
1@
#1430000
0!
0@
#1435000
1!
b1101 &
1@
#1440000
0!
0@
#1445000
1!
1#
b1 &
b1011 '
b1011 8
1@
b11000000001000000000000000000000 E
b1000000001000000000000000000000 F
b11000000001000000000000000000000 G
b11000000001000000000000000000000 H
b1000000001000000000000000000000 I
b1000000001000000000000000000000 K
b1000000001000000000000000000000 L
#1450000
0!
0@
#1455000
1!
0#
b10 &
b101000000000010000000000001 >
1@
#1460000
0!
0@
#1465000
1!
b11 &
b101 )
b1 +
b101000000000010000000000001 =
b101000000000010000000000001 ?
1@
#1470000
0!
0@
#1475000
1!
b100 &
1@
#1480000
0!
0@
#1485000
1!
b101 &
1@
#1490000
0!
0@
#1495000
1!
b110 &
1@
#1500000
0!
0@
#1505000
1!
b111 &
b10 (
b10 0
1@
#1510000
0!
0@
#1515000
1!
b1000 &
b110000000010000000000000000000001100000000100000000000000000000001000000001000000000000000000000 6
1@
#1520000
0!
0@
#1525000
1!
b1001 &
b11000000001000000000000000000000 ,
b11000000001000000000000000000000 -
b110000000010000000000000000000001100000000100000000000000000000001000000001000000000000000000000 5
b110000000010000000000000000000001100000000100000000000000000000001000000001000000000000000000000 7
1@
#1530000
0!
0@
#1535000
1!
b1010 &
b1 (
b1 0
1@
#1540000
0!
0@
#1545000
1!
b1011 &
b110000000010000000000000000000001100000000100000000000000000000011000000001000000000000000000000 6
1@
#1550000
0!
0@
#1555000
1!
b1100 &
b11000000001000000000000000000000 .
b110000000010000000000000000000001100000000100000000000000000000011000000001000000000000000000000 5
b110000000010000000000000000000001100000000100000000000000000000011000000001000000000000000000000 7
1@
#1560000
0!
0@
#1565000
1!
b1101 &
1@
#1570000
0!
0@
#1575000
1!
1#
1$
b0 &
1@
b1000000001000000000000000000000 E
b11000000001000000000000000000000 J
b11000000001000000000000000000000 K
b11000000001000000000000000000000 L
#1580000
0!
0@
#1585000
1!
0#
0$
b1 &
b0 '
b0 8
1@
#1590000
0!
0@
#1595000
1!
b10 &
b1000000000010000000000100 >
1@
#1600000
0!
0@
#1605000
1!
b11 &
b1 )
b100 +
b1000000000010000000000100 =
b1000000000010000000000100 ?
1@
#1610000
0!
0@
#1615000
1!
b100 &
1@
#1620000
0!
0@
#1625000
1!
b101 &
1@
#1630000
0!
0@
#1635000
1!
b110 &
1@
#1640000
0!
0@
#1645000
1!
b111 &
b10 (
b10 0
1@
#1650000
0!
0@
#1655000
1!
b1000 &
b110000000010000000000000000000001100000000100000000000000000000001000000001000000000000000000000 6
1@
#1660000
0!
0@
#1665000
1!
b1001 &
b1000000001000000000000000000000 .
b110000000010000000000000000000001100000000100000000000000000000001000000001000000000000000000000 5
b110000000010000000000000000000001100000000100000000000000000000001000000001000000000000000000000 7
1@
#1670000
0!
0@
#1675000
1!
b1010 &
b100 (
b100 0
1@
#1680000
0!
0@
#1685000
1!
b1011 &
b10000000010000000000000000000000100000000100000000000000000000011000000001000000000000000000000 6
1@
#1690000
0!
0@
#1695000
1!
b1100 &
b1000000001000000000000000000000 ,
b1000000001000000000000000000000 -
b11000000001000000000000000000000 .
b10000000010000000000000000000000100000000100000000000000000000011000000001000000000000000000000 5
b10000000010000000000000000000000100000000100000000000000000000011000000001000000000000000000000 7
1@
#1700000
0!
0@
#1705000
1!
b1101 &
1@
#1710000
0!
0@
#1715000
1!
1#
b1 &
b1 '
b1 8
1@
b11000000001000000000000000000000 D
b11000000001000000000000000000000 E
b11000000001000000000000000000000 F
b1000000001000000000000000000000 J
b1000000001000000000000000000000 K
#1720000
0!
0@
#1725000
1!
0#
b10 &
b100000000000010000000000011 >
1@
#1730000
0!
0@
#1735000
1!
b11 &
b100 )
b11 +
b100000000000010000000000011 =
b100000000000010000000000011 ?
1@
#1740000
0!
0@
#1745000
1!
b100 &
1@
#1750000
0!
0@
#1755000
1!
b101 &
1@
#1760000
0!
0@
#1765000
1!
b110 &
1@
#1770000
0!
0@
#1775000
1!
b111 &
b10 (
b10 0
1@
#1780000
0!
0@
#1785000
1!
b1000 &
b110000000010000000000000000000001100000000100000000000000000000001000000001000000000000000000000 6
1@
#1790000
0!
0@
#1795000
1!
b1001 &
b11000000001000000000000000000000 ,
b11000000001000000000000000000000 -
b1000000001000000000000000000000 .
b110000000010000000000000000000001100000000100000000000000000000001000000001000000000000000000000 5
b110000000010000000000000000000001100000000100000000000000000000001000000001000000000000000000000 7
1@
#1800000
0!
0@
#1805000
1!
b1010 &
b11 (
b11 0
1@
#1810000
0!
0@
#1815000
1!
b1011 &
b110000000010000000000000000000000100000000100000000000000000000001000000001000000000000000000000 6
1@
#1820000
0!
0@
#1825000
1!
b1100 &
b1000000001000000000000000000000 -
b110000000010000000000000000000000100000000100000000000000000000001000000001000000000000000000000 5
b110000000010000000000000000000000100000000100000000000000000000001000000001000000000000000000000 7
1@
#1830000
0!
0@
#1835000
1!
b1101 &
1@
#1840000
0!
0@
#1845000
1!
1#
b1 &
b10 '
b10 8
1@
b1000000001000000000000000000000 D
b1000000001000000000000000000000 E
b11000000001000000000000000000000 J
b1000000001000000000000000000000 L
#1850000
0!
0@
#1855000
1!
0#
b10 &
b101000000000001000000000110 >
1@
#1860000
0!
0@
#1865000
1!
b11 &
b101 )
b1 *
b110 +
b101000000000001000000000110 =
b101000000000001000000000110 ?
1@
#1870000
0!
0@
#1875000
1!
b100 &
b101 (
b101 0
1@
#1880000
0!
0@
#1885000
1!
b101 &
b10000000010000000000000000000000100000000100000000000000000000001000000001000000000000000000000 6
1@
#1890000
0!
0@
#1895000
1!
b110 &
b1000000001000000000000000000000 ,
b10000000010000000000000000000000100000000100000000000000000000001000000001000000000000000000000 5
b10000000010000000000000000000000100000000100000000000000000000001000000001000000000000000000000 7
1@
#1900000
0!
0@
#1905000
1!
b111 &
b1 (
b1 0
1@
#1910000
0!
0@
#1915000
1!
b1000 &
b110000000010000000000000000000001100000000100000000000000000000011000000001000000000000000000000 6
1@
#1920000
0!
0@
#1925000
1!
b1001 &
b11000000001000000000000000000000 ,
b11000000001000000000000000000000 -
b11000000001000000000000000000000 .
b110000000010000000000000000000001100000000100000000000000000000011000000001000000000000000000000 5
b110000000010000000000000000000001100000000100000000000000000000011000000001000000000000000000000 7
1@
#1930000
0!
0@
#1935000
1!
b1010 &
b110 (
b110 0
1@
#1940000
0!
0@
#1945000
1!
b1011 &
b10000000010000000000000000000001100000000100000000000000000000011000000001000000000000000000000 6
1@
#1950000
0!
0@
#1955000
1!
b1100 &
b1000000001000000000000000000000 ,
b10000000010000000000000000000001100000000100000000000000000000011000000001000000000000000000000 5
b10000000010000000000000000000001100000000100000000000000000000011000000001000000000000000000000 7
1@
#1960000
0!
0@
#1965000
1!
b1101 &
1@
#1970000
0!
0@
#1975000
1!
1#
b1 &
b11 '
b11 8
1@
b1000000001000000000000000000000 F
b11000000001000000000000000000000 I
b1000000001000000000000000000000 J
b11000000001000000000000000000000 K
b11000000001000000000000000000000 L
#1980000
0!
0@
#1985000
1!
0#
b10 &
b110000000000001000000000100 >
1@
#1990000
0!
0@
#1995000
1!
b11 &
b110 )
b100 +
b110000000000001000000000100 =
b110000000000001000000000100 ?
1@
#2000000
0!
0@
#2005000
1!
b100 &
1@
#2010000
0!
0@
#2015000
1!
b101 &
1@
#2020000
0!
0@
#2025000
1!
b110 &
1@
#2030000
0!
0@
#2035000
1!
b111 &
b1 (
b1 0
1@
#2040000
0!
0@
#2045000
1!
b1000 &
b110000000010000000000000000000001100000000100000000000000000000011000000001000000000000000000000 6
1@
#2050000
0!
0@
#2055000
1!
b1001 &
b11000000001000000000000000000000 ,
b110000000010000000000000000000001100000000100000000000000000000011000000001000000000000000000000 5
b110000000010000000000000000000001100000000100000000000000000000011000000001000000000000000000000 7
1@
#2060000
0!
0@
#2065000
1!
b1010 &
b100 (
b100 0
1@
#2070000
0!
0@
#2075000
1!
b1011 &
b10000000010000000000000000000000100000000100000000000000000000011000000001000000000000000000000 6
1@
#2080000
0!
0@
#2085000
1!
b1100 &
b1000000001000000000000000000000 ,
b1000000001000000000000000000000 -
b10000000010000000000000000000000100000000100000000000000000000011000000001000000000000000000000 5
b10000000010000000000000000000000100000000100000000000000000000011000000001000000000000000000000 7
1@
#2090000
0!
0@
#2095000
1!
b1101 &
1@
#2100000
0!
0@
#2105000
1!
1#
b1 &
b100 '
b100 8
1@
b11000000001000000000000000000000 E
b11000000001000000000000000000000 F
b1000000001000000000000000000000 K
#2110000
0!
0@
#2115000
1!
0#
b10 &
b111000000000101000000001000 >
1@
#2120000
0!
0@
#2125000
1!
b11 &
b111 )
b101 *
b1000 +
b111000000000101000000001000 =
b111000000000101000000001000 ?
1@
#2130000
0!
0@
#2135000
1!
b100 &
b111 (
b111 0
1@
#2140000
0!
0@
#2145000
1!
b101 &
b10000000010000000000000000000001100000000100000000000000000000001000000001000000000000000000000 6
1@
#2150000
0!
0@
#2155000
1!
b110 &
b11000000001000000000000000000000 -
b1000000001000000000000000000000 .
b10000000010000000000000000000001100000000100000000000000000000001000000001000000000000000000000 5
b10000000010000000000000000000001100000000100000000000000000000001000000001000000000000000000000 7
1@
#2160000
0!
0@
#2165000
1!
b111 &
b101 (
b101 0
1@
#2170000
0!
0@
#2175000
1!
b1000 &
b10000000010000000000000000000000100000000100000000000000000000001000000001000000000000000000000 6
1@
#2180000
0!
0@
#2185000
1!
b1001 &
b1000000001000000000000000000000 -
b10000000010000000000000000000000100000000100000000000000000000001000000001000000000000000000000 5
b10000000010000000000000000000000100000000100000000000000000000001000000001000000000000000000000 7
1@
#2190000
0!
0@
#2195000
1!
b1010 &
b1000 (
b1000 0
1@
#2200000
0!
0@
