dump.vcd
$date
   Thu Dec 14 07:58:14 2023
$end
$version
  2023.1
$end
$timescale
  1ps
$end
$scope module rasterizer_tb $end
$var reg 1 | clk $end
$var reg 1 } rst $end
$var reg 1 ~ valid_tri $end
$var reg 1 !! obj_done $end
$var reg 1 "! new_frame $end
$var reg 11 #! hcount_in [10:0] $end
$var reg 10 $! vcount_in [9:0] $end
$var reg 8 ( color [7:0] $end
$var reg 1 ) ready $end
$var parameter 32 %! W [31:0] $end
$var parameter 32 &! H [31:0] $end
$scope module uut $end
$var wire 1 ! clk_in $end
$var wire 1 " rst_in $end
$var wire 1 # valid_tri $end
$var wire 1 $ obj_done $end
$var wire 1 % new_frame $end
$var wire 11 & hcount [10:0] $end
$var wire 10 ' vcount [9:0] $end
$var reg 8 ( color_out [7:0] $end
$var reg 1 ) ready_out $end
$var reg 32 * state $end
$var reg 1 + buf_sel $end
$var reg 17 , write_addr [16:0] $end
$var reg 17 - write_in [16:0] $end
$var reg 17 . rewrite_addr [16:0] $end
$var reg 1 / wea0 $end
$var reg 1 0 wea1 $end
$var reg 9 1 read_out_w [8:0] $end
$var reg 9 2 x_max [8:0] $end
$var reg 9 3 x_min [8:0] $end
$var reg 9 4 y_max [8:0] $end
$var reg 9 5 y_min [8:0] $end
$var reg 9 6 x_iter [8:0] $end
$var reg 9 7 y_iter [8:0] $end
$var reg 9 8 depth [8:0] $end
$var reg 1 9 valid_r $end
$var reg 8 : color_val [7:0] $end
$var reg 17 ; read_out0 [16:0] $end
$var reg 17 < read_out1 [16:0] $end
$var reg 8 = read_out [7:0] $end
$var reg 17 > read_addr0 [16:0] $end
$var reg 17 ? read_addr1 [16:0] $end
$var reg 17 @ write_addr0 [16:0] $end
$var reg 17 A write_addr1 [16:0] $end
$var reg 1 B in_tri_v_in $end
$var reg 1 C in_tri_out $end
$var reg 1 D in_tri_v_out $end
$var reg 1 E obj_done_med $end
$scope begin Block53_1 $end
$var reg 32 F i [31:0] $end
$upscope $end
$scope module intri $end
$var wire 1 ! clk_in $end
$var wire 1 " rst_in $end
$var wire 9 G x [8:0] $end
$var wire 9 H y [8:0] $end
$var wire 1 I valid_in $end
$var reg 1 C in_tri $end
$var reg 1 D valid_out $end
$var reg 32 J state $end
$var reg 17 K detv1v2 [16:0] $end
$var reg 17 L detvv2 [16:0] $end
$var reg 17 M detv0v2 [16:0] $end
$var reg 17 N detvv1 [16:0] $end
$var reg 17 O detv0v1 [16:0] $end
$var reg 17 P a_num [16:0] $end
$var reg 17 Q b_num [16:0] $end
$var reg 16 R a_raw [15:0] $end
$var reg 16 S b_raw [15:0] $end
$var reg 16 T det_raw [15:0] $end
$var reg 1 U a $end
$var reg 1 V b $end
$upscope $end
$scope module z_buffer0 $end
$var wire 17 W addra [16:0] $end
$var wire 17 X addrb [16:0] $end
$var wire 17 Y dina [16:0] $end
$var wire 17 Z dinb [16:0] $end
$var wire 1 ! clka $end
$var wire 1 ! clkb $end
$var wire 1 [ wea $end
$var wire 1 \ web $end
$var wire 1 ] ena $end
$var wire 1 ^ enb $end
$var wire 1 " rsta $end
$var wire 1 " rstb $end
$var wire 1 _ regcea $end
$var wire 1 ` regceb $end
$var wire 17 a douta [16:0] $end
$var wire 17 b doutb [16:0] $end
$var reg 17 c ram_data_a [16:0] $end
$var reg 17 d ram_data_b [16:0] $end
$var integer 32 e idx [31:0] $end
$var reg 17 f \output_register.douta_reg  [16:0] $end
$var reg 17 g \output_register.doutb_reg  [16:0] $end
$upscope $end
$scope module z_buffer1 $end
$var wire 17 h addra [16:0] $end
$var wire 17 i addrb [16:0] $end
$var wire 17 j dina [16:0] $end
$var wire 17 k dinb [16:0] $end
$var wire 1 ! clka $end
$var wire 1 ! clkb $end
$var wire 1 l wea $end
$var wire 1 m web $end
$var wire 1 n ena $end
$var wire 1 o enb $end
$var wire 1 " rsta $end
$var wire 1 " rstb $end
$var wire 1 p regcea $end
$var wire 1 q regceb $end
$var wire 17 r douta [16:0] $end
$var wire 17 s doutb [16:0] $end
$var reg 17 t ram_data_a [16:0] $end
$var reg 17 u ram_data_b [16:0] $end
$var integer 32 v idx [31:0] $end
$var reg 17 w \output_register.douta_reg  [16:0] $end
$var reg 17 x \output_register.doutb_reg  [16:0] $end
$upscope $end
$upscope $end
$scope begin Block60_19 $end
$var integer 32 y n [31:0] $end
$scope begin Block67_20 $end
$var integer 32 z i [31:0] $end
$scope begin Block68_21 $end
$var integer 32 { j [31:0] $end
$upscope $end
$upscope $end
$upscope $end
$upscope $end
$enddefinitions $end
#0
$dumpvars
0!
x!!
0"
x"!
x#
bx #!
x$
bx $!
x%
b10000 %!
bx &
b10000 &!
bx '
bx (
x)
b0 *
x+
bx ,
bx -
bx .
x/
x0
b0 1
b1010 2
b101 3
b1010 4
b101 5
bx 6
bx 7
bx 8
x9
bx :
b0 ;
b0 <
b0 =
bx >
bx ?
bx @
bx A
xB
xC
xD
xE
b0 F
bx G
bx H
xI
b0 J
bx K
bx L
bx M
bx N
bx O
bx P
bx Q
bx R
bx S
bx T
xU
xV
bx W
bx X
bx Y
bz Z
x[
0\
1]
1^
1_
1`
b0 a
b0 b
b0 c
b0 d
b11111101001000000 e
b0 f
b0 g
bx h
bx i
bx j
bz k
xl
0m
1n
1o
1p
1q
b0 r
b0 s
b0 t
b0 u
b11111101001000000 v
b0 w
b0 x
bx y
bx z
bx {
0|
0}
x~
$end
#5000
1!
1"
b0 (
0+
0/
00
b101 6
b101 7
b11100001101 ?
0B
0C
0D
b10 F
b101 G
b101 H
0I
0[
bx c
bx d
b11100001101 i
0l
bx t
bx u
1|
1}
#10000
0!
0|
#15000
1!
1!!
0"
1#
1$
0)
b1 *
bx 1
b100 6
b100 7
bx ;
bx <
bx =
b10110100100 ?
1E
b10 F
b100 G
b100 H
bx a
bx b
bx f
bx g
b10110100100 i
bx r
bx s
b111111111 u
bx w
bx x
b0 y
1|
0}
1~
#20000
0!
0|
#25000
1!
0!!
0#
0$
bx (
b10 *
b111111111 1
b101 6
b111111111 <
b10110100101 ?
1B
b10 F
b101 G
1I
b10110100101 i
b111111111 s
b111111111 x
1|
0~
#30000
0!
0|
#35000
1!
b0 #!
b0 $!
b0 &
b0 '
b0 >
0B
b10 F
0I
b1 J
b11001 K
b11001 L
b11001 M
b11111111111101100 N
b11111111111100111 O
b0 P
b101 Q
b0 X
b111111111 d
b0 z
b0 {
1|
#40000
0!
0|
#45000
1!
b1 #!
b1 &
b111111111 ;
b0 =
b1 >
b10 F
b10 J
b0 R
b101 S
b11001 T
1U
0V
b1 X
b111111111 b
b111111111 g
b1 {
1|
#50000
0!
0|
#55000
1!
b10 #!
b10 &
b0 (
b10 >
1D
b10 F
b0 J
b10 X
b10 {
1|
#60000
0!
0|
#65000
1!
b11 #!
b11 &
b1 *
b11 >
0D
b10 F
b11 X
b11 {
1|
#70000
0!
0|
#75000
1!
b100 #!
b100 &
b10 *
b110 6
b100 >
b10110100110 ?
1B
b10 F
b110 G
1I
b100 X
b10110100110 i
b100 {
1|
#80000
0!
0|
#85000
1!
b101 #!
b101 &
b101 >
0B
b10 F
0I
b1 J
b11110 L
b101 P
b101 X
b101 {
1|
#90000
0!
0|
#95000
1!
b110 #!
b110 &
b110 >
b10 F
b10 J
b101 R
b110 X
b110 {
1|
#100000
0!
0|
#105000
1!
b111 #!
b111 &
b111 >
1D
b10 F
b0 J
b111 X
b111 {
1|
#110000
0!
0|
#115000
1!
b1000 #!
b1000 &
b1 *
b1000 >
0D
b10 F
b1000 X
b1000 {
1|
#120000
0!
0|
#125000
1!
b1001 #!
b1001 &
b10 *
b111 6
b1001 >
b10110100111 ?
1B
b10 F
b111 G
1I
b1001 X
b10110100111 i
b1001 {
1|
#130000
0!
0|
#135000
1!
b1010 #!
b1010 &
b1010 >
0B
b10 F
0I
b1 J
b100011 L
b1010 P
b1010 X
b1010 {
1|
#140000
0!
0|
#145000
1!
b1011 #!
b1011 &
b1011 >
b10 F
b10 J
b1010 R
b1011 X
b1011 {
1|
#150000
0!
0|
#155000
1!
b1100 #!
b1100 &
b1100 >
1D
b10 F
b0 J
b1100 X
b1100 {
1|
#160000
0!
0|
#165000
1!
b1101 #!
b1101 &
b1 *
b1101 >
0D
b10 F
b1101 X
b1101 {
1|
#170000
0!
0|
#175000
1!
b1110 #!
b1110 &
b10 *
b1000 6
b1110 >
b10110101000 ?
1B
b10 F
b1000 G
1I
b1110 X
b10110101000 i
b1110 {
1|
#180000
0!
0|
#185000
1!
b1111 #!
b1111 &
b1111 >
0B
b10 F
0I
b1 J
b101000 L
b1111 P
b1111 X
b1111 {
1|
#190000
0!
0|
#195000
1!
b0 #!
b1 $!
b0 &
b1 '
b101101000 >
b10 F
b10 J
b1111 R
b101101000 X
b1 z
b0 {
1|
#200000
0!
0|
#205000
1!
b1 #!
b1 &
b101101001 >
1D
b10 F
b0 J
b101101001 X
b1 {
1|
#210000
0!
0|
#215000
1!
b10 #!
b10 &
b1 *
b101101010 >
0D
b10 F
b101101010 X
b10 {
1|
#220000
0!
0|
#225000
1!
b11 #!
b11 &
b10 *
b1001 6
b101101011 >
b10110101001 ?
1B
b10 F
b1001 G
1I
b101101011 X
b10110101001 i
b11 {
1|
#230000
0!
0|
#235000
1!
b100 #!
b100 &
b101101100 >
0B
b10 F
0I
b1 J
b101101 L
b10100 P
b101101100 X
b100 {
1|
#240000
0!
0|
#245000
1!
b101 #!
b101 &
b101101101 >
b10 F
b10 J
b10100 R
b101101101 X
b101 {
1|
#250000
0!
0|
#255000
1!
b110 #!
b110 &
b101101110 >
1D
b10 F
b0 J
b101101110 X
b110 {
1|
#260000
0!
0|
#265000
1!
b111 #!
b111 &
b1 *
b101101111 >
0D
b10 F
b101101111 X
b111 {
1|
#270000
0!
0|
#275000
1!
b1000 #!
b1000 &
b10 *
b1010 6
b101110000 >
b10110101010 ?
1B
b10 F
b1010 G
1I
b101110000 X
b10110101010 i
b1000 {
1|
#280000
0!
0|
#285000
1!
b1001 #!
b1001 &
b101110001 >
0B
b10 F
0I
b1 J
b110010 L
b11001 P
b101110001 X
b1001 {
1|
#290000
0!
0|
#295000
1!
b1010 #!
b1010 &
b101110010 >
b10 F
b10 J
b11001 R
b101110010 X
b1010 {
1|
#300000
0!
0|
#305000
1!
b1011 #!
b1011 &
b101110011 >
1D
b10 F
b0 J
b101110011 X
b1011 {
1|
#310000
0!
0|
#315000
1!
b1100 #!
b1100 &
b1 *
b101110100 >
0D
b10 F
b101110100 X
b1100 {
1|
#320000
0!
0|
#325000
1!
b1101 #!
b1101 &
b10 *
b1011 6
b101110101 >
b10110101011 ?
1B
b10 F
b1011 G
1I
b101110101 X
b10110101011 i
b1101 {
1|
#330000
0!
0|
#335000
1!
b1110 #!
b1110 &
b101110110 >
0B
b10 F
0I
b1 J
b110111 L
b11110 P
b101110110 X
b1110 {
1|
#340000
0!
0|
#345000
1!
b1111 #!
b1111 &
b101110111 >
b10 F
b10 J
b11110 R
0U
b101110111 X
b1111 {
1|
#350000
0!
0|
#355000
1!
b0 #!
b10 $!
b0 &
b10 '
b1011010000 >
1D
b10 F
b0 J
b1011010000 X
b10 z
b0 {
1|
#360000
0!
0|
#365000
1!
b1 #!
b1 &
b1 *
b1011010001 >
0D
b10 F
b1011010001 X
b1 {
1|
#370000
0!
0|
#375000
1!
b10 #!
b10 &
b10 *
b101 6
b101 7
b1011010010 >
b11100001101 ?
1B
b10 F
b101 G
b101 H
1I
b1011010010 X
b11100001101 i
b10 {
1|
#380000
0!
0|
#385000
1!
b11 #!
b11 &
b1011010011 >
0B
b10 F
0I
b1 J
b11001 L
b11111111111100111 N
b0 P
b0 Q
b1011010011 X
b11 {
1|
#390000
0!
0|
#395000
1!
b100 #!
b100 &
b1011010100 >
b10 F
b10 J
b0 R
b0 S
1U
1V
b1011010100 X
b100 {
1|
#400000
0!
0|
#405000
1!
b101 #!
b101 &
b1011010101 >
1C
1D
b10 F
b0 J
b1011010101 X
b101 {
1|
#410000
0!
0|
#415000
1!
b110 #!
b110 &
b1 *
b11100001101 ,
b11111111xxxxxxxxx -
10
b1011010110 >
b11100001101 @
b11100001101 A
0C
0D
b10 F
b11100001101 W
b1011010110 X
b11111111xxxxxxxxx Y
b11100001101 h
b11111111xxxxxxxxx j
1l
b110 {
1|
#420000
0!
0|
#425000
1!
b111 #!
b111 &
b10 *
b110 6
b1011010111 >
b11100001110 ?
1B
b10 F
b110 G
1I
b1011010111 X
b111111111 c
b11100001110 i
b111111111 t
b111 {
1|
#430000
0!
0|
#435000
1!
b1000 #!
b1000 &
b1011011000 >
0B
b10 F
0I
b1 J
b11110 L
b101 P
b1011011000 X
b111111111 a
b111111111 f
b111111111 r
b11111111xxxxxxxxx t
b111111111 w
b1000 {
1|
#440000
0!
0|
#445000
1!
b1001 #!
b1001 &
b1011011001 >
b10 F
b10 J
b101 R
b1011011001 X
b11111111xxxxxxxxx r
b11111111xxxxxxxxx w
b1001 {
1|
#450000
0!
0|
#455000
1!
b1010 #!
b1010 &
b1011011010 >
1C
1D
b10 F
b0 J
b1011011010 X
b1010 {
1|
#460000
0!
0|
#465000
1!
b1011 #!
b1011 &
b1 *
b11100001110 ,
b1011011011 >
b11100001110 @
b11100001110 A
0C
0D
b10 F
b11100001110 W
b1011011011 X
b11100001110 h
b1011 {
1|
#470000
0!
0|
#475000
1!
b1100 #!
b1100 &
b10 *
b111 6
b1011011100 >
b11100001111 ?
1B
b10 F
b111 G
1I
b1011011100 X
b11100001111 i
b111111111 t
b1100 {
1|
#480000
0!
0|
#485000
1!
b1101 #!
b1101 &
b1011011101 >
0B
b10 F
0I
b1 J
b100011 L
b1010 P
b1011011101 X
b111111111 r
b11111111xxxxxxxxx t
b111111111 w
b1101 {
1|
#490000
0!
0|
#495000
1!
b1110 #!
b1110 &
b1011011110 >
b10 F
b10 J
b1010 R
b1011011110 X
b11111111xxxxxxxxx r
b11111111xxxxxxxxx w
b1110 {
1|
#500000
0!
0|
#505000
1!
b1111 #!
b1111 &
b1011011111 >
1C
1D
b10 F
b0 J
b1011011111 X
b1111 {
1|
#510000
0!
0|
#515000
1!
b0 #!
b11 $!
b0 &
b11 '
b1 *
b11100001111 ,
b10000111000 >
b11100001111 @
b11100001111 A
0C
0D
b10 F
b11100001111 W
b10000111000 X
b11100001111 h
b11 z
b0 {
1|
#520000
0!
0|
#525000
1!
b1 #!
b1 &
b10 *
b1000 6
b10000111001 >
b11100010000 ?
1B
b10 F
b1000 G
1I
b10000111001 X
b11100010000 i
b111111111 t
b1 {
1|
#530000
0!
0|
#535000
1!
b10 #!
b10 &
b10000111010 >
0B
b10 F
0I
b1 J
b101000 L
b1111 P
b10000111010 X
b111111111 r
b11111111xxxxxxxxx t
b111111111 w
b10 {
1|
#540000
0!
0|
#545000
1!
b11 #!
b11 &
b10000111011 >
b10 F
b10 J
b1111 R
b10000111011 X
b11111111xxxxxxxxx r
b11111111xxxxxxxxx w
b11 {
1|
#550000
0!
0|
#555000
1!
b100 #!
b100 &
b10000111100 >
1C
1D
b10 F
b0 J
b10000111100 X
b100 {
1|
#560000
0!
0|
#565000
1!
b101 #!
b101 &
b1 *
b11100010000 ,
b10000111101 >
b11100010000 @
b11100010000 A
0C
0D
b10 F
b11100010000 W
b10000111101 X
b11100010000 h
b101 {
1|
#570000
0!
0|
#575000
1!
b110 #!
b110 &
b10 *
b1001 6
b10000111110 >
b11100010001 ?
1B
b10 F
b1001 G
1I
b10000111110 X
b11100010001 i
b111111111 t
b110 {
1|
#580000
0!
0|
#585000
1!
b111 #!
b111 &
b10000111111 >
0B
b10 F
0I
b1 J
b101101 L
b10100 P
b10000111111 X
b111111111 r
b11111111xxxxxxxxx t
b111111111 w
b111 {
1|
#590000
0!
0|
#595000
1!
b1000 #!
b1000 &
b10001000000 >
b10 F
b10 J
b10100 R
b10001000000 X
b11111111xxxxxxxxx r
b11111111xxxxxxxxx w
b1000 {
1|
#600000
0!
0|
#605000
1!
b1001 #!
b1001 &
b10001000001 >
1C
1D
b10 F
b0 J
b10001000001 X
b1001 {
1|
#610000
0!
0|
#615000
1!
b1010 #!
b1010 &
b1 *
b11100010001 ,
b10001000010 >
b11100010001 @
b11100010001 A
0C
0D
b10 F
b11100010001 W
b10001000010 X
b11100010001 h
b1010 {
1|
#620000
0!
0|
#625000
1!
b1011 #!
b1011 &
b10 *
b1010 6
b10001000011 >
b11100010010 ?
1B
b10 F
b1010 G
1I
b10001000011 X
b11100010010 i
b111111111 t
b1011 {
1|
#630000
0!
0|
#635000
1!
b1100 #!
b1100 &
b10001000100 >
0B
b10 F
0I
b1 J
b110010 L
b11001 P
b10001000100 X
b111111111 r
b11111111xxxxxxxxx t
b111111111 w
b1100 {
1|
#640000
0!
0|
#645000
1!
b1101 #!
b1101 &
b10001000101 >
b10 F
b10 J
b11001 R
b10001000101 X
b11111111xxxxxxxxx r
b11111111xxxxxxxxx w
b1101 {
1|
#650000
0!
0|
#655000
1!
b1110 #!
b1110 &
b10001000110 >
1C
1D
b10 F
b0 J
b10001000110 X
b1110 {
1|
#660000
0!
0|
#665000
1!
b1111 #!
b1111 &
b1 *
b11100010010 ,
b10001000111 >
b11100010010 @
b11100010010 A
0C
0D
b10 F
b11100010010 W
b10001000111 X
b11100010010 h
b1111 {
1|
#670000
0!
0|
#675000
1!
b0 #!
b100 $!
b0 &
b100 '
b10 *
b1011 6
b10110100000 >
b11100010011 ?
1B
b10 F
b1011 G
1I
b10110100000 X
b11100010011 i
b111111111 t
b100 z
b0 {
1|
#680000
0!
0|
#685000
1!
b1 #!
b1 &
b10110100001 >
0B
b10 F
0I
b1 J
b110111 L
b11110 P
b10110100001 X
b111111111 r
b11111111xxxxxxxxx t
b111111111 w
b1 {
1|
#690000
0!
0|
#695000
1!
b10 #!
b10 &
b10110100010 >
b10 F
b10 J
b11110 R
0U
b10110100010 X
b11111111xxxxxxxxx r
b11111111xxxxxxxxx w
b10 {
1|
#700000
0!
0|
#705000
1!
b11 #!
b11 &
b10110100011 >
1D
b10 F
b0 J
b10110100011 X
b11 {
1|
#710000
0!
0|
#715000
1!
b100 #!
b100 &
b1 *
b10110100100 >
0D
b10 F
b10110100100 X
b100 {
1|
#720000
0!
0|
#725000
1!
b101 #!
b101 &
b10 *
b101 6
b110 7
b10110100101 >
b100001110101 ?
1B
b10 F
b101 G
b110 H
1I
b10110100101 X
b100001110101 i
b101 {
1|
#730000
0!
0|
#735000
1!
b110 #!
b110 &
b10110100110 >
0B
b10 F
0I
b1 J
b11001 L
b11111111111100010 N
b0 P
b11111111111111011 Q
b10110100110 X
b110 {
1|
#740000
0!
0|
#745000
1!
b111 #!
b111 &
b10110100111 >
b10 F
b10 J
b0 R
b101 S
1U
b10110100111 X
b111 {
1|
#750000
0!
0|
#755000
1!
b1000 #!
b1000 &
b10110101000 >
1C
1D
b10 F
b0 J
b10110101000 X
b1000 {
1|
#760000
0!
0|
#765000
1!
b1001 #!
b1001 &
b1 *
b100001110101 ,
b10110101001 >
b100001110101 @
b100001110101 A
0C
0D
b10 F
b100001110101 W
b10110101001 X
b100001110101 h
b1001 {
1|
#770000
0!
0|
#775000
1!
b1010 #!
b1010 &
b10 *
b110 6
b10110101010 >
b100001110110 ?
1B
b10 F
b110 G
1I
b10110101010 X
b100001110110 i
b111111111 t
b1010 {
1|
#780000
0!
0|
#785000
1!
b1011 #!
b1011 &
b10110101011 >
0B
b10 F
0I
b1 J
b11110 L
b101 P
b10110101011 X
b111111111 r
b11111111xxxxxxxxx t
b111111111 w
b1011 {
1|
#790000
0!
0|
#795000
1!
b1100 #!
b1100 &
b10110101100 >
b10 F
b10 J
b101 R
b10110101100 X
b11111111xxxxxxxxx r
b11111111xxxxxxxxx w
b1100 {
1|
#800000
0!
0|
#805000
1!
b1101 #!
b1101 &
b10110101101 >
1C
1D
b10 F
b0 J
b10110101101 X
b1101 {
1|
#810000
0!
0|
#815000
1!
b1110 #!
b1110 &
b1 *
b100001110110 ,
b10110101110 >
b100001110110 @
b100001110110 A
0C
0D
b10 F
b100001110110 W
b10110101110 X
b100001110110 h
b1110 {
1|
#820000
0!
0|
#825000
1!
b1111 #!
b1111 &
b10 *
b111 6
b10110101111 >
b100001110111 ?
1B
b10 F
b111 G
1I
b10110101111 X
b100001110111 i
b111111111 t
b1111 {
1|
#830000
0!
0|
#835000
1!
b0 #!
b101 $!
b0 &
b101 '
b11100001000 >
0B
b10 F
0I
b1 J
b100011 L
b1010 P
b11100001000 X
b111111111 r
b11111111xxxxxxxxx t
b111111111 w
b101 z
b0 {
1|
#840000
0!
0|
#845000
1!
b1 #!
b1 &
b11100001001 >
b10 F
b10 J
b1010 R
b11100001001 X
b11111111xxxxxxxxx r
b11111111xxxxxxxxx w
b1 {
1|
#850000
0!
0|
#855000
1!
b10 #!
b10 &
b11100001010 >
1C
1D
b10 F
b0 J
b11100001010 X
b10 {
1|
#860000
0!
0|
#865000
1!
b11 #!
b11 &
b1 *
b100001110111 ,
b11100001011 >
b100001110111 @
b100001110111 A
0C
0D
b10 F
b100001110111 W
b11100001011 X
b100001110111 h
b11 {
1|
#870000
0!
0|
#875000
1!
b100 #!
b100 &
b10 *
b1000 6
b11100001100 >
b100001111000 ?
1B
b10 F
b1000 G
1I
b11100001100 X
b100001111000 i
b111111111 t
b100 {
1|
#880000
0!
0|
#885000
1!
b101 #!
b101 &
b11100001101 >
0B
b10 F
0I
b1 J
b101000 L
b1111 P
b11100001101 X
b111111111 r
b11111111xxxxxxxxx t
b111111111 w
b101 {
1|
#890000
0!
0|
#895000
1!
b110 #!
b110 &
b11100001110 >
b10 F
b10 J
b1111 R
b11100001110 X
b11111111xxxxxxxxx r
b11111111xxxxxxxxx w
b110 {
1|
#900000
0!
0|
#905000
1!
b111 #!
b111 &
b11100001111 >
1C
1D
b10 F
b0 J
b11100001111 X
b111 {
1|
#910000
0!
0|
#915000
1!
b1000 #!
b1000 &
b1 *
b100001111000 ,
b11100010000 >
b100001111000 @
b100001111000 A
0C
0D
b10 F
b100001111000 W
b11100010000 X
b100001111000 h
b1000 {
1|
#920000
0!
0|
#925000
1!
b1001 #!
b1001 &
b10 *
b1001 6
b11100010001 >
b100001111001 ?
1B
b10 F
b1001 G
1I
b11100010001 X
b100001111001 i
b111111111 t
b1001 {
1|
#930000
0!
0|
#935000
1!
b1010 #!
b1010 &
b11100010010 >
0B
b10 F
0I
b1 J
b101101 L
b10100 P
b11100010010 X
b111111111 r
b11111111xxxxxxxxx t
b111111111 w
b1010 {
1|
#940000
0!
0|
#945000
1!
b1011 #!
b1011 &
b11100010011 >
b10 F
b10 J
b10100 R
b11100010011 X
b11111111xxxxxxxxx r
b11111111xxxxxxxxx w
b1011 {
1|
#950000
0!
0|
#955000
1!
b1100 #!
b1100 &
b11100010100 >
1C
1D
b10 F
b0 J
b11100010100 X
b1100 {
1|
#960000
0!
0|
#965000
1!
b1101 #!
b1101 &
b1 *
b100001111001 ,
b11100010101 >
b100001111001 @
b100001111001 A
0C
0D
b10 F
b100001111001 W
b11100010101 X
b100001111001 h
b1101 {
1|
#970000
0!
0|
#975000
1!
b1110 #!
b1110 &
b10 *
b1010 6
b11100010110 >
b100001111010 ?
1B
b10 F
b1010 G
1I
b11100010110 X
b100001111010 i
b111111111 t
b1110 {
1|
#980000
0!
0|
#985000
1!
b1111 #!
b1111 &
b11100010111 >
0B
b10 F
0I
b1 J
b110010 L
b11001 P
b11100010111 X
b111111111 r
b11111111xxxxxxxxx t
b111111111 w
b1111 {
1|
#990000
0!
0|
#995000
1!
b0 #!
b110 $!
b0 &
b110 '
b100001110000 >
b10 F
b10 J
b11001 R
b100001110000 X
b11111111xxxxxxxxx r
b11111111xxxxxxxxx w
b110 z
b0 {
1|
#1000000
0!
0|
#1005000
1!
b1 #!
b1 &
b100001110001 >
1D
b10 F
b0 J
b100001110001 X
b1 {
1|
#1010000
0!
0|
#1015000
1!
b10 #!
b10 &
b1 *
b100001110010 >
0D
b10 F
b100001110010 X
b10 {
1|
#1020000
0!
0|
#1025000
1!
b11 #!
b11 &
b10 *
b1011 6
b100001110011 >
b100001111011 ?
1B
b10 F
b1011 G
1I
b100001110011 X
b100001111011 i
b11 {
1|
#1030000
0!
0|
#1035000
1!
b100 #!
b100 &
b100001110100 >
0B
b10 F
0I
b1 J
b110111 L
b11110 P
b100001110100 X
b100 {
1|
#1040000
0!
0|
#1045000
1!
b101 #!
b101 &
b100001110101 >
b10 F
b10 J
b11110 R
0U
b100001110101 X
b101 {
1|
#1050000
0!
0|
#1055000
1!
b110 #!
b110 &
b100001110110 >
1D
b10 F
b0 J
b100001110110 X
b110 {
1|
#1060000
0!
0|
#1065000
1!
b111 #!
b111 &
b1 *
b100001110111 >
0D
b10 F
b100001110111 X
b111 {
1|
#1070000
0!
0|
#1075000
1!
b1000 #!
b1000 &
b10 *
b101 6
b111 7
b100001111000 >
b100111011101 ?
1B
b10 F
b101 G
b111 H
1I
b100001111000 X
b100111011101 i
b1000 {
1|
#1080000
0!
0|
#1085000
1!
b1001 #!
b1001 &
b100001111001 >
0B
b10 F
0I
b1 J
b11001 L
b11111111111011101 N
b0 P
b11111111111110110 Q
b100001111001 X
b1001 {
1|
#1090000
0!
0|
#1095000
1!
b1010 #!
b1010 &
b100001111010 >
b10 F
b10 J
b0 R
b1010 S
1U
b100001111010 X
b1010 {
1|
#1100000
0!
0|
#1105000
1!
b1011 #!
b1011 &
b100001111011 >
1C
1D
b10 F
b0 J
b100001111011 X
b1011 {
1|
#1110000
0!
0|
#1115000
1!
b1100 #!
b1100 &
b1 *
b100111011101 ,
b100001111100 >
b100111011101 @
b100111011101 A
0C
0D
b10 F
b100111011101 W
b100001111100 X
b100111011101 h
b1100 {
1|
#1120000
0!
0|
#1125000
1!
b1101 #!
b1101 &
b10 *
b110 6
b100001111101 >
b100111011110 ?
1B
b10 F
b110 G
1I
b100001111101 X
b100111011110 i
b111111111 t
b1101 {
1|
#1130000
0!
0|
#1135000
1!
b1110 #!
b1110 &
b100001111110 >
0B
b10 F
0I
b1 J
b11110 L
b101 P
b100001111110 X
b111111111 r
b11111111xxxxxxxxx t
b111111111 w
b1110 {
1|
#1140000
0!
0|
#1145000
1!
b1111 #!
b1111 &
b100001111111 >
b10 F
b10 J
b101 R
b100001111111 X
b11111111xxxxxxxxx r
b11111111xxxxxxxxx w
b1111 {
1|
#1150000
0!
0|
#1155000
1!
b0 #!
b111 $!
b0 &
b111 '
b100111011000 >
1C
1D
b10 F
b0 J
b100111011000 X
b111 z
b0 {
1|
#1160000
0!
0|
#1165000
1!
b1 #!
b1 &
b1 *
b100111011110 ,
b100111011001 >
b100111011110 @
b100111011110 A
0C
0D
b10 F
b100111011110 W
b100111011001 X
b100111011110 h
b1 {
1|
#1170000
0!
0|
#1175000
1!
b10 #!
b10 &
b10 *
b111 6
b100111011010 >
b100111011111 ?
1B
b10 F
b111 G
1I
b100111011010 X
b100111011111 i
b111111111 t
b10 {
1|
#1180000
0!
0|
#1185000
1!
b11 #!
b11 &
b100111011011 >
0B
b10 F
0I
b1 J
b100011 L
b1010 P
b100111011011 X
b111111111 r
b11111111xxxxxxxxx t
b111111111 w
b11 {
1|
#1190000
0!
0|
#1195000
1!
b100 #!
b100 &
b100111011100 >
b10 F
b10 J
b1010 R
b100111011100 X
b11111111xxxxxxxxx r
b11111111xxxxxxxxx w
b100 {
1|
#1200000
0!
0|
#1205000
1!
b101 #!
b101 &
b100111011101 >
1C
1D
b10 F
b0 J
b100111011101 X
b101 {
1|
#1210000
0!
0|
#1215000
1!
b110 #!
b110 &
b1 *
b100111011111 ,
b100111011110 >
b100111011111 @
b100111011111 A
0C
0D
b10 F
b100111011111 W
b100111011110 X
b100111011111 h
b110 {
1|
#1220000
0!
0|
#1225000
1!
b111 #!
b111 &
b10 *
b1000 6
b100111011111 >
b100111100000 ?
1B
b10 F
b1000 G
1I
b100111011111 X
b100111100000 i
b111111111 t
b111 {
1|
#1230000
0!
0|
#1235000
1!
b1000 #!
b1000 &
b100111100000 >
0B
b10 F
0I
b1 J
b101000 L
b1111 P
b100111100000 X
b111111111 r
b11111111xxxxxxxxx t
b111111111 w
b1000 {
1|
#1240000
0!
0|
#1245000
1!
b1001 #!
b1001 &
b100111100001 >
b10 F
b10 J
b1111 R
b100111100001 X
b11111111xxxxxxxxx r
b11111111xxxxxxxxx w
b1001 {
1|
#1250000
0!
0|
#1255000
1!
b1010 #!
b1010 &
b100111100010 >
1C
1D
b10 F
b0 J
b100111100010 X
b1010 {
1|
#1260000
0!
0|
#1265000
1!
b1011 #!
b1011 &
b1 *
b100111100000 ,
b100111100011 >
b100111100000 @
b100111100000 A
0C
0D
b10 F
b100111100000 W
b100111100011 X
b100111100000 h
b1011 {
1|
#1270000
0!
0|
#1275000
1!
b1100 #!
b1100 &
b10 *
b1001 6
b100111100100 >
b100111100001 ?
1B
b10 F
b1001 G
1I
b100111100100 X
b100111100001 i
b111111111 t
b1100 {
1|
#1280000
0!
0|
#1285000
1!
b1101 #!
b1101 &
b100111100101 >
0B
b10 F
0I
b1 J
b101101 L
b10100 P
b100111100101 X
b111111111 r
b11111111xxxxxxxxx t
b111111111 w
b1101 {
1|
#1290000
0!
0|
#1295000
1!
b1110 #!
b1110 &
b100111100110 >
b10 F
b10 J
b10100 R
b100111100110 X
b11111111xxxxxxxxx r
b11111111xxxxxxxxx w
b1110 {
1|
#1300000
0!
0|
#1305000
1!
b1111 #!
b1111 &
b100111100111 >
1D
b10 F
b0 J
b100111100111 X
b1111 {
1|
#1310000
0!
0|
#1315000
1!
b0 #!
b1000 $!
b0 &
b1000 '
b1 *
b101101000000 >
0D
b10 F
b101101000000 X
b1000 z
b0 {
1|
#1320000
0!
0|
