dump.vcd
$date
   Thu Nov 30 18:47:17 2023
$end
$version
  2023.1
$end
$timescale
  1ps
$end
$scope module recorder_tb $end
$var reg 1 h clk $end
$var reg 1 i rst $end
$var reg 1 j valid_tri $end
$var reg 1 k obj_done $end
$var reg 1 l new_frame $end
$var reg 6 m hcount_in [5:0] $end
$var reg 6 n vcount_in [5:0] $end
$var reg 8 ( color [7:0] $end
$var parameter 32 o W [31:0] $end
$var parameter 32 p H [31:0] $end
$scope module uut $end
$var wire 1 ! clk_in $end
$var wire 1 " rst_in $end
$var wire 1 # valid_tri $end
$var wire 1 $ obj_done $end
$var wire 1 % new_frame $end
$var wire 6 & hcount [5:0] $end
$var wire 6 ' vcount [5:0] $end
$var reg 8 ( color [7:0] $end
$var reg 32 ) state $end
$var reg 1 * buf_sel $end
$var reg 17 + write_addr [16:0] $end
$var reg 17 , write_in [16:0] $end
$var reg 1 - wea0 $end
$var reg 1 . wea1 $end
$var reg 17 / read_out_w [16:0] $end
$var reg 9 0 x_max [8:0] $end
$var reg 9 1 x_min [8:0] $end
$var reg 9 2 y_max [8:0] $end
$var reg 9 3 y_min [8:0] $end
$var reg 9 4 x_iter [8:0] $end
$var reg 9 5 y_iter [8:0] $end
$var reg 9 6 depth [8:0] $end
$var reg 1 7 tp_valid_out $end
$var reg 1 8 valid_r $end
$var reg 16 9 buffer_in0 [15:0] $end
$var reg 16 : buffer_in1 [15:0] $end
$var reg 8 ; color_val [7:0] $end
$var reg 17 < read_out0 [16:0] $end
$var reg 17 = read_out1 [16:0] $end
$var reg 8 > read_out [7:0] $end
$var reg 17 ? read_addr0 [16:0] $end
$var reg 17 @ read_addr1 [16:0] $end
$var wire 1 A in_tri $end
$scope module z_buffer0 $end
$var wire 12 B addra [11:0] $end
$var wire 12 C addrb [11:0] $end
$var wire 17 D dina [16:0] $end
$var wire 17 E dinb [16:0] $end
$var wire 1 ! clka $end
$var wire 1 ! clkb $end
$var wire 1 F wea $end
$var wire 1 G web $end
$var wire 1 H ena $end
$var wire 1 I enb $end
$var wire 1 " rsta $end
$var wire 1 " rstb $end
$var wire 1 J regcea $end
$var wire 1 K regceb $end
$var wire 17 L douta [16:0] $end
$var wire 17 M doutb [16:0] $end
$var reg 17 N ram_data_a [16:0] $end
$var reg 17 O ram_data_b [16:0] $end
$var integer 32 P \init_bram_to_zero.ram_index  [31:0] $end
$var integer 32 Q idx [31:0] $end
$var reg 17 R \output_register.douta_reg  [16:0] $end
$var reg 17 S \output_register.doutb_reg  [16:0] $end
$upscope $end
$scope module z_buffer1 $end
$var wire 12 T addra [11:0] $end
$var wire 12 U addrb [11:0] $end
$var wire 17 V dina [16:0] $end
$var wire 17 W dinb [16:0] $end
$var wire 1 ! clka $end
$var wire 1 ! clkb $end
$var wire 1 X wea $end
$var wire 1 Y web $end
$var wire 1 Z ena $end
$var wire 1 [ enb $end
$var wire 1 " rsta $end
$var wire 1 " rstb $end
$var wire 1 \ regcea $end
$var wire 1 ] regceb $end
$var wire 17 ^ douta [16:0] $end
$var wire 17 _ doutb [16:0] $end
$var reg 17 ` ram_data_a [16:0] $end
$var reg 17 a ram_data_b [16:0] $end
$var integer 32 b \init_bram_to_zero.ram_index  [31:0] $end
$var integer 32 c idx [31:0] $end
$var reg 17 d \output_register.douta_reg  [16:0] $end
$var reg 17 e \output_register.doutb_reg  [16:0] $end
$upscope $end
$upscope $end
$scope begin Block49_18 $end
$var integer 32 f i [31:0] $end
$scope begin Block50_19 $end
$var integer 32 g j [31:0] $end
$upscope $end
$upscope $end
$upscope $end
$enddefinitions $end
#0
$dumpvars
0!
0"
x#
x$
x%
bx &
bx '
bx (
b0 )
x*
bx +
bx ,
x-
x.
b0 /
b1000000 0
b0 1
b1000000 2
b0 3
bx 4
bx 5
b0 6
x7
x8
bx 9
bx :
bx ;
b0 <
b0 =
b0 >
bx ?
bx @
xA
bx B
bx C
bx D
bz E
xF
0G
1H
1I
1J
1K
b0 L
b0 M
b0 N
b0 O
b1000000000000 P
b1000000000000 Q
b0 R
b0 S
bx T
bx U
bx V
bz W
xX
0Y
1Z
1[
1\
1]
b0 ^
b0 _
b0 `
b0 a
b1000000000000 b
b1000000000000 c
b0 d
b0 e
bx f
bx g
0h
0i
xj
xk
xl
bx m
bx n
b1000000 o
b1000000 p
$end
#5000
1!
1"
b0 (
0*
0-
0.
b0 4
b0 5
b0 @
0A
0F
bx N
bx O
b0 U
0X
bx `
bx a
1h
1i
#10000
0!
0h
#15000
1!
0"
b0x (
bx /
bx <
bx =
bx >
bx L
bx M
bx R
bx S
bx ^
bx _
b0 a
bx d
bx e
1h
0i
#20000
0!
0h
#25000
1!
b0 &
b0 '
b0 (
b0 /
b0 =
b0 ?
b0 C
b0 O
b0 _
b0 e
b0 f
b0 g
1h
b0 m
b0 n
#30000
0!
0h
#35000
1!
b1 '
b0 <
b0 >
b1000000 ?
b1000000 C
b0 M
b0 S
b1 g
1h
b1 n
#40000
0!
0h
#45000
1!
b10 '
b0x (
b10000000 ?
b10000000 C
b10 g
1h
b10 n
#50000
0!
0h
#55000
1!
b11 '
b11000000 ?
b11000000 C
b11 g
1h
b11 n
#60000
0!
0h
#65000
1!
b100 '
b0 (
b100000000 ?
b100000000 C
b100 g
1h
b100 n
#70000
0!
0h
#75000
1!
b101 '
b101000000 ?
b101000000 C
b101 g
1h
b101 n
#80000
0!
0h
#85000
1!
b110 '
b110000000 ?
b110000000 C
b110 g
1h
b110 n
#90000
0!
0h
#95000
1!
b111 '
b111000000 ?
b111000000 C
b111 g
1h
b111 n
#100000
0!
0h
#105000
1!
b1000 '
b1000000000 ?
b1000000000 C
b1000 g
1h
b1000 n
#110000
0!
0h
#115000
1!
b1001 '
b1001000000 ?
b1001000000 C
b1001 g
1h
b1001 n
#120000
0!
0h
#125000
1!
b1010 '
b1010000000 ?
b1010000000 C
b1010 g
1h
b1010 n
#130000
0!
0h
#135000
1!
b1011 '
b1011000000 ?
b1011000000 C
b1011 g
1h
b1011 n
#140000
0!
0h
#145000
1!
b1100 '
b1100000000 ?
b1100000000 C
b1100 g
1h
b1100 n
#150000
0!
0h
#155000
1!
b1101 '
b1101000000 ?
b1101000000 C
b1101 g
1h
b1101 n
#160000
0!
0h
#165000
1!
b1110 '
b1110000000 ?
b1110000000 C
b1110 g
1h
b1110 n
#170000
0!
0h
#175000
1!
b1111 '
b1111000000 ?
b1111000000 C
b1111 g
1h
b1111 n
#180000
0!
0h
#185000
1!
b10000 '
b10000000000 ?
b10000000000 C
b10000 g
1h
b10000 n
#190000
0!
0h
#195000
1!
b10001 '
b10001000000 ?
b10001000000 C
b10001 g
1h
b10001 n
#200000
0!
0h
#205000
1!
b10010 '
b10010000000 ?
b10010000000 C
b10010 g
1h
b10010 n
#210000
0!
0h
#215000
1!
b10011 '
b10011000000 ?
b10011000000 C
b10011 g
1h
b10011 n
#220000
0!
0h
#225000
1!
b10100 '
b10100000000 ?
b10100000000 C
b10100 g
1h
b10100 n
#230000
0!
0h
#235000
1!
b10101 '
b10101000000 ?
b10101000000 C
b10101 g
1h
b10101 n
#240000
0!
0h
#245000
1!
b10110 '
b10110000000 ?
b10110000000 C
b10110 g
1h
b10110 n
#250000
0!
0h
#255000
1!
b10111 '
b10111000000 ?
b10111000000 C
b10111 g
1h
b10111 n
#260000
0!
0h
#265000
1!
b11000 '
b11000000000 ?
b11000000000 C
b11000 g
1h
b11000 n
#270000
0!
0h
#275000
1!
b11001 '
b11001000000 ?
b11001000000 C
b11001 g
1h
b11001 n
#280000
0!
0h
#285000
1!
b11010 '
b11010000000 ?
b11010000000 C
b11010 g
1h
b11010 n
#290000
0!
0h
#295000
1!
b11011 '
b11011000000 ?
b11011000000 C
b11011 g
1h
b11011 n
#300000
0!
0h
#305000
1!
b11100 '
b11100000000 ?
b11100000000 C
b11100 g
1h
b11100 n
#310000
0!
0h
#315000
1!
b11101 '
b11101000000 ?
b11101000000 C
b11101 g
1h
b11101 n
#320000
0!
0h
#325000
1!
b11110 '
b11110000000 ?
b11110000000 C
b11110 g
1h
b11110 n
#330000
0!
0h
#335000
1!
b11111 '
b11111000000 ?
b11111000000 C
b11111 g
1h
b11111 n
#340000
0!
0h
#345000
1!
b100000 '
b100000000000 ?
b100000000000 C
b100000 g
1h
b100000 n
#350000
0!
0h
#355000
1!
b100001 '
b100001000000 ?
b100001000000 C
b100001 g
1h
b100001 n
#360000
0!
0h
#365000
1!
b100010 '
b100010000000 ?
b100010000000 C
b100010 g
1h
b100010 n
#370000
0!
0h
#375000
1!
b100011 '
b100011000000 ?
b100011000000 C
b100011 g
1h
b100011 n
#380000
0!
0h
#385000
1!
b100100 '
b100100000000 ?
b100100000000 C
b100100 g
1h
b100100 n
#390000
0!
0h
#395000
1!
b100101 '
b100101000000 ?
b100101000000 C
b100101 g
1h
b100101 n
#400000
0!
0h
#405000
1!
b100110 '
b100110000000 ?
b100110000000 C
b100110 g
1h
b100110 n
#410000
0!
0h
#415000
1!
b100111 '
b100111000000 ?
b100111000000 C
b100111 g
1h
b100111 n
#420000
0!
0h
#425000
1!
b101000 '
b101000000000 ?
b101000000000 C
b101000 g
1h
b101000 n
#430000
0!
0h
#435000
1!
b101001 '
b101001000000 ?
b101001000000 C
b101001 g
1h
b101001 n
#440000
0!
0h
#445000
1!
b101010 '
b101010000000 ?
b101010000000 C
b101010 g
1h
b101010 n
#450000
0!
0h
#455000
1!
b101011 '
b101011000000 ?
b101011000000 C
b101011 g
1h
b101011 n
#460000
0!
0h
#465000
1!
b101100 '
b101100000000 ?
b101100000000 C
b101100 g
1h
b101100 n
#470000
0!
0h
#475000
1!
b101101 '
b101101000000 ?
b101101000000 C
b101101 g
1h
b101101 n
#480000
0!
0h
#485000
1!
b101110 '
b101110000000 ?
b101110000000 C
b101110 g
1h
b101110 n
#490000
0!
0h
#495000
1!
b101111 '
b101111000000 ?
b101111000000 C
b101111 g
1h
b101111 n
#500000
0!
0h
#505000
1!
b110000 '
b110000000000 ?
b110000000000 C
b110000 g
1h
b110000 n
#510000
0!
0h
#515000
1!
b110001 '
b110001000000 ?
b110001000000 C
b110001 g
1h
b110001 n
#520000
0!
0h
#525000
1!
b110010 '
b110010000000 ?
b110010000000 C
b110010 g
1h
b110010 n
#530000
0!
0h
#535000
1!
b110011 '
b110011000000 ?
b110011000000 C
b110011 g
1h
b110011 n
#540000
0!
0h
#545000
1!
b110100 '
b110100000000 ?
b110100000000 C
b110100 g
1h
b110100 n
#550000
0!
0h
#555000
1!
b110101 '
b110101000000 ?
b110101000000 C
b110101 g
1h
b110101 n
#560000
0!
0h
#565000
1!
b110110 '
b110110000000 ?
b110110000000 C
b110110 g
1h
b110110 n
#570000
0!
0h
#575000
1!
b110111 '
b110111000000 ?
b110111000000 C
b110111 g
1h
b110111 n
#580000
0!
0h
#585000
1!
b111000 '
b111000000000 ?
b111000000000 C
b111000 g
1h
b111000 n
#590000
0!
0h
#595000
1!
b111001 '
b111001000000 ?
b111001000000 C
b111001 g
1h
b111001 n
#600000
0!
0h
#605000
1!
b111010 '
b111010000000 ?
b111010000000 C
b111010 g
1h
b111010 n
#610000
0!
0h
#615000
1!
b111011 '
b111011000000 ?
b111011000000 C
b111011 g
1h
b111011 n
#620000
0!
0h
#625000
1!
b111100 '
b111100000000 ?
b111100000000 C
b111100 g
1h
b111100 n
#630000
0!
0h
#635000
1!
b111101 '
b111101000000 ?
b111101000000 C
b111101 g
1h
b111101 n
#640000
0!
0h
#645000
1!
b111110 '
b111110000000 ?
b111110000000 C
b111110 g
1h
b111110 n
#650000
0!
0h
#655000
1!
b111111 '
b111111000000 ?
b111111000000 C
b111111 g
1h
b111111 n
#660000
0!
0h
#665000
1!
b1 &
b0 '
b1 ?
b1 C
b1 f
b0 g
1h
b1 m
b0 n
#670000
0!
0h
#675000
1!
b1 '
b1000001 ?
b1000001 C
b1 g
1h
b1 n
#680000
0!
0h
#685000
1!
b10 '
b10000001 ?
b10000001 C
b10 g
1h
b10 n
#690000
0!
0h
#695000
1!
b11 '
b11000001 ?
b11000001 C
b11 g
1h
b11 n
#700000
0!
0h
#705000
1!
b100 '
b100000001 ?
b100000001 C
b100 g
1h
b100 n
#710000
0!
0h
#715000
1!
b101 '
b101000001 ?
b101000001 C
b101 g
1h
b101 n
#720000
0!
0h
#725000
1!
b110 '
b110000001 ?
b110000001 C
b110 g
1h
b110 n
#730000
0!
0h
#735000
1!
b111 '
b111000001 ?
b111000001 C
b111 g
1h
b111 n
#740000
0!
0h
#745000
1!
b1000 '
b1000000001 ?
b1000000001 C
b1000 g
1h
b1000 n
#750000
0!
0h
#755000
1!
b1001 '
b1001000001 ?
b1001000001 C
b1001 g
1h
b1001 n
#760000
0!
0h
#765000
1!
b1010 '
b1010000001 ?
b1010000001 C
b1010 g
1h
b1010 n
#770000
0!
0h
#775000
1!
b1011 '
b1011000001 ?
b1011000001 C
b1011 g
1h
b1011 n
#780000
0!
0h
#785000
1!
b1100 '
b1100000001 ?
b1100000001 C
b1100 g
1h
b1100 n
#790000
0!
0h
#795000
1!
b1101 '
b1101000001 ?
b1101000001 C
b1101 g
1h
b1101 n
#800000
0!
0h
#805000
1!
b1110 '
b1110000001 ?
b1110000001 C
b1110 g
1h
b1110 n
#810000
0!
0h
#815000
1!
b1111 '
b1111000001 ?
b1111000001 C
b1111 g
1h
b1111 n
#820000
0!
0h
#825000
1!
b10000 '
b10000000001 ?
b10000000001 C
b10000 g
1h
b10000 n
#830000
0!
0h
#835000
1!
b10001 '
b10001000001 ?
b10001000001 C
b10001 g
1h
b10001 n
#840000
0!
0h
#845000
1!
b10010 '
b10010000001 ?
b10010000001 C
b10010 g
1h
b10010 n
#850000
0!
0h
#855000
1!
b10011 '
b10011000001 ?
b10011000001 C
b10011 g
1h
b10011 n
#860000
0!
0h
#865000
1!
b10100 '
b10100000001 ?
b10100000001 C
b10100 g
1h
b10100 n
#870000
0!
0h
#875000
1!
b10101 '
b10101000001 ?
b10101000001 C
b10101 g
1h
b10101 n
#880000
0!
0h
#885000
1!
b10110 '
b10110000001 ?
b10110000001 C
b10110 g
1h
b10110 n
#890000
0!
0h
#895000
1!
b10111 '
b10111000001 ?
b10111000001 C
b10111 g
1h
b10111 n
#900000
0!
0h
#905000
1!
b11000 '
b11000000001 ?
b11000000001 C
b11000 g
1h
b11000 n
#910000
0!
0h
#915000
1!
b11001 '
b11001000001 ?
b11001000001 C
b11001 g
1h
b11001 n
#920000
0!
0h
#925000
1!
b11010 '
b11010000001 ?
b11010000001 C
b11010 g
1h
b11010 n
#930000
0!
0h
#935000
1!
b11011 '
b11011000001 ?
b11011000001 C
b11011 g
1h
b11011 n
#940000
0!
0h
#945000
1!
b11100 '
b11100000001 ?
b11100000001 C
b11100 g
1h
b11100 n
#950000
0!
0h
#955000
1!
b11101 '
b11101000001 ?
b11101000001 C
b11101 g
1h
b11101 n
#960000
0!
0h
#965000
1!
b11110 '
b11110000001 ?
b11110000001 C
b11110 g
1h
b11110 n
#970000
0!
0h
#975000
1!
b11111 '
b11111000001 ?
b11111000001 C
b11111 g
1h
b11111 n
#980000
0!
0h
#985000
1!
b100000 '
b100000000001 ?
b100000000001 C
b100000 g
1h
b100000 n
#990000
0!
0h
#995000
1!
b100001 '
b100001000001 ?
b100001000001 C
b100001 g
1h
b100001 n
#1000000
0!
0h
#1005000
1!
b100010 '
b100010000001 ?
b100010000001 C
b100010 g
1h
b100010 n
#1010000
0!
0h
#1015000
1!
b100011 '
b100011000001 ?
b100011000001 C
b100011 g
1h
b100011 n
#1020000
0!
0h
#1025000
1!
b100100 '
b100100000001 ?
b100100000001 C
b100100 g
1h
b100100 n
#1030000
0!
0h
#1035000
1!
b100101 '
b100101000001 ?
b100101000001 C
b100101 g
1h
b100101 n
#1040000
0!
0h
#1045000
1!
b100110 '
b100110000001 ?
b100110000001 C
b100110 g
1h
b100110 n
#1050000
0!
0h
#1055000
1!
b100111 '
b100111000001 ?
b100111000001 C
b100111 g
1h
b100111 n
#1060000
0!
0h
#1065000
1!
b101000 '
b101000000001 ?
b101000000001 C
b101000 g
1h
b101000 n
#1070000
0!
0h
#1075000
1!
b101001 '
b101001000001 ?
b101001000001 C
b101001 g
1h
b101001 n
#1080000
0!
0h
#1085000
1!
b101010 '
b101010000001 ?
b101010000001 C
b101010 g
1h
b101010 n
#1090000
0!
0h
#1095000
1!
b101011 '
b101011000001 ?
b101011000001 C
b101011 g
1h
b101011 n
#1100000
0!
0h
#1105000
1!
b101100 '
b101100000001 ?
b101100000001 C
b101100 g
1h
b101100 n
#1110000
0!
0h
#1115000
1!
b101101 '
b101101000001 ?
b101101000001 C
b101101 g
1h
b101101 n
#1120000
0!
0h
#1125000
1!
b101110 '
b101110000001 ?
b101110000001 C
b101110 g
1h
b101110 n
#1130000
0!
0h
#1135000
1!
b101111 '
b101111000001 ?
b101111000001 C
b101111 g
1h
b101111 n
#1140000
0!
0h
#1145000
1!
b110000 '
b110000000001 ?
b110000000001 C
b110000 g
1h
b110000 n
#1150000
0!
0h
#1155000
1!
b110001 '
b110001000001 ?
b110001000001 C
b110001 g
1h
b110001 n
#1160000
0!
0h
#1165000
1!
b110010 '
b110010000001 ?
b110010000001 C
b110010 g
1h
b110010 n
#1170000
0!
0h
#1175000
1!
b110011 '
b110011000001 ?
b110011000001 C
b110011 g
1h
b110011 n
#1180000
0!
0h
#1185000
1!
b110100 '
b110100000001 ?
b110100000001 C
b110100 g
1h
b110100 n
#1190000
0!
0h
#1195000
1!
b110101 '
b110101000001 ?
b110101000001 C
b110101 g
1h
b110101 n
#1200000
0!
0h
#1205000
1!
b110110 '
b110110000001 ?
b110110000001 C
b110110 g
1h
b110110 n
#1210000
0!
0h
#1215000
1!
b110111 '
b110111000001 ?
b110111000001 C
b110111 g
1h
b110111 n
#1220000
0!
0h
#1225000
1!
b111000 '
b111000000001 ?
b111000000001 C
b111000 g
1h
b111000 n
#1230000
0!
0h
#1235000
1!
b111001 '
b111001000001 ?
b111001000001 C
b111001 g
1h
b111001 n
#1240000
0!
0h
#1245000
1!
b111010 '
b111010000001 ?
b111010000001 C
b111010 g
1h
b111010 n
#1250000
0!
0h
#1255000
1!
b111011 '
b111011000001 ?
b111011000001 C
b111011 g
1h
b111011 n
#1260000
0!
0h
#1265000
1!
b111100 '
b111100000001 ?
b111100000001 C
b111100 g
1h
b111100 n
#1270000
0!
0h
#1275000
1!
b111101 '
b111101000001 ?
b111101000001 C
b111101 g
1h
b111101 n
#1280000
0!
0h
#1285000
1!
b111110 '
b111110000001 ?
b111110000001 C
b111110 g
1h
b111110 n
#1290000
0!
0h
#1295000
1!
b111111 '
b111111000001 ?
b111111000001 C
b111111 g
1h
b111111 n
#1300000
0!
0h
#1305000
1!
b10 &
b0 '
b10 ?
b10 C
b10 f
b0 g
1h
b10 m
b0 n
#1310000
0!
0h
#1315000
1!
b1 '
b1000010 ?
b1000010 C
b1 g
1h
b1 n
#1320000
0!
0h
#1325000
1!
b10 '
b10000010 ?
b10000010 C
b10 g
1h
b10 n
#1330000
0!
0h
#1335000
1!
b11 '
b11000010 ?
b11000010 C
b11 g
1h
b11 n
#1340000
0!
0h
#1345000
1!
b100 '
b100000010 ?
b100000010 C
b100 g
1h
b100 n
#1350000
0!
0h
#1355000
1!
b101 '
b101000010 ?
b101000010 C
b101 g
1h
b101 n
#1360000
0!
0h
#1365000
1!
b110 '
b110000010 ?
b110000010 C
b110 g
1h
b110 n
#1370000
0!
0h
#1375000
1!
b111 '
b111000010 ?
b111000010 C
b111 g
1h
b111 n
#1380000
0!
0h
#1385000
1!
b1000 '
b1000000010 ?
b1000000010 C
b1000 g
1h
b1000 n
#1390000
0!
0h
#1395000
1!
b1001 '
b1001000010 ?
b1001000010 C
b1001 g
1h
b1001 n
#1400000
0!
0h
#1405000
1!
b1010 '
b1010000010 ?
b1010000010 C
b1010 g
1h
b1010 n
#1410000
0!
0h
#1415000
1!
b1011 '
b1011000010 ?
b1011000010 C
b1011 g
1h
b1011 n
#1420000
0!
0h
#1425000
1!
b1100 '
b1100000010 ?
b1100000010 C
b1100 g
1h
b1100 n
#1430000
0!
0h
#1435000
1!
b1101 '
b1101000010 ?
b1101000010 C
b1101 g
1h
b1101 n
#1440000
0!
0h
#1445000
1!
b1110 '
b1110000010 ?
b1110000010 C
b1110 g
1h
b1110 n
#1450000
0!
0h
#1455000
1!
b1111 '
b1111000010 ?
b1111000010 C
b1111 g
1h
b1111 n
#1460000
0!
0h
#1465000
1!
b10000 '
b10000000010 ?
b10000000010 C
b10000 g
1h
b10000 n
#1470000
0!
0h
#1475000
1!
b10001 '
b10001000010 ?
b10001000010 C
b10001 g
1h
b10001 n
#1480000
0!
0h
#1485000
1!
b10010 '
b10010000010 ?
b10010000010 C
b10010 g
1h
b10010 n
#1490000
0!
0h
#1495000
1!
b10011 '
b10011000010 ?
b10011000010 C
b10011 g
1h
b10011 n
#1500000
0!
0h
#1505000
1!
b10100 '
b10100000010 ?
b10100000010 C
b10100 g
1h
b10100 n
#1510000
0!
0h
#1515000
1!
b10101 '
b10101000010 ?
b10101000010 C
b10101 g
1h
b10101 n
#1520000
0!
0h
#1525000
1!
b10110 '
b10110000010 ?
b10110000010 C
b10110 g
1h
b10110 n
#1530000
0!
0h
#1535000
1!
b10111 '
b10111000010 ?
b10111000010 C
b10111 g
1h
b10111 n
#1540000
0!
0h
#1545000
1!
b11000 '
b11000000010 ?
b11000000010 C
b11000 g
1h
b11000 n
#1550000
0!
0h
#1555000
1!
b11001 '
b11001000010 ?
b11001000010 C
b11001 g
1h
b11001 n
#1560000
0!
0h
#1565000
1!
b11010 '
b11010000010 ?
b11010000010 C
b11010 g
1h
b11010 n
#1570000
0!
0h
#1575000
1!
b11011 '
b11011000010 ?
b11011000010 C
b11011 g
1h
b11011 n
#1580000
0!
0h
#1585000
1!
b11100 '
b11100000010 ?
b11100000010 C
b11100 g
1h
b11100 n
#1590000
0!
0h
#1595000
1!
b11101 '
b11101000010 ?
b11101000010 C
b11101 g
1h
b11101 n
#1600000
0!
0h
#1605000
1!
b11110 '
b11110000010 ?
b11110000010 C
b11110 g
1h
b11110 n
#1610000
0!
0h
#1615000
1!
b11111 '
b11111000010 ?
b11111000010 C
b11111 g
1h
b11111 n
#1620000
0!
0h
#1625000
1!
b100000 '
b100000000010 ?
b100000000010 C
b100000 g
1h
b100000 n
#1630000
0!
0h
#1635000
1!
b100001 '
b100001000010 ?
b100001000010 C
b100001 g
1h
b100001 n
#1640000
0!
0h
#1645000
1!
b100010 '
b100010000010 ?
b100010000010 C
b100010 g
1h
b100010 n
#1650000
0!
0h
#1655000
1!
b100011 '
b100011000010 ?
b100011000010 C
b100011 g
1h
b100011 n
#1660000
0!
0h
#1665000
1!
b100100 '
b100100000010 ?
b100100000010 C
b100100 g
1h
b100100 n
#1670000
0!
0h
#1675000
1!
b100101 '
b100101000010 ?
b100101000010 C
b100101 g
1h
b100101 n
#1680000
0!
0h
#1685000
1!
b100110 '
b100110000010 ?
b100110000010 C
b100110 g
1h
b100110 n
#1690000
0!
0h
#1695000
1!
b100111 '
b100111000010 ?
b100111000010 C
b100111 g
1h
b100111 n
#1700000
0!
0h
#1705000
1!
b101000 '
b101000000010 ?
b101000000010 C
b101000 g
1h
b101000 n
#1710000
0!
0h
#1715000
1!
b101001 '
b101001000010 ?
b101001000010 C
b101001 g
1h
b101001 n
#1720000
0!
0h
#1725000
1!
b101010 '
b101010000010 ?
b101010000010 C
b101010 g
1h
b101010 n
#1730000
0!
0h
#1735000
1!
b101011 '
b101011000010 ?
b101011000010 C
b101011 g
1h
b101011 n
#1740000
0!
0h
#1745000
1!
b101100 '
b101100000010 ?
b101100000010 C
b101100 g
1h
b101100 n
#1750000
0!
0h
#1755000
1!
b101101 '
b101101000010 ?
b101101000010 C
b101101 g
1h
b101101 n
#1760000
0!
0h
#1765000
1!
b101110 '
b101110000010 ?
b101110000010 C
b101110 g
1h
b101110 n
#1770000
0!
0h
#1775000
1!
b101111 '
b101111000010 ?
b101111000010 C
b101111 g
1h
b101111 n
#1780000
0!
0h
#1785000
1!
b110000 '
b110000000010 ?
b110000000010 C
b110000 g
1h
b110000 n
#1790000
0!
0h
#1795000
1!
b110001 '
b110001000010 ?
b110001000010 C
b110001 g
1h
b110001 n
#1800000
0!
0h
#1805000
1!
b110010 '
b110010000010 ?
b110010000010 C
b110010 g
1h
b110010 n
#1810000
0!
0h
#1815000
1!
b110011 '
b110011000010 ?
b110011000010 C
b110011 g
1h
b110011 n
#1820000
0!
0h
#1825000
1!
b110100 '
b110100000010 ?
b110100000010 C
b110100 g
1h
b110100 n
#1830000
0!
0h
#1835000
1!
b110101 '
b110101000010 ?
b110101000010 C
b110101 g
1h
b110101 n
#1840000
0!
0h
#1845000
1!
b110110 '
b110110000010 ?
b110110000010 C
b110110 g
1h
b110110 n
#1850000
0!
0h
#1855000
1!
b110111 '
b110111000010 ?
b110111000010 C
b110111 g
1h
b110111 n
#1860000
0!
0h
#1865000
1!
b111000 '
b111000000010 ?
b111000000010 C
b111000 g
1h
b111000 n
#1870000
0!
0h
#1875000
1!
b111001 '
b111001000010 ?
b111001000010 C
b111001 g
1h
b111001 n
#1880000
0!
0h
#1885000
1!
b111010 '
b111010000010 ?
b111010000010 C
b111010 g
1h
b111010 n
#1890000
0!
0h
#1895000
1!
b111011 '
b111011000010 ?
b111011000010 C
b111011 g
1h
b111011 n
#1900000
0!
0h
#1905000
1!
b111100 '
b111100000010 ?
b111100000010 C
b111100 g
1h
b111100 n
#1910000
0!
0h
#1915000
1!
b111101 '
b111101000010 ?
b111101000010 C
b111101 g
1h
b111101 n
#1920000
0!
0h
#1925000
1!
b111110 '
b111110000010 ?
b111110000010 C
b111110 g
1h
b111110 n
#1930000
0!
0h
#1935000
1!
b111111 '
b111111000010 ?
b111111000010 C
b111111 g
1h
b111111 n
#1940000
0!
0h
#1945000
1!
b11 &
b0 '
b11 ?
b11 C
b11 f
b0 g
1h
b11 m
b0 n
#1950000
0!
0h
#1955000
1!
b1 '
b1000011 ?
b1000011 C
b1 g
1h
b1 n
#1960000
0!
0h
#1965000
1!
b10 '
b10000011 ?
b10000011 C
b10 g
1h
b10 n
#1970000
0!
0h
#1975000
1!
b11 '
b11000011 ?
b11000011 C
b11 g
1h
b11 n
#1980000
0!
0h
#1985000
1!
b100 '
b100000011 ?
b100000011 C
b100 g
1h
b100 n
#1990000
0!
0h
#1995000
1!
b101 '
b101000011 ?
b101000011 C
b101 g
1h
b101 n
#2000000
0!
0h
#2005000
1!
b110 '
b110000011 ?
b110000011 C
b110 g
1h
b110 n
#2010000
0!
0h
#2015000
1!
b111 '
b111000011 ?
b111000011 C
b111 g
1h
b111 n
#2020000
0!
0h
#2025000
1!
b1000 '
b1000000011 ?
b1000000011 C
b1000 g
1h
b1000 n
#2030000
0!
0h
#2035000
1!
b1001 '
b1001000011 ?
b1001000011 C
b1001 g
1h
b1001 n
#2040000
0!
0h
#2045000
1!
b1010 '
b1010000011 ?
b1010000011 C
b1010 g
1h
b1010 n
#2050000
0!
0h
#2055000
1!
b1011 '
b1011000011 ?
b1011000011 C
b1011 g
1h
b1011 n
#2060000
0!
0h
#2065000
1!
b1100 '
b1100000011 ?
b1100000011 C
b1100 g
1h
b1100 n
#2070000
0!
0h
#2075000
1!
b1101 '
b1101000011 ?
b1101000011 C
b1101 g
1h
b1101 n
#2080000
0!
0h
#2085000
1!
b1110 '
b1110000011 ?
b1110000011 C
b1110 g
1h
b1110 n
#2090000
0!
0h
#2095000
1!
b1111 '
b1111000011 ?
b1111000011 C
b1111 g
1h
b1111 n
#2100000
0!
0h
#2105000
1!
b10000 '
b10000000011 ?
b10000000011 C
b10000 g
1h
b10000 n
#2110000
0!
0h
#2115000
1!
b10001 '
b10001000011 ?
b10001000011 C
b10001 g
1h
b10001 n
#2120000
0!
0h
#2125000
1!
b10010 '
b10010000011 ?
b10010000011 C
b10010 g
1h
b10010 n
#2130000
0!
0h
#2135000
1!
b10011 '
b10011000011 ?
b10011000011 C
b10011 g
1h
b10011 n
#2140000
0!
0h
#2145000
1!
b10100 '
b10100000011 ?
b10100000011 C
b10100 g
1h
b10100 n
#2150000
0!
0h
#2155000
1!
b10101 '
b10101000011 ?
b10101000011 C
b10101 g
1h
b10101 n
#2160000
0!
0h
#2165000
1!
b10110 '
b10110000011 ?
b10110000011 C
b10110 g
1h
b10110 n
#2170000
0!
0h
#2175000
1!
b10111 '
b10111000011 ?
b10111000011 C
b10111 g
1h
b10111 n
#2180000
0!
0h
#2185000
1!
b11000 '
b11000000011 ?
b11000000011 C
b11000 g
1h
b11000 n
#2190000
0!
0h
#2195000
1!
b11001 '
b11001000011 ?
b11001000011 C
b11001 g
1h
b11001 n
#2200000
0!
0h
#2205000
1!
b11010 '
b11010000011 ?
b11010000011 C
b11010 g
1h
b11010 n
#2210000
0!
0h
#2215000
1!
b11011 '
b11011000011 ?
b11011000011 C
b11011 g
1h
b11011 n
#2220000
0!
0h
#2225000
1!
b11100 '
b11100000011 ?
b11100000011 C
b11100 g
1h
b11100 n
#2230000
0!
0h
#2235000
1!
b11101 '
b11101000011 ?
b11101000011 C
b11101 g
1h
b11101 n
#2240000
0!
0h
#2245000
1!
b11110 '
b11110000011 ?
b11110000011 C
b11110 g
1h
b11110 n
#2250000
0!
0h
#2255000
1!
b11111 '
b11111000011 ?
b11111000011 C
b11111 g
1h
b11111 n
#2260000
0!
0h
#2265000
1!
b100000 '
b100000000011 ?
b100000000011 C
b100000 g
1h
b100000 n
#2270000
0!
0h
#2275000
1!
b100001 '
b100001000011 ?
b100001000011 C
b100001 g
1h
b100001 n
#2280000
0!
0h
