dump.vcd
$date
   Tue Dec  5 04:30:25 2023
$end
$version
  2023.1
$end
$timescale
  1ps
$end
$scope module rasterizer_tb $end
$var reg 1 w clk $end
$var reg 1 x rst $end
$var reg 1 y valid_tri $end
$var reg 1 z obj_done $end
$var reg 1 { new_frame $end
$var reg 6 | hcount_in [5:0] $end
$var reg 6 } vcount_in [5:0] $end
$var reg 8 ( color [7:0] $end
$var parameter 32 ~ W [31:0] $end
$var parameter 32 !! H [31:0] $end
$scope module uut $end
$var wire 1 ! clk_in $end
$var wire 1 " rst_in $end
$var wire 1 # valid_tri $end
$var wire 1 $ obj_done $end
$var wire 1 % new_frame $end
$var wire 10 & hcount [9:0] $end
$var wire 10 ' vcount [9:0] $end
$var reg 8 ( color [7:0] $end
$var reg 32 ) state $end
$var reg 1 * buf_sel $end
$var reg 17 + write_addr [16:0] $end
$var reg 17 , write_in [16:0] $end
$var reg 1 - wea0 $end
$var reg 1 . wea1 $end
$var reg 9 / read_out_w [8:0] $end
$var reg 9 0 x_max [8:0] $end
$var reg 9 1 x_min [8:0] $end
$var reg 9 2 y_max [8:0] $end
$var reg 9 3 y_min [8:0] $end
$var reg 9 4 x_iter [8:0] $end
$var reg 9 5 y_iter [8:0] $end
$var reg 9 6 depth [8:0] $end
$var reg 1 7 valid_r $end
$var reg 16 8 buffer_in0 [15:0] $end
$var reg 16 9 buffer_in1 [15:0] $end
$var reg 8 : color_val [7:0] $end
$var reg 17 ; read_out0 [16:0] $end
$var reg 17 < read_out1 [16:0] $end
$var reg 8 = read_out [7:0] $end
$var reg 17 > read_addr0 [16:0] $end
$var reg 17 ? read_addr1 [16:0] $end
$var reg 1 @ in_tri_v_in $end
$var reg 1 A in_tri_out $end
$var reg 1 B in_tri_v_out $end
$scope module intri $end
$var wire 1 ! clk_in $end
$var wire 1 " rst_in $end
$var wire 9 C x [8:0] $end
$var wire 9 D y [8:0] $end
$var wire 1 E valid_in $end
$var reg 1 A in_tri $end
$var reg 1 B valid_out $end
$var reg 32 F state $end
$var reg 17 G detv1v2 [16:0] $end
$var reg 17 H detvv2 [16:0] $end
$var reg 17 I detv0v2 [16:0] $end
$var reg 17 J detvv1 [16:0] $end
$var reg 17 K detv0v1 [16:0] $end
$var reg 17 L a_num [16:0] $end
$var reg 17 M b_num [16:0] $end
$var reg 16 N a_raw [15:0] $end
$var reg 16 O b_raw [15:0] $end
$var reg 16 P det_raw [15:0] $end
$var reg 1 Q a $end
$var reg 1 R b $end
$upscope $end
$scope module z_buffer0 $end
$var wire 12 S addra [11:0] $end
$var wire 12 T addrb [11:0] $end
$var wire 17 U dina [16:0] $end
$var wire 17 V dinb [16:0] $end
$var wire 1 ! clka $end
$var wire 1 ! clkb $end
$var wire 1 W wea $end
$var wire 1 X web $end
$var wire 1 Y ena $end
$var wire 1 Z enb $end
$var wire 1 " rsta $end
$var wire 1 " rstb $end
$var wire 1 [ regcea $end
$var wire 1 \ regceb $end
$var wire 17 ] douta [16:0] $end
$var wire 17 ^ doutb [16:0] $end
$var reg 17 _ ram_data_a [16:0] $end
$var reg 17 ` ram_data_b [16:0] $end
$var integer 32 a \init_bram_to_zero.ram_index  [31:0] $end
$var integer 32 b idx [31:0] $end
$var reg 17 c \output_register.douta_reg  [16:0] $end
$var reg 17 d \output_register.doutb_reg  [16:0] $end
$upscope $end
$scope module z_buffer1 $end
$var wire 12 e addra [11:0] $end
$var wire 12 f addrb [11:0] $end
$var wire 17 g dina [16:0] $end
$var wire 17 h dinb [16:0] $end
$var wire 1 ! clka $end
$var wire 1 ! clkb $end
$var wire 1 i wea $end
$var wire 1 j web $end
$var wire 1 k ena $end
$var wire 1 l enb $end
$var wire 1 " rsta $end
$var wire 1 " rstb $end
$var wire 1 m regcea $end
$var wire 1 n regceb $end
$var wire 17 o douta [16:0] $end
$var wire 17 p doutb [16:0] $end
$var reg 17 q ram_data_a [16:0] $end
$var reg 17 r ram_data_b [16:0] $end
$var integer 32 s \init_bram_to_zero.ram_index  [31:0] $end
$var integer 32 t idx [31:0] $end
$var reg 17 u \output_register.douta_reg  [16:0] $end
$var reg 17 v \output_register.doutb_reg  [16:0] $end
$upscope $end
$upscope $end
$upscope $end
$enddefinitions $end
#0
$dumpvars
0!
b1000000 !!
0"
x#
x$
x%
bzxxxxxx &
bzxxxxxx '
bx (
b0 )
x*
bx +
bx ,
x-
x.
b0 /
b101000 0
b10100 1
b101000 2
b10100 3
bx 4
bx 5
bx 6
x7
bx 8
bx 9
bx :
b0 ;
b0 <
b0 =
bx >
bx ?
x@
xA
xB
bx C
bx D
xE
b0 F
bx G
bx H
bx I
bx J
bx K
bx L
bx M
bx N
bx O
bx P
xQ
xR
bx S
bx T
bx U
bz V
xW
0X
1Y
1Z
1[
1\
b0 ]
b0 ^
b0 _
b0 `
b1000000000000 a
b1000000000000 b
b0 c
b0 d
bx e
bx f
bx g
bz h
xi
0j
1k
1l
1m
1n
b0 o
b0 p
b0 q
b0 r
b1000000000000 s
b1000000000000 t
b0 u
b0 v
0w
0x
xy
xz
x{
bx |
bx }
b1000000 ~
$end
#5000
1!
1"
b0 (
0*
0-
0.
b10100 4
b10100 5
b10100010100 ?
0@
0A
0B
b10100 C
b10100 D
0E
0W
bx _
bx `
b10100010100 f
0i
bx q
bx r
1w
1x
#10000
0!
0w
#15000
1!
0"
1#
b0x (
b1 )
bx /
b10011 4
b10011 5
bx ;
bx <
bx =
b10011010011 ?
b10011 C
b10011 D
bx ]
bx ^
bx c
bx d
b10011010011 f
bx o
bx p
b0 r
bx u
bx v
1w
0x
1y
#20000
0!
0w
#25000
1!
b0 (
b10 )
b0 /
b10100 4
b0 <
b10011010100 ?
1@
b10100 C
1E
b10011010100 f
b0 p
b0 v
1w
#30000
0!
0w
#35000
1!
b1 F
b11111111001110000 G
b11111111010000100 H
b11111111001110000 I
b110010000 J
b110010000 K
b10100 L
b0 M
1w
#40000
0!
0w
#45000
1!
b0x (
b10 F
b10100 N
b0 O
b110010000 P
0Q
1R
1w
#50000
0!
0w
#55000
1!
1B
b0 F
1w
#60000
0!
0w
#65000
1!
b1 )
0@
0B
0E
b1 F
1w
#70000
0!
0w
#75000
1!
b10 )
b10101 4
b10011010101 ?
1@
b10101 C
1E
b10 F
b10011010101 f
1w
#80000
0!
0w
#85000
1!
1B
b0 F
1w
#90000
0!
0w
#95000
1!
b1 )
0@
0B
0E
b1 F
b110100100 J
b10100 M
1w
#100000
0!
0w
#105000
1!
b10 )
b10110 4
b10011010110 ?
1@
b10110 C
1E
b10 F
b10100 O
b10011010110 f
1w
#110000
0!
0w
#115000
1!
1B
b0 F
1w
#120000
0!
0w
#125000
1!
b1 )
0@
0B
0E
b1 F
b110111000 J
b101000 M
1w
#130000
0!
0w
#135000
1!
b10 )
b10111 4
b10011010111 ?
1@
b10111 C
1E
b10 F
b101000 O
b10011010111 f
1w
#140000
0!
0w
#145000
1!
1B
b0 F
1w
#150000
0!
0w
#155000
1!
b1 )
0@
0B
0E
b1 F
b111001100 J
b111100 M
1w
#160000
0!
0w
#165000
1!
b10 )
b11000 4
b10011011000 ?
1@
b11000 C
1E
b10 F
b111100 O
b10011011000 f
1w
#170000
0!
0w
#175000
1!
1B
b0 F
1w
#180000
0!
0w
#185000
1!
b1 )
0@
0B
0E
b1 F
b111100000 J
b1010000 M
1w
#190000
0!
0w
#195000
1!
b10 )
b11001 4
b10011011001 ?
1@
b11001 C
1E
b10 F
b1010000 O
b10011011001 f
1w
#200000
0!
0w
#205000
1!
1B
b0 F
1w
#210000
0!
0w
#215000
1!
b1 )
0@
0B
0E
b1 F
b111110100 J
b1100100 M
1w
#220000
0!
0w
#225000
1!
b10 )
b11010 4
b10011011010 ?
1@
b11010 C
1E
b10 F
b1100100 O
b10011011010 f
1w
#230000
0!
0w
#235000
1!
1B
b0 F
1w
#240000
0!
0w
#245000
1!
b1 )
0@
0B
0E
b1 F
b1000001000 J
b1111000 M
1w
#250000
0!
0w
#255000
1!
b10 )
b11011 4
b10011011011 ?
1@
b11011 C
1E
b10 F
b1111000 O
b10011011011 f
1w
#260000
0!
0w
#265000
1!
1B
b0 F
1w
#270000
0!
0w
#275000
1!
b1 )
0@
0B
0E
b1 F
b1000011100 J
b10001100 M
1w
#280000
0!
0w
#285000
1!
b10 )
b11100 4
b10011011100 ?
1@
b11100 C
1E
b10 F
b10001100 O
b10011011100 f
1w
#290000
0!
0w
#295000
1!
1B
b0 F
1w
#300000
0!
0w
#305000
1!
b1 )
0@
0B
0E
b1 F
b1000110000 J
b10100000 M
1w
#310000
0!
0w
#315000
1!
b10 )
b11101 4
b10011011101 ?
1@
b11101 C
1E
b10 F
b10100000 O
b10011011101 f
1w
#320000
0!
0w
#325000
1!
1B
b0 F
1w
#330000
0!
0w
#335000
1!
b1 )
0@
0B
0E
b1 F
b1001000100 J
b10110100 M
1w
#340000
0!
0w
#345000
1!
b10 )
b11110 4
b10011011110 ?
1@
b11110 C
1E
b10 F
b10110100 O
b10011011110 f
1w
#350000
0!
0w
#355000
1!
1B
b0 F
1w
#360000
0!
0w
#365000
1!
b1 )
0@
0B
0E
b1 F
b1001011000 J
b11001000 M
1w
#370000
0!
0w
#375000
1!
b10 )
b11111 4
b10011011111 ?
1@
b11111 C
1E
b10 F
b11001000 O
b10011011111 f
1w
#380000
0!
0w
#385000
1!
1B
b0 F
1w
#390000
0!
0w
#395000
1!
b1 )
0@
0B
0E
b1 F
b1001101100 J
b11011100 M
1w
#400000
0!
0w
#405000
1!
b10 )
b100000 4
b10011100000 ?
1@
b100000 C
1E
b10 F
b11011100 O
b10011100000 f
1w
#410000
0!
0w
#415000
1!
1B
b0 F
1w
#420000
0!
0w
#425000
1!
b1 )
0@
0B
0E
b1 F
b1010000000 J
b11110000 M
1w
#430000
0!
0w
#435000
1!
b10 )
b100001 4
b10011100001 ?
1@
b100001 C
1E
b10 F
b11110000 O
b10011100001 f
1w
#440000
0!
0w
#445000
1!
1B
b0 F
1w
#450000
0!
0w
#455000
1!
b1 )
0@
0B
0E
b1 F
b1010010100 J
b100000100 M
1w
#460000
0!
0w
#465000
1!
b10 )
b100010 4
b10011100010 ?
1@
b100010 C
1E
b10 F
b100000100 O
b10011100010 f
1w
#470000
0!
0w
#475000
1!
1B
b0 F
1w
#480000
0!
0w
#485000
1!
b1 )
0@
0B
0E
b1 F
b1010101000 J
b100011000 M
1w
#490000
0!
0w
#495000
1!
b10 )
b100011 4
b10011100011 ?
1@
b100011 C
1E
b10 F
b100011000 O
b10011100011 f
1w
#500000
0!
0w
#505000
1!
1B
b0 F
1w
#510000
0!
0w
#515000
1!
b1 )
0@
0B
0E
b1 F
b1010111100 J
b100101100 M
1w
#520000
0!
0w
#525000
1!
b10 )
b100100 4
b10011100100 ?
1@
b100100 C
1E
b10 F
b100101100 O
b10011100100 f
1w
#530000
0!
0w
#535000
1!
1B
b0 F
1w
#540000
0!
0w
#545000
1!
b1 )
0@
0B
0E
b1 F
b1011010000 J
b101000000 M
1w
#550000
0!
0w
#555000
1!
b10 )
b100101 4
b10011100101 ?
1@
b100101 C
1E
b10 F
b101000000 O
b10011100101 f
1w
#560000
0!
0w
#565000
1!
1B
b0 F
1w
#570000
0!
0w
#575000
1!
b1 )
0@
0B
0E
b1 F
b1011100100 J
b101010100 M
1w
#580000
0!
0w
#585000
1!
b10 )
b100110 4
b10011100110 ?
1@
b100110 C
1E
b10 F
b101010100 O
b10011100110 f
1w
#590000
0!
0w
#595000
1!
1B
b0 F
1w
#600000
0!
0w
#605000
1!
b1 )
0@
0B
0E
b1 F
b1011111000 J
b101101000 M
1w
#610000
0!
0w
#615000
1!
b10 )
b100111 4
b10011100111 ?
1@
b100111 C
1E
b10 F
b101101000 O
b10011100111 f
1w
#620000
0!
0w
#625000
1!
1B
b0 F
1w
#630000
0!
0w
#635000
1!
b1 )
0@
0B
0E
b1 F
b1100001100 J
b101111100 M
1w
#640000
0!
0w
#645000
1!
b10 )
b101000 4
b10011101000 ?
1@
b101000 C
1E
b10 F
b101111100 O
b10011101000 f
1w
#650000
0!
0w
#655000
1!
1B
b0 F
1w
#660000
0!
0w
#665000
1!
b1 )
0@
0B
0E
b1 F
b1100100000 J
b110010000 M
1w
#670000
0!
0w
#675000
1!
b10 )
b101001 4
b10011101001 ?
1@
b101001 C
1E
b10 F
b110010000 O
b10011101001 f
1w
#680000
0!
0w
#685000
1!
1B
b0 F
1w
#690000
0!
0w
#695000
1!
b1 )
0@
0B
0E
b1 F
b1100110100 J
b110100100 M
1w
#700000
0!
0w
#705000
1!
b10 )
b10100 4
b10100 5
b10100010100 ?
1@
b10100 C
b10100 D
1E
b10 F
b110100100 O
0R
b10100010100 f
1w
#710000
0!
0w
#715000
1!
1B
b0 F
1w
#720000
0!
0w
#725000
1!
b1 )
0@
0B
0E
b1 F
b11111111001110000 H
b110010000 J
b0 L
b0 M
1w
#730000
0!
0w
#735000
1!
b10 )
b10101 4
b10100010101 ?
1@
b10101 C
1E
b10 F
b0 N
b0 O
1Q
1R
b10100010101 f
1w
#740000
0!
0w
#745000
1!
1A
1B
b0 F
1w
#750000
0!
0w
#755000
1!
b1 )
b10100010101 +
b11001100xxxxxxxxx ,
1.
0@
0A
0B
0E
b1 F
b110100100 J
b10100 M
b10100010101 S
b11001100xxxxxxxxx U
b10100010101 e
b11001100xxxxxxxxx g
1i
1w
#760000
0!
0w
#765000
1!
b10 )
b10110 4
b10100010110 ?
1@
b10110 C
1E
b10 F
b10100 O
b0 _
b10100010110 f
b0 q
1w
#770000
0!
0w
#775000
1!
1A
1B
b0 F
b0 ]
b0 c
b0 o
b11001100xxxxxxxxx q
b0 u
1w
#780000
0!
0w
#785000
1!
b1 )
b10100010110 +
0@
0A
0B
0E
b1 F
b110111000 J
b101000 M
b10100010110 S
b10100010110 e
b11001100xxxxxxxxx o
b11001100xxxxxxxxx u
1w
#790000
0!
0w
#795000
1!
b10 )
b10111 4
b10100010111 ?
1@
b10111 C
1E
b10 F
b101000 O
b10100010111 f
b0 q
1w
#800000
0!
0w
#805000
1!
1A
1B
b0 F
b0 o
b11001100xxxxxxxxx q
b0 u
1w
#810000
0!
0w
#815000
1!
b1 )
b10100010111 +
0@
0A
0B
0E
b1 F
b111001100 J
b111100 M
b10100010111 S
b10100010111 e
b11001100xxxxxxxxx o
b11001100xxxxxxxxx u
1w
#820000
0!
0w
#825000
1!
b10 )
b11000 4
b10100011000 ?
1@
b11000 C
1E
b10 F
b111100 O
b10100011000 f
b0 q
1w
#830000
0!
0w
#835000
1!
1A
1B
b0 F
b0 o
b11001100xxxxxxxxx q
b0 u
1w
#840000
0!
0w
#845000
1!
b1 )
b10100011000 +
0@
0A
0B
0E
b1 F
b111100000 J
b1010000 M
b10100011000 S
b10100011000 e
b11001100xxxxxxxxx o
b11001100xxxxxxxxx u
1w
#850000
0!
0w
#855000
1!
b10 )
b11001 4
b10100011001 ?
1@
b11001 C
1E
b10 F
b1010000 O
b10100011001 f
b0 q
1w
#860000
0!
0w
#865000
1!
1A
1B
b0 F
b0 o
b11001100xxxxxxxxx q
b0 u
1w
#870000
0!
0w
#875000
1!
b1 )
b10100011001 +
0@
0A
0B
0E
b1 F
b111110100 J
b1100100 M
b10100011001 S
b10100011001 e
b11001100xxxxxxxxx o
b11001100xxxxxxxxx u
1w
#880000
0!
0w
#885000
1!
b10 )
b11010 4
b10100011010 ?
1@
b11010 C
1E
b10 F
b1100100 O
b10100011010 f
b0 q
1w
#890000
0!
0w
#895000
1!
1A
1B
b0 F
b0 o
b11001100xxxxxxxxx q
b0 u
1w
#900000
0!
0w
#905000
1!
b1 )
b10100011010 +
0@
0A
0B
0E
b1 F
b1000001000 J
b1111000 M
b10100011010 S
b10100011010 e
b11001100xxxxxxxxx o
b11001100xxxxxxxxx u
1w
#910000
0!
0w
#915000
1!
b10 )
b11011 4
b10100011011 ?
1@
b11011 C
1E
b10 F
b1111000 O
b10100011011 f
b0 q
1w
#920000
0!
0w
#925000
1!
1A
1B
b0 F
b0 o
b11001100xxxxxxxxx q
b0 u
1w
#930000
0!
0w
#935000
1!
b1 )
b10100011011 +
0@
0A
0B
0E
b1 F
b1000011100 J
b10001100 M
b10100011011 S
b10100011011 e
b11001100xxxxxxxxx o
b11001100xxxxxxxxx u
1w
#940000
0!
0w
#945000
1!
b10 )
b11100 4
b10100011100 ?
1@
b11100 C
1E
b10 F
b10001100 O
b10100011100 f
b0 q
1w
#950000
0!
0w
#955000
1!
1A
1B
b0 F
b0 o
b11001100xxxxxxxxx q
b0 u
1w
#960000
0!
0w
#965000
1!
b1 )
b10100011100 +
0@
0A
0B
0E
b1 F
b1000110000 J
b10100000 M
b10100011100 S
b10100011100 e
b11001100xxxxxxxxx o
b11001100xxxxxxxxx u
1w
#970000
0!
0w
#975000
1!
b10 )
b11101 4
b10100011101 ?
1@
b11101 C
1E
b10 F
b10100000 O
b10100011101 f
b0 q
1w
#980000
0!
0w
#985000
1!
1A
1B
b0 F
b0 o
b11001100xxxxxxxxx q
b0 u
1w
#990000
0!
0w
#995000
1!
b1 )
b10100011101 +
0@
0A
0B
0E
b1 F
b1001000100 J
b10110100 M
b10100011101 S
b10100011101 e
b11001100xxxxxxxxx o
b11001100xxxxxxxxx u
1w
#1000000
0!
0w
#1005000
1!
b10 )
b11110 4
b10100011110 ?
1@
b11110 C
1E
b10 F
b10110100 O
b10100011110 f
b0 q
1w
#1010000
0!
0w
#1015000
1!
1A
1B
b0 F
b0 o
b11001100xxxxxxxxx q
b0 u
1w
#1020000
0!
0w
#1025000
1!
b1 )
b10100011110 +
0@
0A
0B
0E
b1 F
b1001011000 J
b11001000 M
b10100011110 S
b10100011110 e
b11001100xxxxxxxxx o
b11001100xxxxxxxxx u
1w
#1030000
0!
0w
#1035000
1!
b10 )
b11111 4
b10100011111 ?
1@
b11111 C
1E
b10 F
b11001000 O
b10100011111 f
b0 q
1w
#1040000
0!
0w
#1045000
1!
1A
1B
b0 F
b0 o
b11001100xxxxxxxxx q
b0 u
1w
#1050000
0!
0w
#1055000
1!
b1 )
b10100011111 +
0@
0A
0B
0E
b1 F
b1001101100 J
b11011100 M
b10100011111 S
b10100011111 e
b11001100xxxxxxxxx o
b11001100xxxxxxxxx u
1w
#1060000
0!
0w
#1065000
1!
b10 )
b100000 4
b10100100000 ?
1@
b100000 C
1E
b10 F
b11011100 O
b10100100000 f
b0 q
1w
#1070000
0!
0w
#1075000
1!
1A
1B
b0 F
b0 o
b11001100xxxxxxxxx q
b0 u
1w
#1080000
0!
0w
#1085000
1!
b1 )
b10100100000 +
0@
0A
0B
0E
b1 F
b1010000000 J
b11110000 M
b10100100000 S
b10100100000 e
b11001100xxxxxxxxx o
b11001100xxxxxxxxx u
1w
#1090000
0!
0w
#1095000
1!
b10 )
b100001 4
b10100100001 ?
1@
b100001 C
1E
b10 F
b11110000 O
b10100100001 f
b0 q
1w
#1100000
0!
0w
#1105000
1!
1A
1B
b0 F
b0 o
b11001100xxxxxxxxx q
b0 u
1w
#1110000
0!
0w
#1115000
1!
b1 )
b10100100001 +
0@
0A
0B
0E
b1 F
b1010010100 J
b100000100 M
b10100100001 S
b10100100001 e
b11001100xxxxxxxxx o
b11001100xxxxxxxxx u
1w
#1120000
0!
0w
#1125000
1!
b10 )
b100010 4
b10100100010 ?
1@
b100010 C
1E
b10 F
b100000100 O
b10100100010 f
b0 q
1w
#1130000
0!
0w
#1135000
1!
1A
1B
b0 F
b0 o
b11001100xxxxxxxxx q
b0 u
1w
#1140000
0!
0w
#1145000
1!
b1 )
b10100100010 +
0@
0A
0B
0E
b1 F
b1010101000 J
b100011000 M
b10100100010 S
b10100100010 e
b11001100xxxxxxxxx o
b11001100xxxxxxxxx u
1w
#1150000
0!
0w
#1155000
1!
b10 )
b100011 4
b10100100011 ?
1@
b100011 C
1E
b10 F
b100011000 O
b10100100011 f
b0 q
1w
#1160000
0!
0w
#1165000
1!
1A
1B
b0 F
b0 o
b11001100xxxxxxxxx q
b0 u
1w
#1170000
0!
0w
#1175000
1!
b1 )
b10100100011 +
0@
0A
0B
0E
b1 F
b1010111100 J
b100101100 M
b10100100011 S
b10100100011 e
b11001100xxxxxxxxx o
b11001100xxxxxxxxx u
1w
#1180000
0!
0w
#1185000
1!
b10 )
b100100 4
b10100100100 ?
1@
b100100 C
1E
b10 F
b100101100 O
b10100100100 f
b0 q
1w
#1190000
0!
0w
#1195000
1!
1A
1B
b0 F
b0 o
b11001100xxxxxxxxx q
b0 u
1w
#1200000
0!
0w
#1205000
1!
b1 )
b10100100100 +
0@
0A
0B
0E
b1 F
b1011010000 J
b101000000 M
b10100100100 S
b10100100100 e
b11001100xxxxxxxxx o
b11001100xxxxxxxxx u
1w
#1210000
0!
0w
#1215000
1!
b10 )
b100101 4
b10100100101 ?
1@
b100101 C
1E
b10 F
b101000000 O
b10100100101 f
b0 q
1w
#1220000
0!
0w
#1225000
1!
1A
1B
b0 F
b0 o
b11001100xxxxxxxxx q
b0 u
1w
#1230000
0!
0w
#1235000
1!
b1 )
b10100100101 +
0@
0A
0B
0E
b1 F
b1011100100 J
b101010100 M
b10100100101 S
b10100100101 e
b11001100xxxxxxxxx o
b11001100xxxxxxxxx u
1w
#1240000
0!
0w
#1245000
1!
b10 )
b100110 4
b10100100110 ?
1@
b100110 C
1E
b10 F
b101010100 O
b10100100110 f
b0 q
1w
#1250000
0!
0w
#1255000
1!
1A
1B
b0 F
b0 o
b11001100xxxxxxxxx q
b0 u
1w
#1260000
0!
0w
#1265000
1!
b1 )
b10100100110 +
0@
0A
0B
0E
b1 F
b1011111000 J
b101101000 M
b10100100110 S
b10100100110 e
b11001100xxxxxxxxx o
b11001100xxxxxxxxx u
1w
#1270000
0!
0w
#1275000
1!
b10 )
b100111 4
b10100100111 ?
1@
b100111 C
1E
b10 F
b101101000 O
b10100100111 f
b0 q
1w
#1280000
0!
0w
#1285000
1!
1A
1B
b0 F
b0 o
b11001100xxxxxxxxx q
b0 u
1w
#1290000
0!
0w
#1295000
1!
b1 )
b10100100111 +
0@
0A
0B
0E
b1 F
b1100001100 J
b101111100 M
b10100100111 S
b10100100111 e
b11001100xxxxxxxxx o
b11001100xxxxxxxxx u
1w
#1300000
0!
0w
#1305000
1!
b10 )
b101000 4
b10100101000 ?
1@
b101000 C
1E
b10 F
b101111100 O
b10100101000 f
b0 q
1w
#1310000
0!
0w
#1315000
1!
1A
1B
b0 F
b0 o
b11001100xxxxxxxxx q
b0 u
1w
#1320000
0!
0w
#1325000
1!
b1 )
b10100101000 +
0@
0A
0B
0E
b1 F
b1100100000 J
b110010000 M
b10100101000 S
b10100101000 e
b11001100xxxxxxxxx o
b11001100xxxxxxxxx u
1w
#1330000
0!
0w
#1335000
1!
b10 )
b101001 4
b10100101001 ?
1@
b101001 C
1E
b10 F
b110010000 O
b10100101001 f
b0 q
1w
#1340000
0!
0w
#1345000
1!
1A
1B
b0 F
b0 o
b11001100xxxxxxxxx q
b0 u
1w
#1350000
0!
0w
#1355000
1!
b1 )
b10100101001 +
0@
0A
0B
0E
b1 F
b1100110100 J
b110100100 M
b10100101001 S
b10100101001 e
b11001100xxxxxxxxx o
b11001100xxxxxxxxx u
1w
#1360000
0!
0w
#1365000
1!
b10 )
b10100 4
b10101 5
b10101010100 ?
1@
b10100 C
b10101 D
1E
b10 F
b110100100 O
0R
b10101010100 f
b0 q
1w
#1370000
0!
0w
#1375000
1!
1B
b0 F
b0 o
b11001100xxxxxxxxx q
b0 u
1w
#1380000
0!
0w
#1385000
1!
b1 )
0@
0B
0E
b1 F
b11111111001011100 H
b110010000 J
b11111111111101100 L
b0 M
b11001100xxxxxxxxx o
b11001100xxxxxxxxx u
1w
#1390000
0!
0w
#1395000
1!
b10 )
b10101 4
b10101010101 ?
1@
b10101 C
1E
b10 F
b10100 N
b0 O
1R
b10101010101 f
1w
#1400000
0!
0w
#1405000
1!
1A
1B
b0 F
1w
#1410000
0!
0w
#1415000
1!
b1 )
b10101010101 +
0@
0A
0B
0E
b1 F
b110100100 J
b10100 M
b10101010101 S
b10101010101 e
1w
#1420000
0!
0w
#1425000
1!
b10 )
b10110 4
b10101010110 ?
1@
b10110 C
1E
b10 F
b10100 O
b10101010110 f
b0 q
1w
#1430000
0!
0w
#1435000
1!
1A
1B
b0 F
b0 o
b11001100xxxxxxxxx q
b0 u
1w
#1440000
0!
0w
#1445000
1!
b1 )
b10101010110 +
0@
0A
0B
0E
b1 F
b110111000 J
b101000 M
b10101010110 S
b10101010110 e
b11001100xxxxxxxxx o
b11001100xxxxxxxxx u
1w
#1450000
0!
0w
#1455000
1!
b10 )
b10111 4
b10101010111 ?
1@
b10111 C
1E
b10 F
b101000 O
b10101010111 f
b0 q
1w
#1460000
0!
0w
#1465000
1!
1A
1B
b0 F
b0 o
b11001100xxxxxxxxx q
b0 u
1w
#1470000
0!
0w
#1475000
1!
b1 )
b10101010111 +
0@
0A
0B
0E
b1 F
b111001100 J
b111100 M
b10101010111 S
b10101010111 e
b11001100xxxxxxxxx o
b11001100xxxxxxxxx u
1w
#1480000
0!
0w
#1485000
1!
b10 )
b11000 4
b10101011000 ?
1@
b11000 C
1E
b10 F
b111100 O
b10101011000 f
b0 q
1w
#1490000
0!
0w
#1495000
1!
1A
1B
b0 F
b0 o
b11001100xxxxxxxxx q
b0 u
1w
#1500000
0!
0w
#1505000
1!
b1 )
b10101011000 +
0@
0A
0B
0E
b1 F
b111100000 J
b1010000 M
b10101011000 S
b10101011000 e
b11001100xxxxxxxxx o
b11001100xxxxxxxxx u
1w
#1510000
0!
0w
#1515000
1!
b10 )
b11001 4
b10101011001 ?
1@
b11001 C
1E
b10 F
b1010000 O
b10101011001 f
b0 q
1w
#1520000
0!
0w
#1525000
1!
1A
1B
b0 F
b0 o
b11001100xxxxxxxxx q
b0 u
1w
#1530000
0!
0w
#1535000
1!
b1 )
b10101011001 +
0@
0A
0B
0E
b1 F
b111110100 J
b1100100 M
b10101011001 S
b10101011001 e
b11001100xxxxxxxxx o
b11001100xxxxxxxxx u
1w
#1540000
0!
0w
#1545000
1!
b10 )
b11010 4
b10101011010 ?
1@
b11010 C
1E
b10 F
b1100100 O
b10101011010 f
b0 q
1w
#1550000
0!
0w
#1555000
1!
1A
1B
b0 F
b0 o
b11001100xxxxxxxxx q
b0 u
1w
#1560000
0!
0w
#1565000
1!
b1 )
b10101011010 +
0@
0A
0B
0E
b1 F
b1000001000 J
b1111000 M
b10101011010 S
b10101011010 e
b11001100xxxxxxxxx o
b11001100xxxxxxxxx u
1w
#1570000
0!
0w
#1575000
1!
b10 )
b11011 4
b10101011011 ?
1@
b11011 C
1E
b10 F
b1111000 O
b10101011011 f
b0 q
1w
#1580000
0!
0w
#1585000
1!
1A
1B
b0 F
b0 o
b11001100xxxxxxxxx q
b0 u
1w
#1590000
0!
0w
#1595000
1!
b1 )
b10101011011 +
0@
0A
0B
0E
b1 F
b1000011100 J
b10001100 M
b10101011011 S
b10101011011 e
b11001100xxxxxxxxx o
b11001100xxxxxxxxx u
1w
#1600000
0!
0w
#1605000
1!
b10 )
b11100 4
b10101011100 ?
1@
b11100 C
1E
b10 F
b10001100 O
b10101011100 f
b0 q
1w
#1610000
0!
0w
#1615000
1!
1A
1B
b0 F
b0 o
b11001100xxxxxxxxx q
b0 u
1w
#1620000
0!
0w
#1625000
1!
b1 )
b10101011100 +
0@
0A
0B
0E
b1 F
b1000110000 J
b10100000 M
b10101011100 S
b10101011100 e
b11001100xxxxxxxxx o
b11001100xxxxxxxxx u
1w
#1630000
0!
0w
#1635000
1!
b10 )
b11101 4
b10101011101 ?
1@
b11101 C
1E
b10 F
b10100000 O
b10101011101 f
b0 q
1w
#1640000
0!
0w
#1645000
1!
1A
1B
b0 F
b0 o
b11001100xxxxxxxxx q
b0 u
1w
#1650000
0!
0w
#1655000
1!
b1 )
b10101011101 +
0@
0A
0B
0E
b1 F
b1001000100 J
b10110100 M
b10101011101 S
b10101011101 e
b11001100xxxxxxxxx o
b11001100xxxxxxxxx u
1w
#1660000
0!
0w
#1665000
1!
b10 )
b11110 4
b10101011110 ?
1@
b11110 C
1E
b10 F
b10110100 O
b10101011110 f
b0 q
1w
#1670000
0!
0w
#1675000
1!
1A
1B
b0 F
b0 o
b11001100xxxxxxxxx q
b0 u
1w
#1680000
0!
0w
#1685000
1!
b1 )
b10101011110 +
0@
0A
0B
0E
b1 F
b1001011000 J
b11001000 M
b10101011110 S
b10101011110 e
b11001100xxxxxxxxx o
b11001100xxxxxxxxx u
1w
#1690000
0!
0w
#1695000
1!
b10 )
b11111 4
b10101011111 ?
1@
b11111 C
1E
b10 F
b11001000 O
b10101011111 f
b0 q
1w
#1700000
0!
0w
#1705000
1!
1A
1B
b0 F
b0 o
b11001100xxxxxxxxx q
b0 u
1w
#1710000
0!
0w
#1715000
1!
b1 )
b10101011111 +
0@
0A
0B
0E
b1 F
b1001101100 J
b11011100 M
b10101011111 S
b10101011111 e
b11001100xxxxxxxxx o
b11001100xxxxxxxxx u
1w
#1720000
0!
0w
#1725000
1!
b10 )
b100000 4
b10101100000 ?
1@
b100000 C
1E
b10 F
b11011100 O
b10101100000 f
b0 q
1w
#1730000
0!
0w
#1735000
1!
1A
1B
b0 F
b0 o
b11001100xxxxxxxxx q
b0 u
1w
#1740000
0!
0w
#1745000
1!
b1 )
b10101100000 +
0@
0A
0B
0E
b1 F
b1010000000 J
b11110000 M
b10101100000 S
b10101100000 e
b11001100xxxxxxxxx o
b11001100xxxxxxxxx u
1w
#1750000
0!
0w
#1755000
1!
b10 )
b100001 4
b10101100001 ?
1@
b100001 C
1E
b10 F
b11110000 O
b10101100001 f
b0 q
1w
#1760000
0!
0w
