rasterizer.vcd
$date
	Tue Dec  5 10:27:16 2023
$end
$version
	GTKWave Analyzer v3.3.107 (w)1999-2020 BSI
$end
$timescale
	1ps
$end
$scope module rasterizer_tb $end
$scope module uut $end
$scope module intri $end
$var reg 1 6 in_tri $end
$var wire 1 4 valid_in $end
$var reg 1 3 valid_out $end
$upscope $end
$upscope $end
$var reg 1 $ clk $end
$scope module uut $end
$var reg 1 1 buf_sel $end
$var reg 32 5 state[31:0] $end
$var reg 9 - y_iter[8:0] $end
$upscope $end
$var parm 32 # W $end
$var reg 1 ( obj_done $end
$scope module uut $end
$var reg 17 / read_addr0[16:0] $end
$var reg 9 , x_iter[8:0] $end
$upscope $end
$var reg 1 ) rst $end
$var reg 1 * valid_tri $end
$scope module uut $end
$var reg 1 2 in_tri_out $end
$var reg 17 : write_addr[16:0] $end
$var reg 8 7 read_out[7:0] $end
$var reg 17 9 read_out0[16:0] $end
$upscope $end
$var reg 8 % color[7:0] $end
$var parm 32 " H $end
$scope module uut $end
$var reg 17 8 read_out1[16:0] $end
$var reg 9 . read_out_w[8:0] $end
$upscope $end
$var reg 1 ' new_frame $end
$scope module uut $end
$var reg 17 0 read_addr1[16:0] $end
$upscope $end
$var reg 6 + vcount_in[5:0] $end
$var reg 6 & hcount_in[5:0] $end
$upscope $end
$enddefinitions $end
#0
$dumpvars
bx :
x'
x(
0$
x6
x4
b0 9
b1000000 #
b0 7
bx ,
x1
bx %
b1000000 "
b0 .
bx /
b0 8
x2
bx +
b0 5
bx 0
x3
0)
bx -
bx &
x*
$end
#5000
04
1$
06
b10100 ,
01
b0 %
b10100010100 0
02
b10100 -
03
1)
#10000
0$
#15000
1$
0)
1*
bx 9
bx .
bx 7
b10011 ,
b0x %
bx 8
b1 5
b10011 -
b10011010011 0
#20000
0$
#25000
1$
b10011010100 0
14
b0 .
b0 %
b10100 ,
b10 5
b0 8
#30000
0$
#35000
1$
#40000
0$
#45000
1$
b0x %
#50000
0$
#55000
1$
13
#60000
0$
#65000
1$
04
03
b1 5
#70000
0$
#75000
1$
b10 5
b10011010101 0
14
b10101 ,
#80000
0$
#85000
1$
13
#90000
0$
#95000
1$
b1 5
03
04
#100000
0$
#105000
1$
14
b10110 ,
b10 5
b10011010110 0
#110000
0$
#115000
1$
13
#120000
0$
#125000
1$
04
03
b1 5
#130000
0$
#135000
1$
b10 5
b10011010111 0
14
b10111 ,
#140000
0$
#145000
1$
13
#150000
0$
#155000
1$
b1 5
03
04
#160000
0$
#165000
1$
14
b11000 ,
b10 5
b10011011000 0
#170000
0$
#175000
1$
13
#180000
0$
#185000
1$
04
03
b1 5
#190000
0$
#195000
1$
b10 5
b10011011001 0
14
b11001 ,
#200000
0$
#205000
1$
13
#210000
0$
#215000
1$
b1 5
03
04
#220000
0$
#225000
1$
14
b11010 ,
b10 5
b10011011010 0
#230000
0$
#235000
1$
13
#240000
0$
#245000
1$
04
03
b1 5
#250000
0$
#255000
1$
b10 5
b10011011011 0
14
b11011 ,
#260000
0$
#265000
1$
13
#270000
0$
#275000
1$
b1 5
03
04
#280000
0$
#285000
1$
14
b11100 ,
b10 5
b10011011100 0
#290000
0$
#295000
1$
13
#300000
0$
#305000
1$
04
03
b1 5
#310000
0$
#315000
1$
b10 5
b10011011101 0
14
b11101 ,
#320000
0$
#325000
1$
13
#330000
0$
#335000
1$
b1 5
03
04
#340000
0$
#345000
1$
14
b11110 ,
b10 5
b10011011110 0
#350000
0$
#355000
1$
13
#360000
0$
#365000
1$
04
03
b1 5
#370000
0$
#375000
1$
b10 5
b10011011111 0
14
b11111 ,
#380000
0$
#385000
1$
13
#390000
0$
#395000
1$
b1 5
03
04
#400000
0$
#405000
1$
14
b100000 ,
b10 5
b10011100000 0
#410000
0$
#415000
1$
13
#420000
0$
#425000
1$
04
03
b1 5
#430000
0$
#435000
1$
b10 5
b10011100001 0
14
b100001 ,
#440000
0$
#445000
1$
13
#450000
0$
#455000
1$
b1 5
03
04
#460000
0$
#465000
1$
14
b100010 ,
b10 5
b10011100010 0
#470000
0$
#475000
1$
13
#480000
0$
#485000
1$
04
03
b1 5
#490000
0$
#495000
1$
b10 5
b10011100011 0
14
b100011 ,
#500000
0$
#505000
1$
13
#510000
0$
#515000
1$
b1 5
03
04
#520000
0$
#525000
1$
14
b100100 ,
b10 5
b10011100100 0
#530000
0$
#535000
1$
13
#540000
0$
#545000
1$
04
03
b1 5
#550000
0$
#555000
1$
b10 5
b10011100101 0
14
b100101 ,
#560000
0$
#565000
1$
13
#570000
0$
#575000
1$
b1 5
03
04
#580000
0$
#585000
1$
14
b100110 ,
b10 5
b10011100110 0
#590000
0$
#595000
1$
13
#600000
0$
#605000
1$
04
03
b1 5
#610000
0$
#615000
1$
b10 5
b10011100111 0
14
b100111 ,
#620000
0$
#625000
1$
13
#630000
0$
#635000
1$
b1 5
03
04
#640000
0$
#645000
1$
14
b101000 ,
b10 5
b10011101000 0
#650000
0$
#655000
1$
13
#660000
0$
#665000
1$
04
03
b1 5
#670000
0$
#675000
1$
b10 5
b10011101001 0
14
b101001 ,
#680000
0$
#685000
1$
13
#690000
0$
#695000
1$
b1 5
03
04
#700000
0$
#705000
1$
14
b10100 ,
b10100 -
b10 5
b10100010100 0
#710000
0$
#715000
1$
13
#720000
0$
#725000
1$
04
03
b1 5
#730000
0$
#735000
1$
b10 5
b10100010101 0
14
b10101 ,
#740000
0$
#745000
1$
16
13
12
#750000
0$
#755000
1$
02
b10100010101 :
b1 5
03
04
06
#760000
0$
#765000
1$
b10110 ,
14
b10 5
b10100010110 0
#770000
0$
#775000
1$
16
12
13
#780000
0$
#785000
1$
03
b10100010110 :
06
02
b1 5
04
#790000
0$
#795000
1$
14
b10100010111 0
b10 5
b10111 ,
#800000
0$
#805000
1$
13
12
16
#810000
0$
#815000
1$
06
b10100010111 :
04
02
03
b1 5
#820000
0$
#825000
1$
b10 5
b11000 ,
b10100011000 0
14
#830000
0$
#835000
1$
16
13
12
#840000
0$
#845000
1$
02
b10100011000 :
04
b1 5
03
06
#850000
0$
#855000
1$
14
b10100011001 0
b10 5
b11001 ,
#860000
0$
#865000
1$
16
12
13
#870000
0$
#875000
1$
03
06
b10100011001 :
02
b1 5
04
#880000
0$
#885000
1$
14
b11010 ,
b10 5
b10100011010 0
#890000
0$
#895000
1$
16
13
12
#900000
0$
#905000
1$
02
04
06
03
b10100011010 :
b1 5
#910000
0$
#915000
1$
b10 5
14
b10100011011 0
b11011 ,
#920000
0$
#925000
1$
12
16
13
#930000
0$
#935000
1$
03
04
b1 5
06
02
b10100011011 :
#940000
0$
#945000
1$
14
b11100 ,
b10100011100 0
b10 5
#950000
0$
#955000
1$
13
12
16
#960000
0$
#965000
1$
06
b10100011100 :
b1 5
04
02
03
#970000
0$
#975000
1$
b10 5
b10100011101 0
14
b11101 ,
#980000
0$
#985000
1$
13
16
12
#990000
0$
#995000
1$
02
03
b10100011101 :
06
04
b1 5
#1000000
0$
#1005000
1$
b10 5
b11110 ,
14
b10100011110 0
#1010000
0$
#1015000
1$
13
12
16
#1020000
0$
#1025000
1$
06
b1 5
03
02
b10100011110 :
04
#1030000
0$
#1035000
1$
14
b10 5
b10100011111 0
b11111 ,
#1040000
0$
#1045000
1$
16
13
12
#1050000
0$
#1055000
1$
02
b1 5
04
03
06
b10100011111 :
#1060000
0$
#1065000
1$
b10 5
b100000 ,
b10100100000 0
14
#1070000
0$
#1075000
1$
12
16
13
#1080000
0$
#1085000
1$
03
b10100100000 :
04
b1 5
06
02
#1090000
0$
#1095000
1$
14
b10100100001 0
b10 5
b100001 ,
#1100000
0$
#1105000
1$
12
13
16
#1110000
0$
#1115000
1$
06
02
b10100100001 :
03
b1 5
04
#1120000
0$
#1125000
1$
14
b100010 ,
b10 5
b10100100010 0
#1130000
0$
#1135000
1$
12
16
13
#1140000
0$
#1145000
1$
03
04
02
06
b10100100010 :
b1 5
#1150000
0$
#1155000
1$
b10 5
14
b10100100011 0
b100011 ,
#1160000
0$
#1165000
1$
13
12
16
#1170000
0$
#1175000
1$
06
04
b1 5
02
03
b10100100011 :
#1180000
0$
#1185000
1$
14
b100100 ,
b10100100100 0
b10 5
#1190000
0$
#1195000
1$
16
13
12
#1200000
0$
#1205000
1$
02
b10100100100 :
b1 5
04
03
06
#1210000
0$
#1215000
1$
b10 5
b10100100101 0
14
b100101 ,
#1220000
0$
#1225000
1$
16
12
13
#1230000
0$
#1235000
1$
03
06
b10100100101 :
02
04
b1 5
#1240000
0$
#1245000
1$
b10 5
b100110 ,
14
b10100100110 0
#1250000
0$
#1255000
1$
16
13
12
#1260000
0$
#1265000
1$
02
b1 5
06
03
b10100100110 :
04
#1270000
0$
#1275000
1$
14
b10 5
b10100100111 0
b100111 ,
#1280000
0$
#1285000
1$
12
16
13
#1290000
0$
#1295000
1$
03
b1 5
04
06
02
b10100100111 :
#1300000
0$
#1305000
1$
b10 5
b101000 ,
b10100101000 0
14
#1310000
0$
#1315000
1$
13
12
16
#1320000
0$
#1325000
1$
06
b10100101000 :
04
b1 5
02
03
#1330000
0$
#1335000
1$
14
b10100101001 0
b10 5
b101001 ,
#1340000
0$
#1345000
1$
13
16
12
#1350000
0$
#1355000
1$
02
03
b10100101001 :
06
b1 5
04
#1360000
0$
#1365000
1$
14
b10100 ,
b10 5
b10101 -
b10101010100 0
#1370000
0$
#1375000
1$
13
#1380000
0$
#1385000
1$
03
04
b1 5
#1390000
0$
#1395000
1$
b10 5
b10101010101 0
14
b10101 ,
#1400000
0$
#1405000
1$
13
12
16
#1410000
0$
#1415000
1$
06
03
b1 5
02
b10101010101 :
04
#1420000
0$
#1425000
1$
14
b10110 ,
b10 5
b10101010110 0
#1430000
0$
#1435000
1$
13
16
12
#1440000
0$
#1445000
1$
02
04
03
06
b10101010110 :
b1 5
#1450000
0$
#1455000
1$
b10 5
14
b10101010111 0
b10111 ,
#1460000
0$
#1465000
1$
12
13
16
#1470000
0$
#1475000
1$
06
04
b1 5
03
02
b10101010111 :
#1480000
0$
#1485000
1$
14
b11000 ,
b10101011000 0
b10 5
#1490000
0$
#1495000
1$
16
12
13
#1500000
0$
#1505000
1$
03
b10101011000 :
b1 5
04
02
06
#1510000
0$
#1515000
1$
b10 5
b10101011001 0
14
b11001 ,
#1520000
0$
#1525000
1$
16
13
12
#1530000
0$
#1535000
1$
02
06
b10101011001 :
03
04
b1 5
#1540000
0$
#1545000
1$
b10 5
b11010 ,
14
b10101011010 0
#1550000
0$
#1555000
1$
16
12
13
#1560000
0$
#1565000
1$
03
b1 5
06
02
b10101011010 :
04
#1570000
0$
#1575000
1$
14
b10 5
b10101011011 0
b11011 ,
#1580000
0$
#1585000
1$
13
16
12
#1590000
0$
#1595000
1$
02
b1 5
04
06
03
b10101011011 :
#1600000
0$
#1605000
1$
b10 5
b11100 ,
b10101011100 0
14
#1610000
0$
#1615000
1$
12
13
16
#1620000
0$
#1625000
1$
06
b10101011100 :
04
b1 5
03
02
#1630000
0$
#1635000
1$
14
b10101011101 0
b10 5
b11101 ,
#1640000
0$
#1645000
1$
12
16
13
#1650000
0$
#1655000
1$
03
02
b10101011101 :
06
b1 5
04
#1660000
0$
#1665000
1$
14
b11110 ,
b10 5
b10101011110 0
#1670000
0$
#1675000
1$
12
13
16
#1680000
0$
#1685000
1$
06
04
02
03
b10101011110 :
b1 5
#1690000
0$
#1695000
1$
b10 5
14
b10101011111 0
b11111 ,
#1700000
0$
#1705000
1$
16
12
13
#1710000
0$
#1715000
1$
03
04
b1 5
02
06
b10101011111 :
#1720000
0$
#1725000
1$
14
b100000 ,
b10101100000 0
b10 5
#1730000
0$
#1735000
1$
13
16
12
#1740000
0$
#1745000
1$
02
b10101100000 :
b1 5
04
06
03
#1750000
0$
#1755000
1$
b10 5
b10101100001 0
14
b100001 ,
#1760000
0$
#1765000
1$
13
12
16
#1770000
0$
#1775000
1$
06
03
b10101100001 :
02
04
b1 5
#1780000
0$
#1785000
1$
b10 5
b100010 ,
14
b10101100010 0
#1790000
0$
#1795000
1$
13
16
12
#1800000
0$
#1805000
1$
02
b1 5
03
06
b10101100010 :
04
#1810000
0$
#1815000
1$
14
b10 5
b10101100011 0
b100011 ,
#1820000
0$
#1825000
1$
12
13
16
#1830000
0$
#1835000
1$
06
b1 5
04
03
02
b10101100011 :
#1840000
0$
#1845000
1$
b10 5
b100100 ,
b10101100100 0
14
#1850000
0$
#1855000
1$
16
12
13
#1860000
0$
#1865000
1$
03
b10101100100 :
04
b1 5
02
06
#1870000
0$
#1875000
1$
14
b10101100101 0
b10 5
b100101 ,
#1880000
0$
#1885000
1$
16
13
12
#1890000
0$
#1895000
1$
02
06
b10101100101 :
03
b1 5
04
#1900000
0$
#1905000
1$
14
b100110 ,
b10 5
b10101100110 0
#1910000
0$
#1915000
1$
16
12
13
#1920000
0$
#1925000
1$
03
04
06
02
b10101100110 :
b1 5
#1930000
0$
#1935000
1$
b10 5
14
b10101100111 0
b100111 ,
#1940000
0$
#1945000
1$
13
16
12
#1950000
0$
#1955000
1$
02
04
b1 5
06
03
b10101100111 :
#1960000
0$
#1965000
1$
14
b101000 ,
b10101101000 0
b10 5
#1970000
0$
#1975000
1$
12
13
16
#1980000
0$
#1985000
1$
06
b10101101000 :
b1 5
04
03
02
#1990000
0$
#1995000
1$
b10 5
b10101101001 0
14
b101001 ,
#2000000
0$
#2005000
1$
13
#2010000
0$
#2015000
1$
03
04
b1 5
#2020000
0$
#2025000
1$
b10100 ,
b10 5
14
b10110010100 0
b10110 -
#2030000
0$
#2035000
1$
13
#2040000
0$
#2045000
1$
03
04
b1 5
#2050000
0$
#2055000
1$
b10 5
b10101 ,
14
b10110010101 0
#2060000
0$
#2065000
1$
12
16
13
#2070000
0$
#2075000
1$
03
02
b10110010101 :
06
04
b1 5
#2080000
0$
#2085000
1$
b10 5
14
b10110010110 0
b10110 ,
#2090000
0$
#2095000
1$
12
13
16
#2100000
0$
#2105000
1$
06
02
03
b10110010110 :
04
b1 5
#2110000
0$
#2115000
1$
b10 5
b10111 ,
14
b10110010111 0
#2120000
0$
#2125000
1$
16
12
13
#2130000
0$
#2135000
1$
03
b1 5
02
04
06
b10110010111 :
#2140000
0$
#2145000
1$
b10110011000 0
b10 5
14
b11000 ,
#2150000
0$
#2155000
1$
13
16
12
#2160000
0$
#2165000
1$
02
b10110011000 :
06
04
03
b1 5
#2170000
0$
#2175000
1$
b10 5
b11001 ,
14
b10110011001 0
#2180000
0$
#2185000
1$
12
16
13
#2190000
0$
#2195000
1$
03
b1 5
06
b10110011001 :
02
04
#2200000
0$
#2205000
1$
14
b10110011010 0
b10 5
b11010 ,
#2210000
0$
#2215000
1$
13
12
16
#2220000
0$
#2225000
1$
06
04
02
b1 5
03
b10110011010 :
#2230000
0$
#2235000
1$
b11011 ,
14
b10 5
b10110011011 0
#2240000
0$
#2245000
1$
16
13
12
#2250000
0$
#2255000
1$
02
b10110011011 :
03
b1 5
06
04
#2260000
0$
#2265000
1$
14
b10110011100 0
b10 5
b11100 ,
#2270000
0$
#2275000
1$
12
13
16
#2280000
0$
#2285000
1$
06
04
03
b10110011100 :
02
b1 5
#2290000
0$
#2295000
1$
b10 5
b11101 ,
14
b10110011101 0
#2300000
0$
#2305000
1$
16
12
13
#2310000
0$
#2315000
1$
03
b1 5
02
04
06
b10110011101 :
#2320000
0$
#2325000
1$
b10110011110 0
b10 5
14
b11110 ,
#2330000
0$
#2335000
1$
13
16
12
#2340000
0$
#2345000
1$
02
b10110011110 :
06
04
03
b1 5
#2350000
0$
#2355000
1$
b10 5
b11111 ,
14
b10110011111 0
#2360000
0$
#2365000
1$
12
16
13
#2370000
0$
#2375000
1$
03
b1 5
06
b10110011111 :
02
04
#2380000
0$
#2385000
1$
14
b10110100000 0
b10 5
b100000 ,
#2390000
0$
#2395000
1$
13
12
16
#2400000
0$
#2405000
1$
06
04
02
b1 5
03
b10110100000 :
#2410000
0$
#2415000
1$
b100001 ,
14
b10 5
b10110100001 0
#2420000
0$
#2425000
1$
16
13
12
#2430000
0$
#2435000
1$
02
b10110100001 :
03
b1 5
06
04
#2440000
0$
#2445000
1$
14
b10110100010 0
b10 5
b100010 ,
#2450000
0$
#2455000
1$
12
13
16
#2460000
0$
#2465000
1$
06
04
03
b10110100010 :
02
b1 5
#2470000
0$
#2475000
1$
b10 5
b100011 ,
14
b10110100011 0
#2480000
0$
#2485000
1$
16
12
13
#2490000
0$
#2495000
1$
03
b1 5
02
04
06
b10110100011 :
#2500000
0$
#2505000
1$
b10110100100 0
b10 5
14
b100100 ,
#2510000
0$
#2515000
1$
13
16
12
#2520000
0$
#2525000
1$
02
b10110100100 :
06
04
03
b1 5
#2530000
0$
#2535000
1$
b10 5
b100101 ,
14
b10110100101 0
#2540000
0$
#2545000
1$
12
16
13
#2550000
0$
#2555000
1$
03
b1 5
06
b10110100101 :
02
04
#2560000
0$
#2565000
1$
14
b10110100110 0
b10 5
b100110 ,
#2570000
0$
#2575000
1$
13
12
16
#2580000
0$
#2585000
1$
06
04
02
b1 5
03
b10110100110 :
#2590000
0$
#2595000
1$
b100111 ,
14
b10 5
b10110100111 0
#2600000
0$
#2605000
1$
16
13
12
#2610000
0$
#2615000
1$
02
b10110100111 :
03
b1 5
06
04
#2620000
0$
#2625000
1$
14
b10110101000 0
b10 5
b101000 ,
#2630000
0$
#2635000
1$
13
#2640000
0$
#2645000
1$
04
03
b1 5
#2650000
0$
#2655000
1$
b10 5
b101001 ,
14
b10110101001 0
#2660000
0$
#2665000
1$
13
#2670000
0$
#2675000
1$
b1 5
03
04
#2680000
0$
#2685000
1$
14
b10111 -
b10111010100 0
b10 5
b10100 ,
#2690000
0$
#2695000
1$
13
#2700000
0$
#2705000
1$
04
03
b1 5
#2710000
0$
#2715000
1$
b10 5
b10101 ,
14
b10111010101 0
#2720000
0$
#2725000
1$
12
13
16
#2730000
0$
#2735000
1$
06
b1 5
03
b10111010101 :
02
04
#2740000
0$
#2745000
1$
14
b10111010110 0
b10 5
b10110 ,
#2750000
0$
#2755000
1$
16
12
13
#2760000
0$
#2765000
1$
03
04
02
b1 5
06
b10111010110 :
#2770000
0$
#2775000
1$
b10111 ,
14
b10 5
b10111010111 0
#2780000
0$
#2785000
1$
13
16
12
#2790000
0$
#2795000
1$
02
b10111010111 :
06
b1 5
03
04
#2800000
0$
#2805000
1$
14
b10111011000 0
b10 5
b11000 ,
#2810000
0$
#2815000
1$
12
16
13
#2820000
0$
#2825000
1$
03
04
06
b10111011000 :
02
b1 5
#2830000
0$
#2835000
1$
b10 5
b11001 ,
14
b10111011001 0
#2840000
0$
#2845000
1$
13
12
16
#2850000
0$
#2855000
1$
06
b1 5
02
04
03
b10111011001 :
#2860000
0$
#2865000
1$
b10111011010 0
b10 5
14
b11010 ,
#2870000
0$
#2875000
1$
16
13
12
#2880000
0$
#2885000
1$
02
b10111011010 :
03
04
06
b1 5
#2890000
0$
#2895000
1$
b10 5
b11011 ,
14
b10111011011 0
#2900000
0$
#2905000
1$
12
13
16
#2910000
0$
#2915000
1$
06
b1 5
03
b10111011011 :
02
04
#2920000
0$
#2925000
1$
14
b10111011100 0
b10 5
b11100 ,
#2930000
0$
#2935000
1$
16
12
13
#2940000
0$
#2945000
1$
03
04
02
b1 5
06
b10111011100 :
#2950000
0$
#2955000
1$
b11101 ,
14
b10 5
b10111011101 0
#2960000
0$
#2965000
1$
13
16
12
#2970000
0$
#2975000
1$
02
b10111011101 :
06
b1 5
03
04
#2980000
0$
#2985000
1$
14
b10111011110 0
b10 5
b11110 ,
#2990000
0$
#2995000
1$
12
16
13
#3000000
0$
#3005000
1$
03
04
06
b10111011110 :
02
b1 5
#3010000
0$
#3015000
1$
b10 5
b11111 ,
14
b10111011111 0
#3020000
0$
#3025000
1$
13
12
16
#3030000
0$
#3035000
1$
06
b1 5
02
04
03
b10111011111 :
#3040000
0$
#3045000
1$
b10111100000 0
b10 5
14
b100000 ,
#3050000
0$
#3055000
1$
16
13
12
#3060000
0$
#3065000
1$
02
b10111100000 :
03
04
06
b1 5
#3070000
0$
#3075000
1$
b10 5
b100001 ,
14
b10111100001 0
#3080000
0$
#3085000
1$
12
13
16
#3090000
0$
#3095000
1$
06
b1 5
03
b10111100001 :
02
04
#3100000
0$
#3105000
1$
14
b10111100010 0
b10 5
b100010 ,
#3110000
0$
#3115000
1$
16
12
13
#3120000
0$
#3125000
1$
03
04
02
b1 5
06
b10111100010 :
#3130000
0$
#3135000
1$
b100011 ,
14
b10 5
b10111100011 0
#3140000
0$
#3145000
1$
13
16
12
#3150000
0$
#3155000
1$
02
b10111100011 :
06
b1 5
03
04
#3160000
0$
#3165000
1$
14
b10111100100 0
b10 5
b100100 ,
#3170000
0$
#3175000
1$
12
16
13
#3180000
0$
#3185000
1$
03
04
06
b10111100100 :
02
b1 5
#3190000
0$
#3195000
1$
b10 5
b100101 ,
14
b10111100101 0
#3200000
0$
#3205000
1$
13
12
16
#3210000
0$
#3215000
1$
06
b1 5
02
04
03
b10111100101 :
#3220000
0$
#3225000
1$
b10111100110 0
b10 5
14
b100110 ,
#3230000
0$
#3235000
1$
16
13
12
#3240000
0$
#3245000
1$
02
b10111100110 :
03
04
06
b1 5
#3250000
0$
#3255000
1$
b10 5
b100111 ,
14
b10111100111 0
#3260000
0$
#3265000
1$
13
#3270000
0$
#3275000
1$
b1 5
03
04
#3280000
0$
#3285000
1$
14
b10111101000 0
b10 5
b101000 ,
#3290000
0$
#3295000
1$
13
#3300000
0$
#3305000
1$
04
03
b1 5
#3310000
0$
#3315000
1$
b10 5
b101001 ,
14
b10111101001 0
#3320000
0$
#3325000
1$
13
#3330000
0$
#3335000
1$
b1 5
03
04
#3340000
0$
#3345000
1$
14
b11000 -
b11000010100 0
b10 5
b10100 ,
#3350000
0$
#3355000
1$
13
#3360000
0$
#3365000
1$
04
03
b1 5
#3370000
0$
#3375000
1$
b10 5
b10101 ,
14
b11000010101 0
#3380000
0$
#3385000
1$
12
13
16
#3390000
0$
#3395000
1$
06
b1 5
03
b11000010101 :
02
04
#3400000
0$
#3405000
1$
14
b11000010110 0
b10 5
b10110 ,
#3410000
0$
#3415000
1$
16
12
13
#3420000
0$
#3425000
1$
03
04
02
b1 5
06
b11000010110 :
#3430000
0$
#3435000
1$
b10111 ,
14
b10 5
b11000010111 0
#3440000
0$
#3445000
1$
13
16
12
#3450000
0$
#3455000
1$
02
b11000010111 :
06
b1 5
03
04
#3460000
0$
#3465000
1$
14
b11000011000 0
b10 5
b11000 ,
#3470000
0$
#3475000
1$
12
16
13
#3480000
0$
#3485000
1$
03
04
06
b11000011000 :
02
b1 5
#3490000
0$
#3495000
1$
b10 5
b11001 ,
14
b11000011001 0
#3500000
0$
#3505000
1$
13
12
16
#3510000
0$
#3515000
1$
06
b1 5
02
04
03
b11000011001 :
#3520000
0$
#3525000
1$
b11000011010 0
b10 5
14
b11010 ,
#3530000
0$
#3535000
1$
16
13
12
#3540000
0$
#3545000
1$
02
b11000011010 :
03
04
06
b1 5
#3550000
0$
#3555000
1$
b10 5
b11011 ,
14
b11000011011 0
#3560000
0$
#3565000
1$
12
13
16
#3570000
0$
#3575000
1$
06
b1 5
03
b11000011011 :
02
04
#3580000
0$
#3585000
1$
14
b11000011100 0
b10 5
b11100 ,
#3590000
0$
#3595000
1$
16
12
13
#3600000
0$
#3605000
1$
03
04
02
b1 5
06
b11000011100 :
#3610000
0$
#3615000
1$
b11101 ,
14
b10 5
b11000011101 0
#3620000
0$
#3625000
1$
13
16
12
#3630000
0$
#3635000
1$
02
b11000011101 :
06
b1 5
03
04
#3640000
0$
#3645000
1$
14
b11000011110 0
b10 5
b11110 ,
#3650000
0$
#3655000
1$
12
16
13
#3660000
0$
#3665000
1$
03
04
06
b11000011110 :
02
b1 5
#3670000
0$
#3675000
1$
b10 5
b11111 ,
14
b11000011111 0
#3680000
0$
#3685000
1$
13
12
16
#3690000
0$
#3695000
1$
06
b1 5
02
04
03
b11000011111 :
#3700000
0$
#3705000
1$
b11000100000 0
b10 5
14
b100000 ,
#3710000
0$
#3715000
1$
16
13
12
#3720000
0$
#3725000
1$
02
b11000100000 :
03
04
06
b1 5
#3730000
0$
#3735000
1$
b10 5
b100001 ,
14
b11000100001 0
#3740000
0$
#3745000
1$
12
13
16
#3750000
0$
#3755000
1$
06
b1 5
03
b11000100001 :
02
04
#3760000
0$
#3765000
1$
14
b11000100010 0
b10 5
b100010 ,
#3770000
0$
#3775000
1$
16
12
13
#3780000
0$
#3785000
1$
03
04
02
b1 5
06
b11000100010 :
#3790000
0$
#3795000
1$
b100011 ,
14
b10 5
b11000100011 0
#3800000
0$
#3805000
1$
13
16
12
#3810000
0$
#3815000
1$
02
b11000100011 :
06
b1 5
03
04
#3820000
0$
#3825000
1$
14
b11000100100 0
b10 5
b100100 ,
#3830000
0$
#3835000
1$
12
16
13
#3840000
0$
#3845000
1$
03
04
06
b11000100100 :
02
b1 5
#3850000
0$
#3855000
1$
b10 5
b100101 ,
14
b11000100101 0
#3860000
0$
#3865000
1$
13
12
16
#3870000
0$
#3875000
1$
06
b1 5
02
04
03
b11000100101 :
#3880000
0$
#3885000
1$
b11000100110 0
b10 5
14
b100110 ,
#3890000
0$
#3895000
1$
13
#3900000
0$
#3905000
1$
03
04
b1 5
#3910000
0$
#3915000
1$
b100111 ,
b10 5
14
b11000100111 0
#3920000
0$
#3925000
1$
13
#3930000
0$
#3935000
1$
03
04
b1 5
#3940000
0$
#3945000
1$
b11000101000 0
b10 5
b101000 ,
14
#3950000
0$
#3955000
1$
13
#3960000
0$
#3965000
1$
04
03
b1 5
#3970000
0$
#3975000
1$
b10 5
b11000101001 0
14
b101001 ,
#3980000
0$
#3985000
1$
13
#3990000
0$
#3995000
1$
03
04
b1 5
#4000000
0$
#4005000
1$
b10100 ,
b11001 -
b10 5
14
b11001010100 0
#4010000
0$
#4015000
1$
13
#4020000
0$
#4025000
1$
03
04
b1 5
#4030000
0$
#4035000
1$
b11001010101 0
b10101 ,
b10 5
14
#4040000
0$
#4045000
1$
16
12
13
#4050000
0$
#4055000
1$
03
04
b11001010101 :
02
06
b1 5
#4060000
0$
#4065000
1$
b10 5
b11001010110 0
14
b10110 ,
#4070000
0$
#4075000
1$
13
16
12
#4080000
0$
#4085000
1$
02
b1 5
06
03
04
b11001010110 :
#4090000
0$
#4095000
1$
b11001010111 0
b10111 ,
14
b10 5
#4100000
0$
#4105000
1$
12
13
16
#4110000
0$
#4115000
1$
06
b11001010111 :
b1 5
03
02
04
#4120000
0$
#4125000
1$
14
b11001011000 0
b11000 ,
b10 5
#4130000
0$
#4135000
1$
16
13
12
#4140000
0$
#4145000
1$
02
b11001011000 :
b1 5
04
03
06
#4150000
0$
#4155000
1$
b10 5
14
b11001011001 0
b11001 ,
#4160000
0$
#4165000
1$
16
12
13
#4170000
0$
#4175000
1$
03
06
b11001011001 :
02
04
b1 5
#4180000
0$
#4185000
1$
b10 5
b11010 ,
14
b11001011010 0
#4190000
0$
#4195000
1$
16
13
12
#4200000
0$
#4205000
1$
02
b1 5
06
03
04
b11001011010 :
#4210000
0$
#4215000
1$
b10 5
b11001011011 0
14
b11011 ,
#4220000
0$
#4225000
1$
12
13
16
#4230000
0$
#4235000
1$
06
b11001011011 :
b1 5
03
02
04
#4240000
0$
#4245000
1$
14
b11100 ,
b11001011100 0
b10 5
#4250000
0$
#4255000
1$
16
13
12
#4260000
0$
#4265000
1$
02
b11001011100 :
b1 5
04
03
06
#4270000
0$
#4275000
1$
b10 5
14
b11101 ,
b11001011101 0
#4280000
0$
#4285000
1$
16
12
13
#4290000
0$
#4295000
1$
03
06
b11001011101 :
02
04
b1 5
#4300000
0$
#4305000
1$
b10 5
b11001011110 0
14
b11110 ,
#4310000
0$
#4315000
1$
16
13
12
#4320000
0$
#4325000
1$
02
b1 5
06
03
04
b11001011110 :
#4330000
0$
#4335000
1$
b10 5
b11111 ,
14
b11001011111 0
#4340000
0$
#4345000
1$
12
13
16
#4350000
0$
#4355000
1$
06
b11001011111 :
b1 5
03
02
04
#4360000
0$
#4365000
1$
14
b11001100000 0
b100000 ,
b10 5
#4370000
0$
#4375000
1$
16
13
12
#4380000
0$
#4385000
1$
02
b11001100000 :
b1 5
04
03
06
#4390000
0$
#4395000
1$
b10 5
14
b11001100001 0
b100001 ,
#4400000
0$
#4405000
1$
16
12
13
#4410000
0$
#4415000
1$
03
06
b11001100001 :
02
04
b1 5
#4420000
0$
#4425000
1$
b10 5
b100010 ,
14
b11001100010 0
#4430000
0$
#4435000
1$
16
13
12
#4440000
0$
#4445000
1$
02
b1 5
06
03
04
b11001100010 :
#4450000
0$
#4455000
1$
b10 5
b11001100011 0
14
b100011 ,
#4460000
0$
#4465000
1$
12
13
16
#4470000
0$
#4475000
1$
06
b11001100011 :
b1 5
03
02
04
#4480000
0$
#4485000
1$
14
b100100 ,
b11001100100 0
b10 5
#4490000
0$
#4495000
1$
16
13
12
#4500000
0$
#4505000
1$
02
b11001100100 :
b1 5
04
03
06
#4510000
0$
#4515000
1$
b10 5
14
b100101 ,
b11001100101 0
#4520000
0$
#4525000
1$
13
#4530000
0$
#4535000
1$
03
04
b1 5
#4540000
0$
#4545000
1$
b11001100110 0
b10 5
14
b100110 ,
#4550000
0$
#4555000
1$
13
#4560000
0$
#4565000
1$
03
04
b1 5
#4570000
0$
#4575000
1$
b100111 ,
b10 5
14
b11001100111 0
#4580000
0$
#4585000
1$
13
#4590000
0$
#4595000
1$
03
04
b1 5
#4600000
0$
#4605000
1$
b11001101000 0
b10 5
14
b101000 ,
#4610000
0$
#4615000
1$
13
#4620000
0$
#4625000
1$
03
04
b1 5
#4630000
0$
