round_tb/round_tb.sim/sim_1/behav/xsim/dump.vcd
$date
   Thu Dec  7 12:48:52 2023
$end
$version
  2023.1
$end
$timescale
  1ps
$end
$scope module round_tb $end
$var reg 1 ! clk $end
$var reg 32 " float [31:0] $end
$var reg 16 # ip_out [15:0] $end
$var reg 9 $ integ [8:0] $end
$var reg 1 % v_in $end
$var reg 1 & v_out $end
$var reg 1 ' ready $end
$var parameter 32 / IWID [31:0] $end
$var parameter 32 0 OWID [31:0] $end
$scope module uut $end
$var wire 1 ( aclk $end
$var wire 1 ) s_axis_a_tvalid $end
$var wire 1 * s_axis_a_tready $end
$var wire 32 + s_axis_a_tdata [31:0] $end
$var wire 1 , m_axis_result_tvalid $end
$var wire 1 - m_axis_result_tready $end
$var wire 16 . m_axis_result_tdata [15:0] $end
$upscope $end
$upscope $end
$enddefinitions $end
#0
$dumpvars
0!
bx "
b0 #
b0 $
0%
0&
1'
0(
0)
1*
bx +
0,
1-
b0 .
b100000 /
b1000 0
$end
#5000
1!
1(
#10000
0!
b1000100011000010001001100110011 "
1%
0(
1)
b1000100011000010001001100110011 +
#15000
1!
1(
#20000
0!
0(
#25000
1!
0%
1(
0)
#30000
0!
0(
#35000
1!
1(
#40000
0!
0(
#45000
1!
b100000000000000 #
b100000000 $
1(
b100000000000000 .
#50000
0!
0(
#55000
1!
b0 #
b0 $
1(
b0 .
#60000
0!
0(
#65000
1!
1(
#70000
0!
0(
#75000
1!
b111111111111111 #
b111111111 $
1&
1(
1,
b111111111111111 .
#80000
0!
0(
#85000
1!
1(
#90000
0!
0(
#95000
1!
0&
1(
0,
#100000
0!
0(
#105000
1!
1(
#110000
0!
0(
#115000
1!
1(
#120000
0!
0(
#125000
1!
b1000011111110100100110011001101 "
1%
1(
1)
b1000011111110100100110011001101 +
#130000
0!
0(
#135000
1!
1(
#140000
0!
0%
0(
0)
#145000
1!
1(
#150000
0!
0(
#155000
1!
1(
#160000
0!
0(
#165000
1!
1(
#170000
0!
0(
#175000
1!
1(
#180000
0!
0(
#185000
1!
b111110100100110 #
b111110100 $
1(
b111110100100110 .
#190000
0!
0(
#195000
1!
1&
1(
1,
#200000
0!
0(
#205000
1!
0&
1(
0,
#210000
0!
0(
#215000
1!
1(
#220000
0!
0(
#225000
1!
1(
#230000
0!
0(
#235000
1!
1(
#240000
0!
b1000010110100000000000000000000 "
1%
0(
1)
b1000010110100000000000000000000 +
#245000
1!
1(
#250000
0!
0(
#255000
1!
0%
1(
0)
#260000
0!
0(
#265000
1!
1(
#270000
0!
0(
#275000
1!
1(
#280000
0!
0(
#285000
1!
1(
#290000
0!
0(
#295000
1!
1(
#300000
0!
0(
#305000
1!
b1101000000000 #
b1101000 $
1&
1(
1,
b1101000000000 .
#310000
0!
0(
#315000
1!
1(
#320000
0!
0(
#325000
1!
0&
1(
0,
