transformation_tb/transformation_tb.sim/sim_1/behav/xsim/dump.vcd
$date
   Wed Dec  6 19:47:27 2023
$end
$version
  2023.1
$end
$timescale
  1ps
$end
$scope module transformation_tb $end
$var reg 1 ! clk $end
$var reg 1 " rst $end
$var reg 32 # x_in [31:0] $end
$var reg 32 $ y_in [31:0] $end
$var reg 32 % z_in [31:0] $end
$var reg 1 & v_in $end
$var reg 32 ' x [31:0] $end
$var reg 32 ( y [31:0] $end
$var reg 32 ) z [31:0] $end
$var reg 32 * w [31:0] $end
$var reg 1 + v_out $end
$scope module uut $end
$var wire 1 , clk_in $end
$var wire 1 - rst_in $end
$var wire 2 . sel [1:0] $end
$var wire 32 / scale [31:0] $end
$var wire 5 0 pitch [4:0] $end
$var wire 5 1 roll [4:0] $end
$var wire 5 2 yaw [4:0] $end
$var wire 1 3 valid_in $end
$var reg 1 + valid_out $end
$var reg 32 4 state $end
$var reg 32 5 add_a_in [31:0] $end
$var reg 32 6 add_b_in [31:0] $end
$var reg 32 7 add_out [31:0] $end
$var reg 1 8 add_v_in $end
$var reg 1 9 add_v_out $end
$var reg 32 : mult_a_in [31:0] $end
$var reg 32 ; mult_b_in [31:0] $end
$var reg 32 < mult_out [31:0] $end
$var reg 1 = mult_v_in $end
$var reg 1 > mult_v_out $end
$scope module add $end
$var wire 1 , aclk $end
$var wire 1 ? s_axis_a_tvalid $end
$var wire 1 @ s_axis_a_tready $end
$var wire 32 A s_axis_a_tdata [31:0] $end
$var wire 1 B s_axis_b_tvalid $end
$var wire 1 C s_axis_b_tready $end
$var wire 32 D s_axis_b_tdata [31:0] $end
$var wire 1 E m_axis_result_tvalid $end
$var wire 1 F m_axis_result_tready $end
$var wire 32 G m_axis_result_tdata [31:0] $end
$upscope $end
$scope module mult $end
$var wire 1 , aclk $end
$var wire 1 H s_axis_a_tvalid $end
$var wire 1 I s_axis_a_tready $end
$var wire 32 J s_axis_a_tdata [31:0] $end
$var wire 1 K s_axis_b_tvalid $end
$var wire 1 L s_axis_b_tready $end
$var wire 32 M s_axis_b_tdata [31:0] $end
$var wire 1 N m_axis_result_tvalid $end
$var wire 1 O m_axis_result_tready $end
$var wire 32 P m_axis_result_tdata [31:0] $end
$upscope $end
$upscope $end
$upscope $end
$enddefinitions $end
#0
$dumpvars
0!
0"
bx #
bx $
bx %
x&
bx '
bx (
bx )
bx *
x+
0,
0-
bz .
bz /
bz 0
bz 1
bz 2
x3
b0 4
bx 5
bx 6
bx 7
x8
09
bx :
bx ;
b0 <
x=
0>
x?
1@
bx A
xB
1C
bx D
0E
1F
bx G
xH
1I
bx J
xK
1L
bx M
0N
1O
b0 P
$end
#5000
1!
1"
0+
1,
1-
b0 7
b0 G
#10000
0!
0,
#15000
1!
0"
1,
0-
#20000
0!
b111111100000000000000000000000 #
b111111100000000000000000000000 $
b111111100000000000000000000000 %
1&
0,
13
#25000
1!
1,
b1 4
b111111100000000000000000000000 5
b111111100000000000000000000000 6
18
b1000000000000000000000000000000 <
1?
b111111100000000000000000000000 A
1B
b111111100000000000000000000000 D
b1000000000000000000000000000000 P
#30000
0!
0&
0,
03
#35000
1!
1,
08
0?
0B
#40000
0!
0,
#45000
1!
1,
#50000
0!
0,
#55000
1!
1,
#60000
0!
0,
#65000
1!
1,
b0 <
b0 P
#70000
0!
0,
#75000
1!
1,
#80000
0!
0,
#85000
1!
1,
#90000
0!
0,
#95000
1!
1,
b100000000000000000000000 7
b100000000000000000000000 G
#100000
0!
0,
#105000
1!
1,
b0 7
b0 G
#110000
0!
0,
#115000
1!
1,
#120000
0!
0,
#125000
1!
1,
#130000
0!
0,
#135000
1!
1,
#140000
0!
0,
#145000
1!
1,
b1000000000000000000000000000000 7
19
1E
b1000000000000000000000000000000 G
#150000
0!
0,
#155000
1!
b111111100000000000000000000000 '
b111111100000000000000000000000 (
b1000000000000000000000000000000 )
b111111100000000000000000000000 *
1+
1,
b0 4
09
0E
#160000
0!
0,
#165000
1!
0+
1,
