transformation_tb/transformation_tb.sim/sim_1/behav/xsim/dump.vcd
$date
   Wed Dec 13 21:57:22 2023
$end
$version
  2023.1
$end
$timescale
  1ps
$end
$scope module transformation_tb $end
$var reg 1 ! clk $end
$var reg 1 " rst $end
$var reg 32 # x_in [31:0] $end
$var reg 32 $ y_in [31:0] $end
$var reg 32 % z_in [31:0] $end
$var reg 1 & v_in $end
$var reg 32 ' x [31:0] $end
$var reg 32 ( y [31:0] $end
$var reg 32 ) z [31:0] $end
$var reg 32 * w [31:0] $end
$var reg 1 + v_out $end
$var reg 32 , distance [31:0] $end
$var reg 1 - ready_out $end
$var reg 1 . ready_in $end
$var reg 1 / obj_done_in $end
$var reg 1 0 obj_done_out $end
$scope module uut $end
$var wire 1 1 clk_in $end
$var wire 1 2 rst_in $end
$var wire 32 3 distance [31:0] $end
$var wire 32 4 scale [31:0] $end
$var wire 5 5 pitch [4:0] $end
$var wire 5 6 roll [4:0] $end
$var wire 5 7 yaw [4:0] $end
$var wire 1 8 obj_done_in $end
$var wire 1 9 valid_in $end
$var reg 1 + valid_out $end
$var reg 1 0 obj_done_out $end
$var reg 1 - ready_out $end
$var wire 1 : ready_in $end
$var reg 32 ; state $end
$var reg 32 < add_a_in [31:0] $end
$var reg 32 = add_b_in [31:0] $end
$var reg 32 > add_out [31:0] $end
$var reg 1 ? add_v_in $end
$var reg 1 @ add_v_out $end
$var reg 32 A mult_a_in [31:0] $end
$var reg 32 B mult_b_in [31:0] $end
$var reg 32 C mult_out [31:0] $end
$var reg 1 D mult_v_in $end
$var reg 1 E mult_v_out $end
$scope module add $end
$var wire 1 1 aclk $end
$var wire 1 F s_axis_a_tvalid $end
$var wire 1 G s_axis_a_tready $end
$var wire 32 H s_axis_a_tdata [31:0] $end
$var wire 1 I s_axis_b_tvalid $end
$var wire 1 J s_axis_b_tready $end
$var wire 32 K s_axis_b_tdata [31:0] $end
$var wire 1 L m_axis_result_tvalid $end
$var wire 1 M m_axis_result_tready $end
$var wire 32 N m_axis_result_tdata [31:0] $end
$upscope $end
$upscope $end
$upscope $end
$enddefinitions $end
#0
$dumpvars
0!
0"
bx #
bx $
bx %
x&
bx '
bx (
bx )
bx *
x+
bx ,
x-
x.
x/
x0
01
02
bx 3
bz 4
bz 5
bz 6
bz 7
x8
x9
x:
b0 ;
bx <
bx =
bx >
x?
0@
bx A
bx B
bx C
xD
xE
xF
1G
bx H
xI
1J
bx K
0L
1M
bx N
$end
#5000
1!
1"
0+
11
12
b0 >
b0 N
#10000
0!
01
#15000
1!
0"
11
02
#20000
0!
b111111100000000000000000000000 #
b111111100000000000000000000000 $
b111111100000000000000000000000 %
1&
b1000001001000000000000000000000 ,
1.
1/
10
01
b1000001001000000000000000000000 3
18
19
1:
#25000
1!
11
b1 ;
b111111100000000000000000000000 <
b1000001001000000000000000000000 =
1?
1F
b111111100000000000000000000000 H
1I
b1000001001000000000000000000000 K
#30000
0!
0&
01
09
#35000
1!
11
0?
0F
0I
#40000
0!
01
#45000
1!
11
#50000
0!
01
#55000
1!
11
#60000
0!
01
#65000
1!
11
#70000
0!
01
#75000
1!
11
#80000
0!
01
#85000
1!
11
#90000
0!
01
#95000
1!
11
b100000000000000000000000 >
b100000000000000000000000 N
#100000
0!
01
#105000
1!
11
b0 >
b0 N
#110000
0!
01
#115000
1!
11
#120000
0!
01
#125000
1!
11
#130000
0!
01
#135000
1!
11
#140000
0!
01
#145000
1!
11
b1000001001100000000000000000000 >
1@
1L
b1000001001100000000000000000000 N
#150000
0!
01
#155000
1!
b111111100000000000000000000000 '
b111111100000000000000000000000 (
b1000001001100000000000000000000 )
b111111100000000000000000000000 *
1+
11
b0 ;
0@
0L
#160000
0!
01
#165000
1!
0+
11
