tri_proj_tb/tri_proj_tb.sim/sim_1/behav/xsim/dump.vcd
$date
   Wed Dec 13 20:30:45 2023
$end
$version
  2023.1
$end
$timescale
  1ps
$end
$scope module tri_proj_tb $end
$var reg 1 ! clk $end
$var reg 1 " rst $end
$var reg 1 # obj_done $end
$var reg 1 $ obj_done_out $end
$var reg 32 % x_in [31:0] $end
$var reg 32 & y_in [31:0] $end
$var reg 32 ' z_in [31:0] $end
$var reg 1 ( v_in $end
$var reg 9 ) x [8:0] $end
$var reg 9 * y [8:0] $end
$var reg 9 + z [8:0] $end
$var reg 1 , v_out $end
$var reg 1 - ready_in $end
$var reg 1 . ready_out $end
$scope module uut $end
$var wire 1 / clk_in $end
$var wire 1 0 rst_in $end
$var wire 1 1 obj_done_in $end
$var wire 1 2 valid_in $end
$var reg 1 , valid_out $end
$var reg 1 $ obj_done_out $end
$var reg 1 . ready_out $end
$var wire 1 3 ready_in $end
$var reg 32 4 state $end
$var reg 32 5 rec_in [31:0] $end
$var reg 32 6 rec_out [31:0] $end
$var reg 1 7 rec_v_in $end
$var reg 1 8 rec_v_out $end
$var reg 32 9 mult_a_in [31:0] $end
$var reg 32 : mult_b_in [31:0] $end
$var reg 32 ; mult_out [31:0] $end
$var reg 1 < mult_v_in $end
$var reg 1 = mult_v_out $end
$var reg 32 > round_in [31:0] $end
$var reg 16 ? round_out [15:0] $end
$var reg 1 @ round_v_in $end
$var reg 1 A round_v_out $end
$var reg 32 B x_f [31:0] $end
$var reg 32 C y_f [31:0] $end
$var reg 32 D z_f [31:0] $end
$var reg 10 E shift [9:0] $end
$var reg 9 F x [8:0] $end
$var reg 9 G y [8:0] $end
$var reg 9 H z [8:0] $end
$scope module rec $end
$var wire 1 / aclk $end
$var wire 1 I s_axis_a_tvalid $end
$var wire 1 J s_axis_a_tready $end
$var wire 32 K s_axis_a_tdata [31:0] $end
$var wire 1 L m_axis_result_tvalid $end
$var wire 1 M m_axis_result_tready $end
$var wire 32 N m_axis_result_tdata [31:0] $end
$upscope $end
$scope module pro $end
$var wire 1 / aclk $end
$var wire 1 O s_axis_a_tvalid $end
$var wire 1 P s_axis_a_tready $end
$var wire 32 Q s_axis_a_tdata [31:0] $end
$var wire 1 R s_axis_b_tvalid $end
$var wire 1 S s_axis_b_tready $end
$var wire 32 T s_axis_b_tdata [31:0] $end
$var wire 1 U m_axis_result_tvalid $end
$var wire 1 V m_axis_result_tready $end
$var wire 32 W m_axis_result_tdata [31:0] $end
$upscope $end
$scope module round $end
$var wire 1 / aclk $end
$var wire 1 X s_axis_a_tvalid $end
$var wire 1 Y s_axis_a_tready $end
$var wire 32 Z s_axis_a_tdata [31:0] $end
$var wire 1 [ m_axis_result_tvalid $end
$var wire 1 \ m_axis_result_tready $end
$var wire 16 ] m_axis_result_tdata [15:0] $end
$upscope $end
$upscope $end
$upscope $end
$enddefinitions $end
#0
$dumpvars
0!
0"
x#
z$
bx %
bx &
bx '
x(
bx )
bx *
bx +
x,
x-
x.
0/
00
z1
x2
x3
b0 4
bx 5
b0 6
x7
08
bx 9
bx :
b0 ;
x<
0=
bx >
b0 ?
x@
0A
bx B
bx C
bx D
b10110100 E
bx F
bx G
bx H
xI
1J
bx K
0L
1M
b0 N
xO
1P
bx Q
xR
1S
bx T
0U
1V
b0 W
xX
1Y
bx Z
0[
1\
b0 ]
$end
#5000
1!
1"
0,
1/
10
b1111110100000000000000000000000 6
b1111110100000000000000000000000 N
#10000
0!
0/
#15000
1!
0"
1.
1/
00
#20000
0!
0/
#25000
1!
b0 %
b0 &
b1000001001000000000000000000000 '
1(
1-
0.
1/
12
13
b1 4
b1000001001000000000000000000000 9
b111110010011001100110011001101 :
b1000000000000000000000000000000 ;
1<
b1000001001000000000000000000000 D
1O
b1000001001000000000000000000000 Q
1R
b111110010011001100110011001101 T
b1000000000000000000000000000000 W
#30000
0!
0/
#35000
1!
0(
1/
02
0<
0O
0R
#40000
0!
0/
#45000
1!
1/
b100000000000000 ?
b110110100 E
b100000000000000 ]
#50000
0!
0/
#55000
1!
1/
b0 ?
b10110100 E
b0 ]
#60000
0!
0/
#65000
1!
1/
b0 ;
b0 W
#70000
0!
0/
#75000
1!
1/
#80000
0!
0/
#85000
1!
1/
#90000
0!
0/
#95000
1!
1/
#100000
0!
0/
#105000
1!
1/
#110000
0!
0/
#115000
1!
1/
b1000000000000000000000000000000 ;
1=
1U
b1000000000000000000000000000000 W
#120000
0!
0/
#125000
1!
1/
b10 4
b1000000000000000000000000000000 5
17
0=
1I
b1000000000000000000000000000000 K
0U
#130000
0!
0/
#135000
1!
1/
07
0I
#140000
0!
0/
#145000
1!
1/
#150000
0!
0/
#155000
1!
1/
#160000
0!
0/
#165000
1!
1/
#170000
0!
0/
#175000
1!
1/
#180000
0!
0/
#185000
1!
1/
#190000
0!
0/
#195000
1!
1/
#200000
0!
0/
#205000
1!
1/
#210000
0!
0/
#215000
1!
1/
#220000
0!
0/
#225000
1!
1/
#230000
0!
0/
#235000
1!
1/
#240000
0!
0/
#245000
1!
1/
#250000
0!
0/
#255000
1!
1/
#260000
0!
0/
#265000
1!
1/
#270000
0!
0/
#275000
1!
1/
#280000
0!
0/
#285000
1!
1/
b1111111100000000000000000000000 6
b1111111100000000000000000000000 N
#290000
0!
0/
#295000
1!
1/
#300000
0!
0/
#305000
1!
1/
#310000
0!
0/
#315000
1!
1/
#320000
0!
0/
#325000
1!
1/
#330000
0!
0/
#335000
1!
1/
#340000
0!
0/
#345000
1!
1/
#350000
0!
0/
#355000
1!
1/
#360000
0!
0/
#365000
1!
1/
#370000
0!
0/
#375000
1!
1/
#380000
0!
0/
#385000
1!
1/
#390000
0!
0/
#395000
1!
1/
#400000
0!
0/
#405000
1!
1/
#410000
0!
0/
#415000
1!
1/
#420000
0!
0/
#425000
1!
1/
b111111000000000000000000000000 6
18
1L
b111111000000000000000000000000 N
#430000
0!
0/
#435000
1!
1/
b11 4
08
b111111000000000000000000000000 9
b0 :
1<
0L
1O
b111111000000000000000000000000 Q
1R
b0 T
#440000
0!
0/
#445000
1!
1/
0<
0O
0R
#450000
0!
0/
#455000
1!
1/
#460000
0!
0/
#465000
1!
1/
#470000
0!
0/
#475000
1!
1/
#480000
0!
0/
#485000
1!
1/
#490000
0!
0/
#495000
1!
1/
#500000
0!
0/
#505000
1!
1/
#510000
0!
0/
#515000
1!
1/
#520000
0!
0/
#525000
1!
1/
b0 ;
1=
1U
b0 W
#530000
0!
0/
#535000
1!
1/
b100 4
1<
0=
b0 B
1O
1R
0U
#540000
0!
0/
#545000
1!
1/
0<
0O
0R
#550000
0!
0/
#555000
1!
1/
#560000
0!
0/
#565000
1!
1/
#570000
0!
0/
#575000
1!
1/
#580000
0!
0/
#585000
1!
1/
#590000
0!
0/
#595000
1!
1/
#600000
0!
0/
#605000
1!
1/
#610000
0!
0/
#615000
1!
1/
#620000
0!
0/
#625000
1!
1/
1=
1U
#630000
0!
0/
#635000
1!
1/
b101 4
b1000011001101000000000000000000 9
1<
0=
b0 C
1O
b1000011001101000000000000000000 Q
1R
0U
#640000
0!
0/
#645000
1!
1/
0<
0O
0R
#650000
0!
0/
#655000
1!
1/
#660000
0!
0/
#665000
1!
1/
#670000
0!
0/
#675000
1!
1/
#680000
0!
0/
#685000
1!
1/
#690000
0!
0/
#695000
1!
1/
#700000
0!
0/
#705000
1!
1/
#710000
0!
0/
#715000
1!
1/
#720000
0!
0/
#725000
1!
1/
1=
1U
#730000
0!
0/
#735000
1!
1/
b110 4
0=
b0 >
1@
0U
1X
b0 Z
#740000
0!
0/
#745000
1!
1/
0@
0X
#750000
0!
0/
#755000
1!
1/
#760000
0!
0/
#765000
1!
1/
#770000
0!
0/
#775000
1!
1/
#780000
0!
0/
#785000
1!
1/
#790000
0!
0/
#795000
1!
1/
#800000
0!
0/
#805000
1!
1/
1A
1[
#810000
0!
0/
#815000
1!
b10110100 )
1/
b111 4
1<
0A
b10110100 F
1O
1R
0[
#820000
0!
0/
#825000
1!
1/
0<
0O
0R
#830000
0!
0/
#835000
1!
1/
#840000
0!
0/
#845000
1!
1/
#850000
0!
0/
#855000
1!
1/
#860000
0!
0/
#865000
1!
1/
#870000
0!
0/
#875000
1!
1/
#880000
0!
0/
#885000
1!
1/
#890000
0!
0/
#895000
1!
1/
#900000
0!
0/
#905000
1!
1/
1=
1U
#910000
0!
0/
#915000
1!
1/
b1000 4
0=
1@
0U
1X
#920000
0!
0/
#925000
1!
1/
0@
0X
#930000
0!
0/
#935000
1!
1/
#940000
0!
0/
#945000
1!
1/
#950000
0!
0/
#955000
1!
1/
#960000
0!
0/
#965000
1!
1/
#970000
0!
0/
#975000
1!
1/
#980000
0!
0/
#985000
1!
1/
1A
1[
#990000
0!
0/
#995000
1!
b10110100 *
1/
b1001 4
b1000001001000000000000000000000 :
1<
0A
b10110100 G
1O
1R
b1000001001000000000000000000000 T
0[
#1000000
0!
0/
#1005000
1!
1/
0<
0O
0R
#1010000
0!
0/
#1015000
1!
1/
#1020000
0!
0/
#1025000
1!
1/
#1030000
0!
0/
#1035000
1!
1/
#1040000
0!
0/
#1045000
1!
1/
#1050000
0!
0/
#1055000
1!
1/
#1060000
0!
0/
#1065000
1!
1/
#1070000
0!
0/
#1075000
1!
1/
#1080000
0!
0/
#1085000
1!
1/
b1000100111000010000000000000000 ;
1=
1U
b1000100111000010000000000000000 W
#1090000
0!
0/
#1095000
1!
1/
b1010 4
0=
b1000100111000010000000000000000 >
1@
0U
1X
b1000100111000010000000000000000 Z
#1100000
0!
0/
#1105000
1!
1/
0@
0X
#1110000
0!
0/
#1115000
1!
1/
#1120000
0!
0/
#1125000
1!
1/
#1130000
0!
0/
#1135000
1!
1/
#1140000
0!
0/
#1145000
1!
1/
#1150000
0!
0/
#1155000
1!
1/
#1160000
0!
0/
#1165000
1!
1/
b111111111111111 ?
1A
b1010110011 E
1[
b111111111111111 ]
#1170000
0!
0/
#1175000
1!
b10110011 +
1,
1/
b0 4
0A
b10110011 H
0[
#1180000
0!
0/
#1185000
1!
0,
1.
1/
