get_vertices_tb/get_vertices_tb.sim/sim_1/behav/xsim/dump.vcd
$date
   Wed Dec 13 21:17:51 2023
$end
$version
  2023.1
$end
$timescale
  1ps
$end
$scope module get_vertices_tb $end
$var reg 1 ! clk $end
$var reg 1 " rst $end
$var reg 1 # go $end
$var reg 1 $ valid_out $end
$var reg 1 % obj_done $end
$var reg 1 & ready_in $end
$var reg 32 ' v1_x [31:0] $end
$var reg 32 ( v1_y [31:0] $end
$var reg 32 ) v1_z [31:0] $end
$var reg 32 * v2_x [31:0] $end
$var reg 32 + v2_y [31:0] $end
$var reg 32 , v2_z [31:0] $end
$var reg 32 - v3_x [31:0] $end
$var reg 32 . v3_y [31:0] $end
$var reg 32 / v3_z [31:0] $end
$scope module uut $end
$var wire 1 0 clk_in $end
$var wire 1 1 rst_in $end
$var reg 1 $ valid_out $end
$var reg 1 % obj_done $end
$var wire 1 2 ready_in $end
$var reg 32 3 state $end
$var reg 12 4 facet_read [11:0] $end
$var reg 12 5 vertex_read [11:0] $end
$var reg 12 6 f1 [11:0] $end
$var reg 12 7 f2 [11:0] $end
$var reg 12 8 f3 [11:0] $end
$var reg 32 9 x [31:0] $end
$var reg 32 : y [31:0] $end
$var reg 32 ; z [31:0] $end
$var reg 48 < facet_out [47:0] $end
$scope module vertex_inst $end
$var wire 12 = addra [11:0] $end
$var wire 96 > dina [95:0] $end
$var wire 1 0 clka $end
$var wire 1 ? wea $end
$var wire 1 @ ena $end
$var wire 1 1 rsta $end
$var wire 1 A regcea $end
$var wire 96 B douta [95:0] $end
$var reg 96 C ram_data [95:0] $end
$var reg 96 D \output_register.douta_reg  [95:0] $end
$upscope $end
$scope module facet_inst $end
$var wire 12 E addra [11:0] $end
$var wire 48 F dina [47:0] $end
$var wire 1 0 clka $end
$var wire 1 G wea $end
$var wire 1 H ena $end
$var wire 1 1 rsta $end
$var wire 1 I regcea $end
$var wire 48 J douta [47:0] $end
$var reg 48 K ram_data [47:0] $end
$var reg 48 L \output_register.douta_reg  [47:0] $end
$upscope $end
$upscope $end
$upscope $end
$enddefinitions $end
#0
$dumpvars
0!
0"
x#
x$
x%
x&
bx '
bx (
bx )
bx *
bx +
bx ,
bx -
bx .
bx /
00
01
x2
b0 3
bx 4
bx 5
b0 6
b0 7
b0 8
b0 9
b0 :
b0 ;
bx <
bx =
b0 >
0?
1@
1A
b0 B
b0 C
b0 D
bx E
b0 F
0G
1H
1I
b0 J
b0 K
b0 L
$end
#5000
1!
1"
0$
0%
10
11
b0 4
bx C
b0 E
bx K
#10000
0!
00
#15000
1!
0"
1&
10
01
12
b1 3
bx 6
bx 7
bx 8
bx 9
bx :
bx ;
bx B
bx D
bx J
bx L
#20000
0!
00
#25000
1!
10
b10 3
#30000
0!
00
#35000
1!
10
b11 3
#40000
0!
00
#45000
1!
10
b100 3
#50000
0!
00
#55000
1!
10
b101 3
#60000
0!
00
#65000
1!
10
b110 3
#70000
0!
00
#75000
1!
10
b111 3
#80000
0!
00
#85000
1!
10
b1000 3
#90000
0!
00
#95000
1!
10
b1001 3
#100000
0!
00
#105000
1!
1$
10
b1 3
b1 4
b1 E
#110000
0!
00
#115000
1!
0$
10
b10 3
#120000
0!
00
#125000
1!
10
b11 3
#130000
0!
00
#135000
1!
10
b100 3
#140000
0!
00
#145000
1!
10
b101 3
#150000
0!
00
#155000
1!
10
b110 3
#160000
0!
00
#165000
1!
10
b111 3
#170000
0!
00
#175000
1!
10
b1000 3
#180000
0!
00
#185000
1!
10
b1001 3
#190000
0!
00
#195000
1!
1$
10
b1 3
b10 4
b10 E
#200000
0!
00
#205000
1!
0$
10
b10 3
#210000
0!
00
#215000
1!
10
b11 3
#220000
0!
00
#225000
1!
10
b100 3
#230000
0!
00
#235000
1!
10
b101 3
#240000
0!
00
#245000
1!
10
b110 3
#250000
0!
00
#255000
1!
10
b111 3
#260000
0!
00
#265000
1!
10
b1000 3
#270000
0!
00
#275000
1!
10
b1001 3
#280000
0!
00
#285000
1!
1$
10
b1 3
b11 4
b11 E
#290000
0!
00
#295000
1!
0$
10
b10 3
#300000
0!
00
#305000
1!
10
b11 3
#310000
0!
00
#315000
1!
10
b100 3
#320000
0!
00
#325000
1!
10
b101 3
#330000
0!
00
#335000
1!
10
b110 3
#340000
0!
00
#345000
1!
10
b111 3
#350000
0!
00
#355000
1!
10
b1000 3
#360000
0!
00
#365000
1!
10
b1001 3
#370000
0!
00
#375000
1!
1$
10
b1 3
b100 4
b100 E
#380000
0!
00
#385000
1!
0$
10
b10 3
#390000
0!
00
#395000
1!
10
b11 3
#400000
0!
00
#405000
1!
10
b100 3
#410000
0!
00
#415000
1!
10
b101 3
#420000
0!
00
#425000
1!
10
b110 3
#430000
0!
00
#435000
1!
10
b111 3
#440000
0!
00
#445000
1!
10
b1000 3
#450000
0!
00
#455000
1!
10
b1001 3
#460000
0!
00
#465000
1!
1$
10
b1 3
b101 4
b101 E
#470000
0!
00
#475000
1!
0$
10
b10 3
#480000
0!
00
#485000
1!
10
b11 3
#490000
0!
00
#495000
1!
10
b100 3
#500000
0!
00
#505000
1!
10
b101 3
#510000
0!
00
#515000
1!
10
b110 3
#520000
0!
00
#525000
1!
10
b111 3
#530000
0!
00
#535000
1!
10
b1000 3
#540000
0!
00
#545000
1!
10
b1001 3
#550000
0!
00
#555000
1!
1$
10
b1 3
b110 4
b110 E
#560000
0!
00
#565000
1!
0$
10
b10 3
#570000
0!
00
#575000
1!
10
b11 3
#580000
0!
00
#585000
1!
10
b100 3
#590000
0!
00
#595000
1!
10
b101 3
#600000
0!
00
#605000
1!
10
b110 3
#610000
0!
00
#615000
1!
10
b111 3
#620000
0!
00
#625000
1!
10
b1000 3
#630000
0!
00
#635000
1!
10
b1001 3
#640000
0!
00
#645000
1!
1$
10
b1 3
b111 4
b111 E
#650000
0!
00
#655000
1!
0$
10
b10 3
#660000
0!
00
#665000
1!
10
b11 3
#670000
0!
00
#675000
1!
10
b100 3
#680000
0!
00
#685000
1!
10
b101 3
#690000
0!
00
#695000
1!
10
b110 3
#700000
0!
00
#705000
1!
10
b111 3
#710000
0!
00
#715000
1!
10
b1000 3
#720000
0!
00
#725000
1!
10
b1001 3
#730000
0!
00
#735000
1!
1$
10
b1 3
b1000 4
b1000 E
#740000
0!
00
#745000
1!
0$
10
b10 3
#750000
0!
00
#755000
1!
10
b11 3
#760000
0!
00
#765000
1!
10
b100 3
#770000
0!
00
#775000
1!
10
b101 3
#780000
0!
00
#785000
1!
10
b110 3
#790000
0!
00
#795000
1!
10
b111 3
#800000
0!
00
#805000
1!
10
b1000 3
#810000
0!
00
#815000
1!
10
b1001 3
#820000
0!
00
#825000
1!
1$
10
b1 3
b1001 4
b1001 E
#830000
0!
00
#835000
1!
0$
10
b10 3
#840000
0!
00
#845000
1!
10
b11 3
#850000
0!
00
#855000
1!
10
b100 3
#860000
0!
00
#865000
1!
10
b101 3
#870000
0!
00
#875000
1!
10
b110 3
#880000
0!
00
#885000
1!
10
b111 3
#890000
0!
00
#895000
1!
10
b1000 3
#900000
0!
00
#905000
1!
10
b1001 3
#910000
0!
00
#915000
1!
1$
10
b1 3
b1010 4
b1010 E
#920000
0!
00
#925000
1!
0$
10
b10 3
#930000
0!
00
#935000
1!
10
b11 3
#940000
0!
00
#945000
1!
10
b100 3
#950000
0!
00
#955000
1!
10
b101 3
#960000
0!
00
#965000
1!
10
b110 3
#970000
0!
00
#975000
1!
10
b111 3
#980000
0!
00
#985000
1!
10
b1000 3
#990000
0!
00
#995000
1!
10
b1001 3
#1000000
0!
00
#1005000
1!
1$
10
b1 3
b1011 4
b1011 E
#1010000
0!
00
#1015000
1!
0$
10
b10 3
#1020000
0!
00
#1025000
1!
10
b11 3
#1030000
0!
00
#1035000
1!
10
b100 3
#1040000
0!
00
#1045000
1!
10
b101 3
#1050000
0!
00
#1055000
1!
10
b110 3
#1060000
0!
00
#1065000
1!
10
b111 3
#1070000
0!
00
#1075000
1!
10
b1000 3
#1080000
0!
00
#1085000
1!
10
b1001 3
#1090000
0!
00
#1095000
1!
1$
1%
10
b0 3
#1100000
0!
00
#1105000
1!
0$
0%
10
b1 3
b0 4
b0 E
#1110000
0!
00
#1115000
1!
10
b10 3
#1120000
0!
00
#1125000
1!
10
b11 3
#1130000
0!
00
#1135000
1!
10
b100 3
#1140000
0!
00
#1145000
1!
10
b101 3
#1150000
0!
00
#1155000
1!
10
b110 3
#1160000
0!
00
#1165000
1!
10
b111 3
#1170000
0!
00
#1175000
1!
10
b1000 3
#1180000
0!
00
#1185000
1!
10
b1001 3
#1190000
0!
00
#1195000
1!
1$
10
b1 3
b1 4
b1 E
#1200000
0!
00
#1205000
1!
0$
10
b10 3
#1210000
0!
00
#1215000
1!
10
b11 3
#1220000
0!
00
#1225000
1!
10
b100 3
#1230000
0!
00
#1235000
1!
10
b101 3
#1240000
0!
00
#1245000
1!
10
b110 3
#1250000
0!
00
#1255000
1!
10
b111 3
#1260000
0!
00
#1265000
1!
10
b1000 3
#1270000
0!
00
#1275000
1!
10
b1001 3
#1280000
0!
00
#1285000
1!
1$
10
b1 3
b10 4
b10 E
#1290000
0!
00
#1295000
1!
0$
10
b10 3
#1300000
0!
00
#1305000
1!
10
b11 3
#1310000
0!
00
#1315000
1!
10
b100 3
#1320000
0!
00
#1325000
1!
10
b101 3
#1330000
0!
00
#1335000
1!
10
b110 3
#1340000
0!
00
#1345000
1!
10
b111 3
#1350000
0!
00
#1355000
1!
10
b1000 3
#1360000
0!
00
#1365000
1!
10
b1001 3
#1370000
0!
00
#1375000
1!
1$
10
b1 3
b11 4
b11 E
#1380000
0!
00
#1385000
1!
0$
10
b10 3
#1390000
0!
00
#1395000
1!
10
b11 3
#1400000
0!
00
#1405000
1!
10
b100 3
#1410000
0!
00
#1415000
1!
10
b101 3
#1420000
0!
00
#1425000
1!
10
b110 3
#1430000
0!
00
#1435000
1!
10
b111 3
#1440000
0!
00
#1445000
1!
10
b1000 3
#1450000
0!
00
#1455000
1!
10
b1001 3
#1460000
0!
00
#1465000
1!
1$
10
b1 3
b100 4
b100 E
#1470000
0!
00
#1475000
1!
0$
10
b10 3
#1480000
0!
00
#1485000
1!
10
b11 3
#1490000
0!
00
#1495000
1!
10
b100 3
#1500000
0!
00
#1505000
1!
10
b101 3
#1510000
0!
00
#1515000
1!
10
b110 3
#1520000
0!
00
#1525000
1!
10
b111 3
#1530000
0!
00
#1535000
1!
10
b1000 3
#1540000
0!
00
#1545000
1!
10
b1001 3
#1550000
0!
00
#1555000
1!
1$
10
b1 3
b101 4
b101 E
#1560000
0!
00
#1565000
1!
0$
10
b10 3
#1570000
0!
00
#1575000
1!
10
b11 3
#1580000
0!
00
#1585000
1!
10
b100 3
#1590000
0!
00
#1595000
1!
10
b101 3
#1600000
0!
00
#1605000
1!
10
b110 3
#1610000
0!
00
#1615000
1!
10
b111 3
#1620000
0!
00
#1625000
1!
10
b1000 3
#1630000
0!
00
#1635000
1!
10
b1001 3
#1640000
0!
00
#1645000
1!
1$
10
b1 3
b110 4
b110 E
#1650000
0!
00
#1655000
1!
0$
10
b10 3
#1660000
0!
00
#1665000
1!
10
b11 3
#1670000
0!
00
#1675000
1!
10
b100 3
#1680000
0!
00
#1685000
1!
10
b101 3
#1690000
0!
00
#1695000
1!
10
b110 3
#1700000
0!
00
#1705000
1!
10
b111 3
#1710000
0!
00
#1715000
1!
10
b1000 3
#1720000
0!
00
#1725000
1!
10
b1001 3
#1730000
0!
00
#1735000
1!
1$
10
b1 3
b111 4
b111 E
#1740000
0!
00
#1745000
1!
0$
10
b10 3
#1750000
0!
00
#1755000
1!
10
b11 3
#1760000
0!
00
#1765000
1!
10
b100 3
#1770000
0!
00
#1775000
1!
10
b101 3
#1780000
0!
00
#1785000
1!
10
b110 3
#1790000
0!
00
#1795000
1!
10
b111 3
#1800000
0!
00
#1805000
1!
10
b1000 3
#1810000
0!
00
#1815000
1!
10
b1001 3
#1820000
0!
00
#1825000
1!
1$
10
b1 3
b1000 4
b1000 E
#1830000
0!
00
#1835000
1!
0$
10
b10 3
#1840000
0!
00
#1845000
1!
10
b11 3
#1850000
0!
00
#1855000
1!
10
b100 3
#1860000
0!
00
#1865000
1!
10
b101 3
#1870000
0!
00
#1875000
1!
10
b110 3
#1880000
0!
00
#1885000
1!
10
b111 3
#1890000
0!
00
#1895000
1!
10
b1000 3
#1900000
0!
00
#1905000
1!
10
b1001 3
#1910000
0!
00
#1915000
1!
1$
10
b1 3
b1001 4
b1001 E
#1920000
0!
00
#1925000
1!
0$
10
b10 3
#1930000
0!
00
#1935000
1!
10
b11 3
#1940000
0!
00
#1945000
1!
10
b100 3
#1950000
0!
00
#1955000
1!
10
b101 3
#1960000
0!
00
#1965000
1!
10
b110 3
#1970000
0!
00
#1975000
1!
10
b111 3
#1980000
0!
00
#1985000
1!
10
b1000 3
#1990000
0!
00
#1995000
1!
10
b1001 3
#2000000
0!
00
#2005000
1!
1$
10
b1 3
b1010 4
b1010 E
#2010000
0!
00
#2015000
1!
0$
10
b10 3
#2020000
0!
00
#2025000
1!
10
b11 3
#2030000
0!
00
#2035000
1!
10
b100 3
#2040000
0!
00
#2045000
1!
10
b101 3
#2050000
0!
00
#2055000
1!
10
b110 3
#2060000
0!
00
#2065000
1!
10
b111 3
#2070000
0!
00
#2075000
1!
10
b1000 3
#2080000
0!
00
#2085000
1!
10
b1001 3
#2090000
0!
00
#2095000
1!
1$
10
b1 3
b1011 4
b1011 E
#2100000
0!
00
#2105000
1!
0$
10
b10 3
#2110000
0!
00
#2115000
1!
10
b11 3
#2120000
0!
00
#2125000
1!
10
b100 3
#2130000
0!
00
#2135000
1!
10
b101 3
#2140000
0!
00
#2145000
1!
10
b110 3
#2150000
0!
00
#2155000
1!
10
b111 3
#2160000
0!
00
#2165000
1!
10
b1000 3
#2170000
0!
00
#2175000
1!
10
b1001 3
#2180000
0!
00
#2185000
1!
1$
1%
10
b0 3
#2190000
0!
00
#2195000
1!
0$
0%
10
b1 3
b0 4
b0 E
#2200000
0!
00
#2205000
1!
10
b10 3
#2210000
0!
00
#2215000
1!
10
b11 3
#2220000
0!
00
#2225000
1!
10
b100 3
#2230000
0!
00
#2235000
1!
10
b101 3
#2240000
0!
00
#2245000
1!
10
b110 3
#2250000
0!
00
#2255000
1!
10
b111 3
#2260000
0!
00
#2265000
1!
10
b1000 3
#2270000
0!
00
#2275000
1!
10
b1001 3
#2280000
0!
00
#2285000
1!
1$
10
b1 3
b1 4
b1 E
#2290000
0!
00
#2295000
1!
0$
10
b10 3
#2300000
0!
00
#2305000
1!
10
b11 3
#2310000
0!
00
#2315000
1!
10
b100 3
#2320000
0!
00
#2325000
1!
10
b101 3
#2330000
0!
00
#2335000
1!
10
b110 3
#2340000
0!
00
#2345000
1!
10
b111 3
#2350000
0!
00
#2355000
1!
10
b1000 3
#2360000
0!
00
#2365000
1!
10
b1001 3
#2370000
0!
00
#2375000
1!
1$
10
b1 3
b10 4
b10 E
#2380000
0!
00
#2385000
1!
0$
10
b10 3
#2390000
0!
00
#2395000
1!
10
b11 3
#2400000
0!
00
#2405000
1!
10
b100 3
#2410000
0!
00
#2415000
1!
10
b101 3
#2420000
0!
00
#2425000
1!
10
b110 3
#2430000
0!
00
#2435000
1!
10
b111 3
#2440000
0!
00
#2445000
1!
10
b1000 3
#2450000
0!
00
#2455000
1!
10
b1001 3
#2460000
0!
00
#2465000
1!
1$
10
b1 3
b11 4
b11 E
#2470000
0!
00
#2475000
1!
0$
10
b10 3
#2480000
0!
00
#2485000
1!
10
b11 3
#2490000
0!
00
#2495000
1!
10
b100 3
#2500000
0!
00
#2505000
1!
10
b101 3
#2510000
0!
00
#2515000
1!
10
b110 3
#2520000
0!
00
#2525000
1!
10
b111 3
#2530000
0!
00
#2535000
1!
10
b1000 3
#2540000
0!
00
#2545000
1!
10
b1001 3
#2550000
0!
00
#2555000
1!
1$
10
b1 3
b100 4
b100 E
#2560000
0!
00
#2565000
1!
0$
10
b10 3
#2570000
0!
00
#2575000
1!
10
b11 3
#2580000
0!
00
#2585000
1!
10
b100 3
#2590000
0!
00
#2595000
1!
10
b101 3
#2600000
0!
00
#2605000
1!
10
b110 3
#2610000
0!
00
#2615000
1!
10
b111 3
#2620000
0!
00
#2625000
1!
10
b1000 3
#2630000
0!
00
#2635000
1!
10
b1001 3
#2640000
0!
00
#2645000
1!
1$
10
b1 3
b101 4
b101 E
#2650000
0!
00
#2655000
1!
0$
10
b10 3
#2660000
0!
00
#2665000
1!
10
b11 3
#2670000
0!
00
#2675000
1!
10
b100 3
#2680000
0!
00
#2685000
1!
10
b101 3
#2690000
0!
00
#2695000
1!
10
b110 3
#2700000
0!
00
#2705000
1!
10
b111 3
#2710000
0!
00
#2715000
1!
10
b1000 3
#2720000
0!
00
#2725000
1!
10
b1001 3
#2730000
0!
00
#2735000
1!
1$
10
b1 3
b110 4
b110 E
#2740000
0!
00
#2745000
1!
0$
10
b10 3
#2750000
0!
00
#2755000
1!
10
b11 3
#2760000
0!
00
#2765000
1!
10
b100 3
#2770000
0!
00
#2775000
1!
10
b101 3
#2780000
0!
00
#2785000
1!
10
b110 3
#2790000
0!
00
#2795000
1!
10
b111 3
#2800000
0!
00
#2805000
1!
10
b1000 3
#2810000
0!
00
#2815000
1!
10
b1001 3
#2820000
0!
00
#2825000
1!
1$
10
b1 3
b111 4
b111 E
#2830000
0!
00
#2835000
1!
0$
10
b10 3
#2840000
0!
00
#2845000
1!
10
b11 3
#2850000
0!
00
#2855000
1!
10
b100 3
#2860000
0!
00
#2865000
1!
10
b101 3
#2870000
0!
00
#2875000
1!
10
b110 3
#2880000
0!
00
#2885000
1!
10
b111 3
#2890000
0!
00
#2895000
1!
10
b1000 3
#2900000
0!
00
#2905000
1!
10
b1001 3
#2910000
0!
00
#2915000
1!
1$
10
b1 3
b1000 4
b1000 E
#2920000
0!
00
#2925000
1!
0$
10
b10 3
#2930000
0!
00
#2935000
1!
10
b11 3
#2940000
0!
00
#2945000
1!
10
b100 3
#2950000
0!
00
#2955000
1!
10
b101 3
#2960000
0!
00
#2965000
1!
10
b110 3
#2970000
0!
00
#2975000
1!
10
b111 3
#2980000
0!
00
#2985000
1!
10
b1000 3
#2990000
0!
00
#2995000
1!
10
b1001 3
#3000000
0!
00
#3005000
1!
1$
10
b1 3
b1001 4
b1001 E
#3010000
0!
00
#3015000
1!
0$
10
b10 3
#3020000
0!
00
#3025000
1!
10
b11 3
#3030000
0!
00
#3035000
1!
10
b100 3
#3040000
0!
00
#3045000
1!
10
b101 3
#3050000
0!
00
#3055000
1!
10
b110 3
#3060000
0!
00
#3065000
1!
10
b111 3
#3070000
0!
00
#3075000
1!
10
b1000 3
#3080000
0!
00
#3085000
1!
10
b1001 3
#3090000
0!
00
#3095000
1!
1$
10
b1 3
b1010 4
b1010 E
#3100000
0!
00
#3105000
1!
0$
10
b10 3
#3110000
0!
00
#3115000
1!
10
b11 3
#3120000
0!
00
#3125000
1!
10
b100 3
#3130000
0!
00
#3135000
1!
10
b101 3
#3140000
0!
00
#3145000
1!
10
b110 3
#3150000
0!
00
#3155000
1!
10
b111 3
#3160000
0!
00
#3165000
1!
10
b1000 3
#3170000
0!
00
#3175000
1!
10
b1001 3
#3180000
0!
00
#3185000
1!
1$
10
b1 3
b1011 4
b1011 E
#3190000
0!
00
#3195000
1!
0$
10
b10 3
#3200000
0!
00
#3205000
1!
10
b11 3
#3210000
0!
00
#3215000
1!
10
b100 3
#3220000
0!
00
#3225000
1!
10
b101 3
#3230000
0!
00
#3235000
1!
10
b110 3
#3240000
0!
00
#3245000
1!
10
b111 3
#3250000
0!
00
#3255000
1!
10
b1000 3
#3260000
0!
00
#3265000
1!
10
b1001 3
#3270000
0!
00
#3275000
1!
1$
1%
10
b0 3
#3280000
0!
00
#3285000
1!
0$
0%
10
b1 3
b0 4
b0 E
#3290000
0!
00
#3295000
1!
10
b10 3
#3300000
0!
00
#3305000
1!
10
b11 3
#3310000
0!
00
#3315000
1!
10
b100 3
#3320000
0!
00
#3325000
1!
10
b101 3
#3330000
0!
00
#3335000
1!
10
b110 3
#3340000
0!
00
#3345000
1!
10
b111 3
#3350000
0!
00
#3355000
1!
10
b1000 3
#3360000
0!
00
#3365000
1!
10
b1001 3
#3370000
0!
00
#3375000
1!
1$
10
b1 3
b1 4
b1 E
#3380000
0!
00
#3385000
1!
0$
10
b10 3
#3390000
0!
00
#3395000
1!
10
b11 3
#3400000
0!
00
#3405000
1!
10
b100 3
#3410000
0!
00
#3415000
1!
10
b101 3
#3420000
0!
00
#3425000
1!
10
b110 3
#3430000
0!
00
#3435000
1!
10
b111 3
#3440000
0!
00
#3445000
1!
10
b1000 3
#3450000
0!
00
#3455000
1!
10
b1001 3
#3460000
0!
00
#3465000
1!
1$
10
b1 3
b10 4
b10 E
#3470000
0!
00
#3475000
1!
0$
10
b10 3
#3480000
0!
00
#3485000
1!
10
b11 3
#3490000
0!
00
#3495000
1!
10
b100 3
#3500000
0!
00
#3505000
1!
10
b101 3
#3510000
0!
00
#3515000
1!
10
b110 3
#3520000
0!
00
#3525000
1!
10
b111 3
#3530000
0!
00
#3535000
1!
10
b1000 3
#3540000
0!
00
#3545000
1!
10
b1001 3
#3550000
0!
00
#3555000
1!
1$
10
b1 3
b11 4
b11 E
#3560000
0!
00
#3565000
1!
0$
10
b10 3
#3570000
0!
00
#3575000
1!
10
b11 3
#3580000
0!
00
#3585000
1!
10
b100 3
#3590000
0!
00
#3595000
1!
10
b101 3
#3600000
0!
00
#3605000
1!
10
b110 3
#3610000
0!
00
#3615000
1!
10
b111 3
#3620000
0!
00
#3625000
1!
10
b1000 3
#3630000
0!
00
#3635000
1!
10
b1001 3
#3640000
0!
00
#3645000
1!
1$
10
b1 3
b100 4
b100 E
#3650000
0!
00
#3655000
1!
0$
10
b10 3
#3660000
0!
00
#3665000
1!
10
b11 3
#3670000
0!
00
#3675000
1!
10
b100 3
#3680000
0!
00
#3685000
1!
10
b101 3
#3690000
0!
00
#3695000
1!
10
b110 3
#3700000
0!
00
#3705000
1!
10
b111 3
#3710000
0!
00
#3715000
1!
10
b1000 3
#3720000
0!
00
#3725000
1!
10
b1001 3
#3730000
0!
00
#3735000
1!
1$
10
b1 3
b101 4
b101 E
#3740000
0!
00
#3745000
1!
0$
10
b10 3
#3750000
0!
00
#3755000
1!
10
b11 3
#3760000
0!
00
#3765000
1!
10
b100 3
#3770000
0!
00
#3775000
1!
10
b101 3
#3780000
0!
00
#3785000
1!
10
b110 3
#3790000
0!
00
#3795000
1!
10
b111 3
#3800000
0!
00
#3805000
1!
10
b1000 3
#3810000
0!
00
#3815000
1!
10
b1001 3
#3820000
0!
00
#3825000
1!
1$
10
b1 3
b110 4
b110 E
#3830000
0!
00
#3835000
1!
0$
10
b10 3
#3840000
0!
00
#3845000
1!
10
b11 3
#3850000
0!
00
#3855000
1!
10
b100 3
#3860000
0!
00
#3865000
1!
10
b101 3
#3870000
0!
00
#3875000
1!
10
b110 3
#3880000
0!
00
#3885000
1!
10
b111 3
#3890000
0!
00
#3895000
1!
10
b1000 3
#3900000
0!
00
#3905000
1!
10
b1001 3
#3910000
0!
00
#3915000
1!
1$
10
b1 3
b111 4
b111 E
#3920000
0!
00
#3925000
1!
0$
10
b10 3
#3930000
0!
00
#3935000
1!
10
b11 3
#3940000
0!
00
#3945000
1!
10
b100 3
#3950000
0!
00
#3955000
1!
10
b101 3
#3960000
0!
00
#3965000
1!
10
b110 3
#3970000
0!
00
#3975000
1!
10
b111 3
#3980000
0!
00
#3985000
1!
10
b1000 3
#3990000
0!
00
#3995000
1!
10
b1001 3
#4000000
0!
00
#4005000
1!
1$
10
b1 3
b1000 4
b1000 E
#4010000
0!
00
#4015000
1!
0$
10
b10 3
#4020000
0!
00
#4025000
1!
10
b11 3
#4030000
0!
00
#4035000
1!
10
b100 3
#4040000
0!
00
#4045000
1!
10
b101 3
#4050000
0!
00
#4055000
1!
10
b110 3
#4060000
0!
00
#4065000
1!
10
b111 3
#4070000
0!
00
#4075000
1!
10
b1000 3
#4080000
0!
00
#4085000
1!
10
b1001 3
#4090000
0!
00
#4095000
1!
1$
10
b1 3
b1001 4
b1001 E
#4100000
0!
00
#4105000
1!
0$
10
b10 3
#4110000
0!
00
#4115000
1!
10
b11 3
#4120000
0!
00
#4125000
1!
10
b100 3
#4130000
0!
00
#4135000
1!
10
b101 3
#4140000
0!
00
#4145000
1!
10
b110 3
#4150000
0!
00
#4155000
1!
10
b111 3
#4160000
0!
00
#4165000
1!
10
b1000 3
#4170000
0!
00
#4175000
1!
10
b1001 3
#4180000
0!
00
#4185000
1!
1$
10
b1 3
b1010 4
b1010 E
#4190000
0!
00
#4195000
1!
0$
10
b10 3
#4200000
0!
00
#4205000
1!
10
b11 3
#4210000
0!
00
#4215000
1!
10
b100 3
#4220000
0!
00
#4225000
1!
10
b101 3
#4230000
0!
00
#4235000
1!
10
b110 3
#4240000
0!
00
#4245000
1!
10
b111 3
#4250000
0!
00
#4255000
1!
10
b1000 3
#4260000
0!
00
#4265000
1!
10
b1001 3
#4270000
0!
00
#4275000
1!
1$
10
b1 3
b1011 4
b1011 E
#4280000
0!
00
#4285000
1!
0$
10
b10 3
#4290000
0!
00
#4295000
1!
10
b11 3
#4300000
0!
00
#4305000
1!
10
b100 3
#4310000
0!
00
#4315000
1!
10
b101 3
#4320000
0!
00
#4325000
1!
10
b110 3
#4330000
0!
00
#4335000
1!
10
b111 3
#4340000
0!
00
#4345000
1!
10
b1000 3
#4350000
0!
00
#4355000
1!
10
b1001 3
#4360000
0!
00
#4365000
1!
1$
1%
10
b0 3
#4370000
0!
00
#4375000
1!
0$
0%
10
b1 3
b0 4
b0 E
#4380000
0!
00
#4385000
1!
10
b10 3
#4390000
0!
00
#4395000
1!
10
b11 3
#4400000
0!
00
#4405000
1!
10
b100 3
#4410000
0!
00
#4415000
1!
10
b101 3
#4420000
0!
00
#4425000
1!
10
b110 3
#4430000
0!
00
#4435000
1!
10
b111 3
#4440000
0!
00
#4445000
1!
10
b1000 3
#4450000
0!
00
#4455000
1!
10
b1001 3
#4460000
0!
00
#4465000
1!
1$
10
b1 3
b1 4
b1 E
#4470000
0!
00
#4475000
1!
0$
10
b10 3
#4480000
0!
00
#4485000
1!
10
b11 3
#4490000
0!
00
#4495000
1!
10
b100 3
#4500000
0!
00
#4505000
1!
10
b101 3
#4510000
0!
00
#4515000
1!
10
b110 3
#4520000
0!
00
#4525000
1!
10
b111 3
#4530000
0!
00
#4535000
1!
10
b1000 3
#4540000
0!
00
#4545000
1!
10
b1001 3
#4550000
0!
00
#4555000
1!
1$
10
b1 3
b10 4
b10 E
#4560000
0!
00
#4565000
1!
0$
10
b10 3
#4570000
0!
00
#4575000
1!
10
b11 3
#4580000
0!
00
#4585000
1!
10
b100 3
#4590000
0!
00
#4595000
1!
10
b101 3
#4600000
0!
00
#4605000
1!
10
b110 3
#4610000
0!
00
#4615000
1!
10
b111 3
#4620000
0!
00
#4625000
1!
10
b1000 3
#4630000
0!
00
#4635000
1!
10
b1001 3
#4640000
0!
00
#4645000
1!
1$
10
b1 3
b11 4
b11 E
#4650000
0!
00
#4655000
1!
0$
10
b10 3
#4660000
0!
00
#4665000
1!
10
b11 3
#4670000
0!
00
#4675000
1!
10
b100 3
#4680000
0!
00
#4685000
1!
10
b101 3
#4690000
0!
00
#4695000
1!
10
b110 3
#4700000
0!
00
#4705000
1!
10
b111 3
#4710000
0!
00
#4715000
1!
10
b1000 3
#4720000
0!
00
#4725000
1!
10
b1001 3
#4730000
0!
00
#4735000
1!
1$
10
b1 3
b100 4
b100 E
#4740000
0!
00
#4745000
1!
0$
10
b10 3
#4750000
0!
00
#4755000
1!
10
b11 3
#4760000
0!
00
#4765000
1!
10
b100 3
#4770000
0!
00
#4775000
1!
10
b101 3
#4780000
0!
00
#4785000
1!
10
b110 3
#4790000
0!
00
#4795000
1!
10
b111 3
#4800000
0!
00
#4805000
1!
10
b1000 3
#4810000
0!
00
#4815000
1!
10
b1001 3
#4820000
0!
00
#4825000
1!
1$
10
b1 3
b101 4
b101 E
#4830000
0!
00
#4835000
1!
0$
10
b10 3
#4840000
0!
00
#4845000
1!
10
b11 3
#4850000
0!
00
#4855000
1!
10
b100 3
#4860000
0!
00
#4865000
1!
10
b101 3
#4870000
0!
00
#4875000
1!
10
b110 3
#4880000
0!
00
#4885000
1!
10
b111 3
#4890000
0!
00
#4895000
1!
10
b1000 3
#4900000
0!
00
#4905000
1!
10
b1001 3
#4910000
0!
00
#4915000
1!
1$
10
b1 3
b110 4
b110 E
#4920000
0!
00
#4925000
1!
0$
10
b10 3
#4930000
0!
00
#4935000
1!
10
b11 3
#4940000
0!
00
#4945000
1!
10
b100 3
#4950000
0!
00
#4955000
1!
10
b101 3
#4960000
0!
00
#4965000
1!
10
b110 3
#4970000
0!
00
#4975000
1!
10
b111 3
#4980000
0!
00
#4985000
1!
10
b1000 3
#4990000
0!
00
#4995000
1!
10
b1001 3
#5000000
0!
00
#5005000
1!
1$
10
b1 3
b111 4
b111 E
#5010000
0!
00
#5015000
1!
0$
10
b10 3
#5020000
0!
00
#5025000
1!
10
b11 3
#5030000
0!
00
#5035000
1!
10
b100 3
#5040000
0!
00
#5045000
1!
10
b101 3
#5050000
0!
00
#5055000
1!
10
b110 3
#5060000
0!
00
#5065000
1!
10
b111 3
#5070000
0!
00
#5075000
1!
10
b1000 3
#5080000
0!
00
#5085000
1!
10
b1001 3
#5090000
0!
00
#5095000
1!
1$
10
b1 3
b1000 4
b1000 E
#5100000
0!
00
#5105000
1!
0$
10
b10 3
#5110000
0!
00
#5115000
1!
10
b11 3
#5120000
0!
00
