get_vertices_tb/get_vertices_tb.sim/sim_1/behav/xsim/get_vertices_tb.vcd
$date
   Wed Dec 13 21:17:51 2023
$end
$version
  2023.1
$end
$timescale
  1ps
$end
$scope module get_vertices_tb $end
$var reg 1 ! clk $end
$var reg 1 " rst $end
$var reg 1 # go $end
$var reg 1 $ valid_out $end
$var reg 1 % obj_done $end
$var reg 1 & ready_in $end
$var reg 32 ' v1_x [31:0] $end
$var reg 32 ( v1_y [31:0] $end
$var reg 32 ) v1_z [31:0] $end
$var reg 32 * v2_x [31:0] $end
$var reg 32 + v2_y [31:0] $end
$var reg 32 , v2_z [31:0] $end
$var reg 32 - v3_x [31:0] $end
$var reg 32 . v3_y [31:0] $end
$var reg 32 / v3_z [31:0] $end
$scope module uut $end
$var wire 1 0 clk_in $end
$var wire 1 1 rst_in $end
$var reg 1 $ valid_out $end
$var reg 1 % obj_done $end
$var wire 1 2 ready_in $end
$var reg 32 3 state $end
$var reg 12 4 facet_read [11:0] $end
$var reg 12 5 vertex_read [11:0] $end
$var reg 12 6 f1 [11:0] $end
$var reg 12 7 f2 [11:0] $end
$var reg 12 8 f3 [11:0] $end
$var reg 32 9 x [31:0] $end
$var reg 32 : y [31:0] $end
$var reg 32 ; z [31:0] $end
$var reg 48 < facet_out [47:0] $end
$scope module vertex_inst $end
$var wire 12 = addra [11:0] $end
$var wire 96 > dina [95:0] $end
$var wire 1 0 clka $end
$var wire 1 ? wea $end
$var wire 1 @ ena $end
$var wire 1 1 rsta $end
$var wire 1 A regcea $end
$var wire 96 B douta [95:0] $end
$var reg 96 C ram_data [95:0] $end
$var reg 96 D \output_register.douta_reg  [95:0] $end
$upscope $end
$scope module facet_inst $end
$var wire 12 E addra [11:0] $end
$var wire 48 F dina [47:0] $end
$var wire 1 0 clka $end
$var wire 1 G wea $end
$var wire 1 H ena $end
$var wire 1 1 rsta $end
$var wire 1 I regcea $end
$var wire 48 J douta [47:0] $end
$var reg 48 K ram_data [47:0] $end
$var reg 48 L \output_register.douta_reg  [47:0] $end
$upscope $end
$upscope $end
$upscope $end
$enddefinitions $end
#0
$dumpvars
0!
0"
x#
x$
x%
x&
bx '
bx (
bx )
bx *
bx +
bx ,
bx -
bx .
bx /
00
01
x2
b0 3
bx 4
bx 5
b0 6
b0 7
b0 8
b0 9
b0 :
b0 ;
bx <
bx =
b0 >
0?
1@
1A
b0 B
b0 C
b0 D
bx E
b0 F
0G
1H
1I
b0 J
b0 K
b0 L
$end
#5000
1!
1"
0$
0%
10
11
b0 4
bx C
b0 E
bx K
#10000
0!
00
#15000
1!
0"
1&
10
01
12
b1 3
bx 6
bx 7
bx 8
bx 9
bx :
bx ;
bx B
bx D
bx J
bx L
#20000
0!
00
#25000
1!
10
b10 3
#30000
0!
00
#35000
1!
10
b11 3
#40000
0!
00
#45000
1!
10
b100 3
#50000
0!
00
#55000
1!
10
b101 3
#60000
0!
00
#65000
1!
10
b110 3
#70000
0!
00
#75000
1!
10
b111 3
#80000
0!
00
#85000
1!
10
b1000 3
#90000
0!
00
#95000
1!
10
b1001 3
#100000
0!
00
#105000
1!
1$
10
b1 3
b1 4
b1 E
#110000
0!
00
#115000
1!
0$
10
b10 3
#120000
0!
00
#125000
1!
10
b11 3
#130000
0!
00
#135000
1!
10
b100 3
#140000
0!
00
#145000
1!
10
b101 3
#150000
0!
00
#155000
1!
10
b110 3
#160000
0!
00
#165000
1!
10
b111 3
#170000
0!
00
#175000
1!
10
b1000 3
#180000
0!
00
#185000
1!
10
b1001 3
#190000
0!
00
#195000
1!
1$
10
b1 3
b10 4
b10 E
#200000
0!
00
#205000
1!
0$
10
b10 3
#210000
0!
00
#215000
1!
10
b11 3
#220000
0!
00
#225000
1!
10
b100 3
#230000
0!
00
#235000
1!
10
b101 3
#240000
0!
00
#245000
1!
10
b110 3
#250000
0!
00
#255000
1!
10
b111 3
#260000
0!
00
#265000
1!
10
b1000 3
#270000
0!
00
#275000
1!
10
b1001 3
#280000
0!
00
#285000
1!
1$
10
b1 3
b11 4
b11 E
#290000
0!
00
#295000
1!
0$
10
b10 3
#300000
0!
00
#305000
1!
10
b11 3
#310000
0!
00
#315000
1!
10
b100 3
#320000
0!
00
#325000
1!
10
b101 3
#330000
0!
00
#335000
1!
10
b110 3
#340000
0!
00
#345000
1!
10
b111 3
#350000
0!
00
#355000
1!
10
b1000 3
#360000
0!
00
#365000
1!
10
b1001 3
#370000
0!
00
#375000
1!
1$
10
b1 3
b100 4
b100 E
#380000
0!
00
#385000
1!
0$
10
b10 3
#390000
0!
00
#395000
1!
10
b11 3
#400000
0!
00
#405000
1!
10
b100 3
#410000
0!
00
#415000
1!
10
b101 3
#420000
0!
00
#425000
1!
10
b110 3
#430000
0!
00
#435000
1!
10
b111 3
#440000
0!
00
#445000
1!
10
b1000 3
#450000
0!
00
#455000
1!
10
b1001 3
#460000
0!
00
#465000
1!
1$
10
b1 3
b101 4
b101 E
#470000
0!
00
#475000
1!
0$
10
b10 3
#480000
0!
00
#485000
1!
10
b11 3
#490000
0!
00
#495000
1!
10
b100 3
#500000
0!
00
#505000
1!
10
b101 3
#510000
0!
00
#515000
1!
10
b110 3
#520000
0!
00
#525000
1!
10
b111 3
#530000
0!
00
#535000
1!
10
b1000 3
#540000
0!
00
#545000
1!
10
b1001 3
#550000
0!
00
#555000
1!
1$
10
b1 3
b110 4
b110 E
#560000
0!
00
#565000
1!
0$
10
b10 3
#570000
0!
00
#575000
1!
10
b11 3
#580000
0!
00
#585000
1!
10
b100 3
#590000
0!
00
#595000
1!
10
b101 3
#600000
0!
00
#605000
1!
10
b110 3
#610000
0!
00
#615000
1!
10
b111 3
#620000
0!
00
#625000
1!
10
b1000 3
#630000
0!
00
#635000
1!
10
b1001 3
#640000
0!
00
#645000
1!
1$
10
b1 3
b111 4
b111 E
#650000
0!
00
#655000
1!
0$
10
b10 3
#660000
0!
00
#665000
1!
10
b11 3
#670000
0!
00
#675000
1!
10
b100 3
#680000
0!
00
#685000
1!
10
b101 3
#690000
0!
00
#695000
1!
10
b110 3
#700000
0!
00
#705000
1!
10
b111 3
#710000
0!
00
#715000
1!
10
b1000 3
#720000
0!
00
#725000
1!
10
b1001 3
#730000
0!
00
#735000
1!
1$
10
b1 3
b1000 4
b1000 E
#740000
0!
00
#745000
1!
0$
10
b10 3
#750000
0!
00
#755000
1!
10
b11 3
#760000
0!
00
#765000
1!
10
b100 3
#770000
0!
00
#775000
1!
10
b101 3
#780000
0!
00
#785000
1!
10
b110 3
#790000
0!
00
#795000
1!
10
b111 3
#800000
0!
00
#805000
1!
10
b1000 3
#810000
0!
00
#815000
1!
10
b1001 3
#820000
0!
00
#825000
1!
1$
10
b1 3
b1001 4
b1001 E
#830000
0!
00
#835000
1!
0$
10
b10 3
#840000
0!
00
#845000
1!
10
b11 3
#850000
0!
00
#855000
1!
10
b100 3
#860000
0!
00
#865000
1!
10
b101 3
#870000
0!
00
#875000
1!
10
b110 3
#880000
0!
00
#885000
1!
10
b111 3
#890000
0!
00
#895000
1!
10
b1000 3
#900000
0!
00
#905000
1!
10
b1001 3
#910000
0!
00
#915000
1!
1$
10
b1 3
b1010 4
b1010 E
#920000
0!
00
#925000
1!
0$
10
b10 3
#930000
0!
00
#935000
1!
10
b11 3
#940000
0!
00
#945000
1!
10
b100 3
#950000
0!
00
#955000
1!
10
b101 3
#960000
0!
00
#965000
1!
10
b110 3
#970000
0!
00
#975000
1!
10
b111 3
#980000
0!
00
#985000
1!
10
b1000 3
#990000
0!
00
#995000
1!
10
b1001 3
